(module A6S-H (layer F.Cu) (tedit 58F79BAB)
  (descr A6S-H)
  (tags "DIP Switch")
  (fp_text reference REF** (at -5.2 0 90) (layer F.SilkS)
    (effects (font (size 1.2 1.2) (thickness 0.15)))
  )
  (fp_text value A6S-H (at 0 0) (layer F.Fab) hide
    (effects (font (size 1.2 1.2) (thickness 0.15)))
  )
  (fp_line (start 4 2.85) (end 4 -2.85) (layer F.Fab) (width 0.05))
  (fp_line (start -4 2.85) (end 4 2.85) (layer F.Fab) (width 0.05))
  (fp_line (start -4 -2.85) (end -4 2.85) (layer F.Fab) (width 0.05))
  (fp_line (start 4 -2.85) (end -4 -2.85) (layer F.Fab) (width 0.05))
  (fp_line (start -4.5 5.9) (end -4.5 -5.9) (layer F.CrtYd) (width 0.05))
  (fp_line (start 4.2 5.9) (end -4.5 5.9) (layer F.CrtYd) (width 0.05))
  (fp_line (start 4.2 -5.9) (end 4.2 5.9) (layer F.CrtYd) (width 0.05))
  (fp_line (start -4.5 -5.9) (end 4.2 -5.9) (layer F.CrtYd) (width 0.05))
  (fp_line (start -3 -2.85) (end -4 -1.85) (layer F.SilkS) (width 0.15))
  (fp_line (start -4 -1.85) (end -4 2.85) (layer F.SilkS) (width 0.15))
  (fp_line (start -4 2.85) (end 4 2.85) (layer F.SilkS) (width 0.15))
  (fp_line (start 4 2.85) (end 4 -2.85) (layer F.SilkS) (width 0.15))
  (fp_line (start 4 -2.85) (end -3 -2.85) (layer F.SilkS) (width 0.15))
  (pad 8 smd rect (at -3 -4.45) (size 1 2.2) (layers F.Cu F.Paste F.Mask))
  (pad 1 smd rect (at -3 4.45) (size 1 2.2) (layers F.Cu F.Paste F.Mask))
  (pad 7 smd rect (at -1 -4.45) (size 1 2.2) (layers F.Cu F.Paste F.Mask))
  (pad 2 smd rect (at -1 4.45) (size 1 2.2) (layers F.Cu F.Paste F.Mask))
  (pad 6 smd rect (at 1 -4.45) (size 1 2.2) (layers F.Cu F.Paste F.Mask))
  (pad 3 smd rect (at 1 4.45) (size 1 2.2) (layers F.Cu F.Paste F.Mask))
  (pad 5 smd rect (at 3 -4.45) (size 1 2.2) (layers F.Cu F.Paste F.Mask))
  (pad 4 smd rect (at 3 4.45) (size 1 2.2) (layers F.Cu F.Paste F.Mask))
)
