EESchema Schematic File Version 2
LIBS:control_board-rescue
LIBS:power
LIBS:device
LIBS:transistors
LIBS:conn
LIBS:linear
LIBS:regul
LIBS:74xx
LIBS:cmos4000
LIBS:adc-dac
LIBS:memory
LIBS:xilinx
LIBS:microcontrollers
LIBS:dsp
LIBS:microchip
LIBS:analog_switches
LIBS:motorola
LIBS:texas
LIBS:intel
LIBS:audio
LIBS:interface
LIBS:digital-audio
LIBS:philips
LIBS:display
LIBS:cypress
LIBS:siliconi
LIBS:opto
LIBS:atmel
LIBS:contrib
LIBS:valves
LIBS:stm32
LIBS:switches
LIBS:ThunderDrive
LIBS:ftdi
LIBS:control_board-cache
EELAYER 25 0
EELAYER END
$Descr A4 11693 8268
encoding utf-8
Sheet 1 6
Title "Monster MKII control board"
Date "2016-12-26"
Rev "1"
Comp "ThunderDrive"
Comment1 ""
Comment2 ""
Comment3 ""
Comment4 ""
$EndDescr
$Sheet
S 8250 2100 1150 500 
U 58C5A086
F0 "iso_usb_interface" 60
F1 "iso_usb_interface.sch" 60
F2 "USB_RXD" I L 8250 2300 60 
F3 "USB_TXD" I L 8250 2400 60 
$EndSheet
Wire Wire Line
	7650 2300 8250 2300
Wire Wire Line
	8250 2400 7650 2400
$Sheet
S 1050 1900 950  4200
U 58D47447
F0 "logic_conn" 60
F1 "logic_conn.sch" 60
F2 "CLOCK" I R 2000 2000 60 
F3 "TEMP_A" O R 2000 4050 60 
F4 "DATA_A" O R 2000 2100 60 
F5 "HS_PWM_A" I R 2000 2750 60 
F6 "LS_PWM_A" I R 2000 2850 60 
F7 "HS_PWM_B" I R 2000 3000 60 
F8 "LS_PWM_B" I R 2000 3100 60 
F9 "TEMP_B" O R 2000 4150 60 
F10 "DATA_B" O R 2000 2200 60 
F11 "HS_PWM_C" I R 2000 3250 60 
F12 "LS_PWM_C" I R 2000 3350 60 
F13 "TEMP_C" O R 2000 4250 60 
F14 "DATA_C" O R 2000 2300 60 
F15 "VDC_EXT" I R 2000 3950 60 
F16 "BRAKE_PWM" I R 2000 3450 60 
F17 "GATE_ENABLE" O R 2000 2500 60 
F18 "AIN1" O R 2000 5200 60 
F19 "AIN2" O R 2000 5750 60 
$EndSheet
Wire Wire Line
	6150 2000 2000 2000
Wire Wire Line
	2000 2100 6150 2100
Wire Wire Line
	6150 2200 2000 2200
Wire Wire Line
	2000 2300 6150 2300
Wire Wire Line
	2000 2750 6150 2750
Wire Wire Line
	6150 2850 2000 2850
Wire Wire Line
	2000 3000 6150 3000
Wire Wire Line
	6150 3100 2000 3100
Wire Wire Line
	2000 3250 6150 3250
Wire Wire Line
	6150 3350 2000 3350
Wire Wire Line
	2000 3950 3250 3950
Wire Wire Line
	2000 4050 3250 4050
Wire Wire Line
	2000 4150 3250 4150
Wire Wire Line
	2000 4250 3250 4250
Wire Wire Line
	4800 3950 6150 3950
Wire Wire Line
	6150 4050 4800 4050
Wire Wire Line
	4800 4150 6150 4150
Wire Wire Line
	6150 4250 4800 4250
$Sheet
S 8250 5400 1150 400 
U 58D8801D
F0 "iso_can" 60
F1 "iso_can.sch" 60
F2 "RXD" I L 8250 5650 60 
F3 "TXD" O L 8250 5550 60 
$EndSheet
Wire Wire Line
	7650 5550 8250 5550
Wire Wire Line
	7650 5650 8250 5650
$Sheet
S 3250 3750 1550 2300
U 58D42776
F0 "filters" 60
F1 "salen_key_filters.sch" 60
F2 "VDC_OUT" O R 4800 3950 60 
F3 "VDC" I L 3250 3950 60 
F4 "TEMP_A_OUT" O R 4800 4050 60 
F5 "TEMP_A_IN" I L 3250 4050 60 
F6 "TEMP_B_OUT" O R 4800 4150 60 
F7 "TEMP_B_IN" I L 3250 4150 60 
F8 "TEMP_C_OUT" O R 4800 4250 60 
F9 "TEMP_C_IN" I L 3250 4250 60 
F10 "AIN1_OUT" O R 4800 5200 60 
F11 "AIN1_IN" I L 3250 5200 60 
F12 "AIN2_OUT" O R 4800 5750 60 
F13 "AIN2_IN" I L 3250 5750 60 
$EndSheet
Wire Wire Line
	4800 5200 6150 5200
Wire Wire Line
	4800 5750 6150 5750
Wire Wire Line
	2000 3450 6150 3450
$Comp
L GND #PWR01
U 1 1 58E6E637
P 8150 3850
F 0 "#PWR01" H 8150 3600 50  0001 C CNN
F 1 "GND" H 8150 3700 50  0000 C CNN
F 2 "" H 8150 3850 50  0001 C CNN
F 3 "" H 8150 3850 50  0001 C CNN
	1    8150 3850
	1    0    0    -1  
$EndComp
Wire Wire Line
	7650 3050 8700 3050
Wire Wire Line
	7650 3150 8700 3150
Wire Wire Line
	7650 3250 8700 3250
Wire Wire Line
	7650 3350 8700 3350
$Comp
L R R101
U 1 1 58E76B46
P 8150 3600
F 0 "R101" V 8230 3600 50  0000 C CNN
F 1 "10k" V 8150 3600 50  0000 C CNN
F 2 "Resistors_SMD:R_0603_HandSoldering" V 8080 3600 50  0001 C CNN
F 3 "" H 8150 3600 50  0001 C CNN
	1    8150 3600
	1    0    0    -1  
$EndComp
Wire Wire Line
	8150 3450 8150 3350
Connection ~ 8150 3350
Wire Wire Line
	8150 3750 8150 3850
$Comp
L +3V3 #PWR02
U 1 1 58E796E0
P 9300 2900
F 0 "#PWR02" H 9300 2750 50  0001 C CNN
F 1 "+3V3" H 9300 3040 50  0000 C CNN
F 2 "" H 9300 2900 50  0001 C CNN
F 3 "" H 9300 2900 50  0001 C CNN
	1    9300 2900
	1    0    0    -1  
$EndComp
Wire Wire Line
	9000 3350 9300 3350
Wire Wire Line
	9300 3350 9300 2900
Wire Wire Line
	9000 3050 9300 3050
Connection ~ 9300 3050
Wire Wire Line
	9000 3150 9300 3150
Connection ~ 9300 3150
Wire Wire Line
	9000 3250 9300 3250
Connection ~ 9300 3250
Text Notes 8500 3700 0    60   ~ 0
SW4 =ON => int. Bootloader for Flashing over USB
$Bitmap
Pos 10000 4050
Scale 1,000000
Data
89 50 4E 47 0D 0A 1A 0A 00 00 00 0D 49 48 44 52 00 00 02 40 00 00 00 B3 08 02 00 00 00 EE 61 34 
FF 00 00 00 03 73 42 49 54 08 08 08 DB E1 4F E0 00 00 20 00 49 44 41 54 78 9C EC 9D 79 40 13 47 
17 C0 DF E6 20 E1 08 84 CB AB 56 2C B6 36 82 5A 8F A2 56 2B 20 6D 6D BF 56 10 AD D6 03 B5 B6 2A 
52 5B 15 AF 7A D7 AB 9E 78 82 55 11 AD 78 D4 AB 5A 15 8F AA 54 44 F1 E6 54 0E 41 05 05 05 91 2B 
21 89 E4 D8 24 F3 FD B1 21 84 64 81 80 C8 A1 F3 FB 47 99 9D 79 F3 F6 CD DB 7D D9 9D D9 79 04 42 
08 30 18 0C 06 83 69 6E 30 1A 5B 01 0C 06 83 C1 60 EA 02 0E 60 18 0C 06 83 69 96 E0 00 86 C1 60 
30 98 66 09 0E 60 18 0C 06 83 69 96 E0 00 86 C1 60 30 98 66 09 0E 60 18 0C 06 83 69 96 E0 00 86 
C1 60 30 98 66 09 AB B1 15 C0 60 E8 91 49 45 0A 95 61 21 C1 E4 DA F0 B8 C6 95 49 B9 E4 A5 5C CD 
E6 5A 59 72 0D 5C 5A 25 16 49 35 C0 E4 F1 79 4C 93 BB 16 8B 8A 94 2A 26 8F 6F CB A9 E1 FA 90 8B 
44 72 3D DD 98 5C 73 5E 4D 4D 1A 99 AA 0D 85 C1 34 3F F0 13 18 A6 29 A2 91 27 79 38 D8 D9 1A D1 
A1 4F 98 94 EE CB FB 1B 7B 7C 6D 6D 6D 03 B6 24 18 94 AB A5 29 9F B7 B2 B3 B5 1B F4 40 6C 52 BF 
2F 1E 9C F1 EB C6 B2 B1 75 74 74 B4 E3 B2 5D 0F 46 65 57 53 F9 C6 9F A3 F4 75 E3 5B 5B 73 D9 C4 
92 D0 3B 6A 53 CF D2 90 97 45 49 0B BF 9F 79 DF 34 55 EB 46 55 86 C2 60 9A 23 38 80 61 9A 24 04 
BB 6B 27 97 CF BC 7D 9C 99 04 00 00 B8 78 78 78 78 78 B8 7C D2 CF 81 F6 41 8A CD 69 0B 00 C6 4F 
15 04 0B 5A 73 09 00 1B D3 1E BF 8A 36 8F FE F6 E0 5D B5 7D 27 EF 91 3E AE 00 69 7E 9F 7D 7D 2B 
D7 E8 31 B0 02 6B EA 9F EE EE 3E 3E 3E 3E 7D 5D 19 00 B0 3C A0 F7 C9 7B 12 93 7A AB 0C 52 65 F8 
B4 EF B9 6A FF 23 73 9A 27 CC 7A A3 2A 43 61 30 CD 11 EC C7 98 A6 08 83 E3 BA 2B 31 05 00 84 69 
BB EC 5C 27 09 06 4D FF 37 C2 DF 9C 00 00 50 4B 73 22 2F 46 A7 E7 96 32 38 D6 1D 5C FA 78 7D FA 
A1 59 45 BB D2 A4 EB FF C4 24 E4 3A B4 EF ED 3D A8 97 15 61 2C 58 1E 1F 79 F2 46 7A 21 83 D3 E6 
8B 41 DF 74 6C 53 29 56 94 E5 DF 5A 13 AF 04 C2 FD C6 AD 88 8E D6 A2 4E 03 5B 2D 89 4C 7B 9C 2F 
E9 F3 8E 6D 35 AA 3A B9 87 DE BA E2 6F 06 00 20 9A FF 71 CB 35 F1 CA 5B F1 B9 DF 76 15 00 80 42 
94 75 35 EA 5A 7A 6E A9 B9 75 FB CF 7D FE D7 DE 56 77 B9 49 13 A3 A3 6F A7 3C 26 91 75 4F CF 2F 
FA 76 69 03 A0 4A BE 1E F9 44 8E 00 4A 23 23 2E 7F F5 59 FF 77 2B 2A AB 92 AF 47 15 20 A7 EE 02 
B8 78 22 B2 50 CE FB E4 EB A1 3D 9D 14 17 8F 9F 78 50 80 3E EC F5 F9 C0 DE CE 55 8B D5 96 5F 3B 
7B 26 31 AB B0 AD EB A7 6C 79 A5 07 D8 E7 0F AE FF 7B 31 E1 25 E2 74 E9 F7 95 67 8F 76 54 E1 CB 
A2 8C 8B E7 AE 3E 2B 95 33 38 0E BD DC 3F 77 13 38 56 73 FA 18 4C 63 82 30 98 26 4C 41 EA 4E 00 
70 72 0F 95 68 10 42 48 2D 4F 19 61 57 E9 69 6A CC 9A 18 84 D0 F5 DD E3 0C 1C DB C9 3D B8 54 83 
D4 B2 44 1F 1B 06 10 DE 19 A5 08 A1 C2 B5 DF 56 8A 58 47 E3 4A F4 FB D2 90 32 A1 B0 30 2F 8F 2A 
CC FC B9 3B 1B 00 0E 56 AE A3 0F D5 A9 93 FB F2 8C DC BC EC EC EC D4 C4 E3 3E 36 0C 00 38 76 57 
8C 10 2A 48 3D 64 A0 D2 D1 B8 02 84 90 86 CC 9C D9 C3 4C BF 7C E2 9A 28 15 12 CE 6D 5B 51 18 76 
53 BF 53 C9 B2 2F 38 D5 5C C2 9B CE E5 56 2D 96 E6 AC 01 60 F2 E6 78 84 50 FC 89 99 95 2D 19 A5 
42 48 9A 73 DA A0 F2 EA 93 8F EA 73 44 31 98 FA 03 07 30 4C 93 46 17 C0 CA 34 08 21 54 98 B1 D7 
99 49 78 4D 0A 7F 5E 26 BB FD CF 42 2A 50 49 34 E5 01 8C F0 3E 1D FF E4 51 E2 71 37 0E 41 DD D9 
F5 03 D8 83 C8 85 00 E0 D4 7F 7E 6A 6E 49 D2 C5 20 00 B0 EF B4 BC 58 43 DB AD 64 C7 94 2E 00 00 
8C F9 79 CA 2A 75 33 8E 9A 00 00 8C E5 12 0D D2 90 99 E3 1D 59 00 E0 35 31 34 F9 51 72 D8 A2 C1 
00 00 8C C0 3C 25 FA EF 0F 5F 00 00 C2 EF DF F8 F4 AB FF 04 51 EF 48 0F DC 2C C9 B8 BE 97 FA FF 
E6 BF 63 72 4B 48 7D 65 36 0D 33 07 80 E1 F3 8E 65 67 DF A1 E2 B7 7D A7 C0 A4 27 D9 3B 67 77 01 
80 F1 9B E3 11 AA 52 6C 6E 6C 08 00 00 E1 7E FC 56 66 76 CA 71 2F 4B 06 15 C0 94 C2 6B 6E 1C 02 
C0 65 DF D5 47 85 D9 97 29 B1 97 1E CB 6E EE 1F 07 00 F6 9D D6 E5 96 C9 12 CE 04 79 78 F8 CC 5B 
7B 5E 51 9F 43 8A C1 D4 1B 78 0E 0C D3 9C 70 E8 38 EE 81 E8 C9 6F C3 EC CF ED 5E BF 3E F8 24 00 
00 70 74 4F 64 A3 96 FE 3A A8 87 53 87 6E 43 97 2C F5 04 80 BB 0F F2 F5 DB E6 3D 4C 05 80 0E 1F 
B6 7E 9A 7C E7 71 B1 10 00 8A D3 63 5F D0 4C 57 15 6D FD F9 93 80 6D C9 00 70 2A 71 7E 6B 76 CD 
5A FD 18 B8 20 30 30 70 C2 18 0F 00 00 CD 6F 33 D6 5D 23 45 39 A9 62 35 10 DE A1 C1 FE 9D 3B 74 
9E B0 64 ED 08 3B 26 68 36 DF B8 FF 34 F6 D4 79 00 08 8D DE F4 55 8F 0F FB 0F 99 BD 71 85 27 00 
FC 77 FB E1 07 BD 7A 76 B6 22 80 F0 1B EC F3 69 1B 5B 9A 77 FB 13 26 0C 6E D7 CE 6D C2 22 0F 00 
18 36 79 EC 47 4E ED BC 06 8D 00 00 0E 00 80 A8 2A B1 0F 63 2F 01 C0 37 73 17 0C ED ED DC CE 75 
E8 6F 41 3E 94 34 61 76 52 AC 02 01 D1 9D 25 7A 14 7F BF A4 B5 3B 13 00 72 F2 65 D6 76 0E 00 50 
7C FF D7 77 2C 7A AE 39 95 FB E3 AC A5 CB 7E FD D2 CC 58 1B 0C A6 09 80 E7 C0 30 CD 89 A2 07 87 
7B BB 8C CE 52 23 00 97 BE AE E9 00 60 6E 5D 71 D4 B6 85 0D F5 9F 16 6D DF 05 ED 9D BD 02 36 C7 
1A 00 A2 76 4D 8B DA 05 00 E0 E1 E1 71 E5 6A 6B A3 C5 1D A2 E0 1F 9C A6 87 97 01 B8 9C 88 8B F6 
E9 CA AB 51 25 81 77 F8 F6 4D DF 53 B7 F8 F9 13 57 BE EF B9 E8 C4 DE CB F3 7C 3F 88 55 20 20 5A 
53 E5 04 CB FE FD 1E 4C F8 4F 2D 2F 03 06 0F 00 80 61 A6 BD F4 DA BC 4B A9 CA 42 2A 12 00 00 C4 
32 39 80 71 C4 20 BC 3B BC C3 02 00 4B 9B B6 00 D0 A7 F7 BB 00 60 E7 D8 B2 FC 30 AB 2A B1 6C 0E 
00 80 93 93 76 3E CC 82 A7 B5 17 C1 36 03 00 40 7F 8D F6 F9 0B 00 BA BB 7B F4 75 8D 49 4E 7A 32 
3E 60 E5 7F 87 ED E6 7F BF 38 56 91 76 34 2C ED 68 D8 E6 D5 DE E1 09 A7 BE 37 A7 99 50 C4 60 1A 
19 FC 04 86 69 4E 3C B8 F6 6F 96 1A 8D 5A 16 85 50 EA 99 A3 A1 06 47 CF 1E 8A 2E 41 00 20 BA 70 
F2 08 00 30 39 06 4F 4F 62 00 F8 66 5E 14 42 48 25 49 1F 37 6C F4 B9 4B 13 5A 5B 54 AA F1 EF C6 
1F A6 87 97 01 40 D8 7F E7 06 7D C4 13 8B 24 0A 15 00 C8 73 73 72 72 72 9E 2B E9 54 92 95 8A E5 
08 54 2A 95 4A 25 C9 7C F4 14 00 00 B8 76 4E 02 2F 4B 06 A0 6B 29 0F 25 00 50 FA F8 D6 A1 CB 24 
80 8B C0 99 6F 46 10 00 10 77 3B 15 00 00 9E 9F DA 7B D8 40 55 76 15 CF 7C 1A B2 E2 FF 1C 36 0B 
00 54 50 B1 22 A3 2A B1 56 76 AD 00 E0 48 F0 49 CA 32 37 2F 1D A3 EA B3 80 0B 00 40 F8 67 95 21 
84 64 AB 26 FA 4D 59 76 2E 70 44 97 8C D8 AB CF C5 D6 4B AF 3C 2E 2E CC 3C 7F F8 77 00 48 3F 73 
FC 49 5D 96 55 62 30 AF 9F C6 7E 87 89 C1 54 87 C1 1C D8 1D ED 0C 8D FF D6 D0 75 D4 44 17 B5 58 
43 37 1D E5 D4 9F 5A 01 0F 00 2E 71 2F 2A 2D E2 10 65 1D A7 EA 8C 9A BE 22 C0 97 0D 00 C0 58 5E 
AA 37 07 26 7F 7E A1 7C D5 7E 05 7B 6E 96 A8 24 77 A8 E9 A2 B4 D2 4A BA D1 CF 81 01 F8 2E 8B 42 
48 F2 E7 6C 4B EA CF EF FD C7 50 FF E9 3F 2D 42 81 D0 93 EB 41 D4 9F BD BD FD 07 76 66 00 00 10 
7E 19 A5 48 2D 4B A4 26 A8 00 5C 4E DD 15 EB F5 23 D9 34 CC BC 7C 1D 8A B6 53 6A 69 09 65 1C 6A 
45 46 55 62 CB E7 BA 40 30 C8 7F FC 60 CA 32 54 93 3C 6A D1 87 53 FF C0 65 0B B4 1A 5E 7A 4C 5E 
DC E8 05 00 40 B8 6F 09 3F B8 7E E1 18 00 B0 77 09 96 D0 CF 14 62 30 8D 0C 0E 60 98 26 8D F0 C1 
21 00 10 0C D2 06 30 A5 30 71 42 37 56 79 1C 0A 1C D8 99 01 84 7B DC 0B 74 67 7F 00 00 4C 5F BE 
8E 5A 07 08 E0 72 E8 6A 2E 42 BA 00 E6 47 DD FD 33 AF EF A4 EE E6 00 E0 D4 7F 7E F2 0B FD B5 12 
E8 45 D2 4E E3 68 74 34 4E 6C 20 44 47 DC 91 00 83 CA 2E 2E 1E 33 D7 46 94 DF EE F3 FE 5C 39 56 
77 E8 A7 E5 C7 74 C1 32 E1 4C 90 BE 1A 09 CF 64 08 21 84 C8 63 AB 06 50 85 B3 FF BC AF D7 0F 15 
C0 FC F4 03 D8 51 BD 00 36 65 7B 7C B5 62 D1 D3 A4 BD DA 72 C2 7B C5 8A 31 BA 26 4A 61 E2 D4 CF 
CA 1F F7 08 F7 F0 4B 4F 10 42 08 15 EE D3 53 DB A9 7F E0 D5 FB 55 AE C3 C4 60 1A 17 02 21 BA 8D 
0D 30 98 A6 8B 4A 2C 92 12 4C 2B 1E 8F 76 06 57 2E 12 C9 CD AD F8 55 6D E9 84 54 F2 52 A9 BC AA 
2D A9 EA 1D AA BB 6A F6 B8 E2 F3 2B 4D B3 C9 A4 12 25 62 BF 82 6E F4 62 29 35 2C F8 7C E3 C9 35 
B1 48 A4 01 A6 05 9F A7 7F 48 A3 90 8A 65 2A 30 92 83 C1 34 29 70 00 C3 60 30 18 4C B3 04 2F E2 
C0 60 30 18 4C B3 04 07 30 0C 06 83 C1 34 4B 70 00 C3 60 30 18 4C B3 C4 A4 0F 99 37 6C D8 60 69 
69 F9 BA 55 C1 34 35 AE 5F BF DE AF 5F BF C6 D6 E2 2D A2 AC AC 2C 23 23 A3 7B F7 EE 8D AD 08 06 
D3 F8 B4 6A D5 CA D7 D7 B7 FA 3A 26 05 30 4B 4B CB 80 00 C3 15 C3 98 B7 01 3C EE 0D 89 48 24 8A 
8C 8C 1C 3E 7C 78 63 2B 82 C1 34 32 08 A1 B0 B0 B0 1A AB E1 57 88 18 0C 06 83 69 96 E0 00 86 C1 
60 30 98 66 09 0E 60 18 0C 06 83 69 96 E0 00 86 C1 60 30 98 66 09 0E 60 18 0C 06 83 69 96 E0 00 
86 C1 60 30 98 66 09 0E 60 18 0C 06 83 69 96 34 68 46 66 A4 92 96 4A 55 BA 3F 99 4C 2E AF 41 76 
04 37 1D A4 92 0B 45 52 26 87 6F 43 BF D3 79 5D 50 4A 45 12 12 F1 6D 6D 8D 92 FF 36 44 73 0C 06 
83 79 53 69 D0 27 B0 1B 61 63 6D F5 B0 B6 36 EF EE 17 92 27 AB B5 1C A4 12 FD B3 71 E6 C9 04 61 
BD 6B 58 98 BA DB DE D1 71 E2 B6 F8 FA 13 29 DD F8 6D 6B 07 7B DF 07 E2 5A B4 79 59 94 B4 F0 FB 
99 F7 C5 00 20 DD F0 59 2B 07 BB 4F 6B D5 1C 83 C1 60 DE 06 1A 34 80 11 1C 6B 00 18 35 7D 45 70 
70 F0 BA 75 2B 06 76 66 24 1D 9C B6 72 6F 72 6D E5 C4 EE FB E1 DB 59 9B D4 2C F3 7A D7 D0 DC C2 
1A 00 EC B9 55 24 75 AF 13 5C 6B 02 C0 A6 36 CF 4F F2 D0 31 7D 57 ED 7F 64 CE 05 00 D6 47 93 16 
CF 9A 3F DD A6 3E 35 C2 60 30 98 37 81 46 98 03 F3 FB 65 E1 D4 A9 53 E7 CC 59 74 E8 40 30 00 88 
4B B5 8F 60 8F E3 FE F9 65 DC 60 4F 4F CF 6F C7 2C B8 99 AE 7B BA 92 46 EE 5F 3F 6A B0 A7 A7 A7 
67 E0 8A 43 F9 32 28 7D 7C 66 CD E6 08 00 D8 BE 68 E2 8E 88 4C 9D 58 A4 CA D9 3C 3B 60 EE 8A 90 
3F B7 2E EC D7 D9 73 84 7F 48 4A 66 CA E6 D9 63 5D 5D 3D A7 AC 38 24 22 E9 A5 01 00 80 FC CA 91 
95 9E 9E AE 9F FB 2C 38 16 9D A8 13 A8 51 64 ED 58 3C B6 5F 67 D7 CF 7D 26 9F 4F C8 33 38 0B 79 
51 6A F0 A2 B1 FD 3A BB F6 F0 18 3C 7F 9D 56 54 F5 4D 00 54 37 4E AC FF 66 80 6B 0F 8F C1 AB C3 
AF C9 10 A5 76 D1 DF 7F CC F4 F4 F4 F4 F4 1C BC 32 F4 82 18 41 D6 8D AD B3 2E C8 00 9D 9E F5 E3 
82 C4 5C 95 05 97 A3 6B 4F 67 22 F9 3F 1B 67 CE 5F 77 28 F2 9F F5 54 BF 11 B7 8D FB C5 60 30 98 
37 11 53 D2 36 6F DF BE BD 5E D2 3F 53 D9 D0 BF 9B B4 62 DD BA 75 6B 56 2C A0 D2 9C 9F 4B 13 23 
84 72 62 43 28 7D BA BB BB 50 FF 89 48 13 23 24 FB 6B 71 17 00 00 70 E9 EB CA 00 00 60 CC 7F 94 
71 5C A7 FC E4 CD F1 3A E1 2A 49 A2 97 25 03 00 80 70 D7 56 06 B0 EF E4 4D FD 7F CA F6 7B B4 D2 
5E 28 75 89 E1 5D 46 FA B8 EA 89 2D 9C D7 D3 0C 00 7A 7B FB 51 7A 1E BB 2B D6 3B 15 D9 D6 E1 16 
00 30 7D F9 BA 99 63 3D 01 A0 F7 C4 08 15 7D 13 2A 1F BC 77 46 29 BA B9 7F 1C A5 D2 D7 1E 0C 00 
18 B3 26 06 21 C9 B6 1F 2C F4 F5 F4 5D 16 45 59 89 E2 60 5C CE EA 81 5C 20 BC D3 4A AB 32 91 64 
F5 40 ED 3C E2 D7 9E 2E 00 00 84 FF 53 65 BD 0C 57 BD 8D 3B C6 44 84 42 E1 D1 A3 47 1B 5B 0B 0C 
A6 F1 D1 68 34 A1 A1 A1 35 56 6B 84 00 66 C0 91 9B B9 BA BB F0 BE AB 05 08 A1 B4 8B BF 03 80 C0 
3B BC 54 78 CD 8D 43 00 23 30 BB 0C 21 24 F9 73 76 17 00 08 BD 52 10 BD CD 17 00 0E C6 95 E8 0B 
57 CB 12 7D 6C 18 40 F8 3D 2C 43 4A E1 65 37 0E 61 DF 69 7E 81 06 95 A6 86 51 31 49 49 2F 2D 6B 
F5 40 2E 80 CB 7F 0F 65 08 A1 73 1B 06 50 95 0B 52 77 02 40 B7 D1 E1 12 0D CA 4B DA 09 00 DF CC 
3B AF AA E8 4D B8 EC 0B 0E 00 CC D9 72 EC F6 ED 0B 47 23 62 F2 4B 64 55 34 D1 06 B0 F4 E2 CC 80 
56 2C 20 DC 6F 3E 23 35 24 F5 7F BF B4 BC 6B 6E 1C C2 C9 7D 5D B1 06 A9 24 89 33 C7 FA 87 FC 75 
5B 81 C4 6B BF D5 06 2D BD F8 27 A6 35 51 99 46 BC 69 98 39 80 CB A5 C7 24 42 C2 85 9F 9B 95 37 
AC 07 70 00 6B 60 70 00 C3 60 28 4C 0C 60 8D F0 0A 31 EC BF 27 65 12 B1 50 28 8C BB 18 E2 CC 24 
46 F4 0B 7A 4E 22 AE 35 01 84 DF A7 1F 3B 02 C0 87 FD BF F1 B2 64 C8 4A 15 E2 82 CC 58 05 EA FD 
E3 A7 AD CC 01 C0 AA F3 47 FD 00 20 E6 E6 63 36 C7 BA 2A E1 82 41 5F BC C3 05 26 97 DF 9A 4B 38 
76 68 6F 05 A0 00 44 1D 7A 59 98 45 27 2D 9B 6B 4D 00 D1 DD E9 1D 2E 00 7C E4 3E 54 5F 5A D2 C1 
F1 3C 06 D1 A6 9B 3F 00 9C 5D 77 4F 86 74 47 F8 83 A6 CC 06 80 A0 E9 C3 7A F7 FE F2 3B 9F FE 3B 
4E DD AB A2 89 B6 8D 5A 51 F4 40 A2 01 74 F5 93 B6 6C 06 BB C3 8E 7C 15 C0 D3 C2 CC C4 58 05 32 
B7 B6 31 07 60 5A 75 DB B0 2F F4 97 D1 BD CC 80 30 23 08 E3 53 A3 35 91 9A 3A 46 74 68 6B C7 02 
60 39 F0 99 00 80 D7 2B 62 30 98 B7 81 46 08 60 B6 8E 2D CD AD 78 7C 3E BF DB 27 BD DB 73 09 40 
09 22 99 4A 2E 46 80 12 73 4B 10 00 94 66 25 47 BD D4 00 00 CF AE 95 33 93 C8 7F 90 A7 44 00 00 
62 71 3E 00 B8 0A 5A AA 90 18 00 CC D8 74 8B 38 90 C2 A0 80 05 DA 60 60 61 DB 92 4E 9A BD 5C 8C 
00 9E 96 C9 00 00 9E DC 8B D5 6F 2B 18 14 9A 53 52 92 99 72 F9 E0 C1 63 B7 EE FA 59 55 84 15 79 
DB DE 63 23 4F 9F 8F 89 39 BD F1 F7 C9 CE 4C 62 E9 8F C1 4F 64 B4 4D B4 6D 58 96 AD 3A 75 64 02 
B8 5C 4C CB 7D 91 97 79 F1 F8 F1 73 97 82 3A BE D3 DE 99 49 C8 B4 2B 0C 73 D6 4E 09 58 1B 72 BA 
98 D4 C6 3C F3 4A 9F 18 D0 9B 08 C7 2A 0C 06 F3 D6 D2 08 01 6C E5 D4 11 A3 7C 07 0F 1E 3C B8 23 
BF 77 D4 4B 8D 60 D0 8F ED 79 B6 7D BF FB 0A 20 AD FF BB 83 17 FF BE 70 58 AF F1 00 10 38 EF 4B 
1B 07 81 EF 47 EC EC AB D3 06 FB FF BE 69 65 C0 E7 3F 9F 04 C2 7B F0 00 27 BE BD 33 00 04 2D 9A 
B8 E7 7C A6 BE 64 BD 6F CC 00 00 64 95 97 9E 9B D1 4B EB E2 36 B8 2F A0 AB 3E BE 33 F6 84 FD DE 
6F C2 3E AA B2 BD B3 9B 97 25 23 FD CC 96 53 FF 5E 8B D8 B3 6C F4 E8 61 61 D7 8A 75 A2 90 2A 7B 
D4 07 2E 5F 78 7F 75 2F 9F DF DB AD A7 3D 0B 80 F8 F0 3D 97 EA 9A 00 B4 E8 D6 8D 0D 90 76 E2 58 
E4 F5 C8 DD 03 BF FD F6 EB CF 4F 32 DB F7 F4 69 C9 CA BE 3A 79 C2 8C A0 95 B3 A6 CD DB 1E 1A 1E 
29 E5 B1 41 2E 46 80 4E CF FD 65 C6 E5 74 49 79 73 7A 13 99 D3 3D AB 61 30 18 CC 5B 81 29 AF 23 
EB 6B 2E 84 5A C5 A0 87 CB 57 7E EB D2 8B 49 84 10 42 92 E3 1B 26 EB 0E 6C FC 2B 81 9A 70 52 0A 
13 E7 0E D1 AE AD B0 EF E4 7F F5 BE 18 21 A4 28 BC 4C AD 92 E8 3D 31 42 27 5C 2D 4F F1 B1 61 08 
06 85 96 69 B4 F3 61 BD 27 1E 54 20 44 4D 4D 4D D9 1E 5F 95 34 0D 99 B7 E1 A7 CE 54 E1 48 1F 0F 
00 98 B9 FD 1E 42 E8 79 CA 71 ED AA 10 80 41 93 42 8B 2A AF 8C C8 4B 3A 3E A4 4B C5 52 91 53 B7 
72 AB 68 42 4D 62 F9 65 94 22 B5 3C 73 D5 F7 9D CB 9B F8 45 3F 14 23 84 5E 3E BF 36 C9 4B FB D1 
B4 60 D0 7C CA 1A 77 4F 2C A4 4A 0E C6 E5 E9 9A 57 61 22 89 7E 05 BD FF D7 03 78 0E AC 81 C1 73 
60 18 0C 85 89 73 60 04 42 15 13 3B 55 B1 63 C7 8E 86 C9 CC 8B 54 72 89 54 CE B1 E2 73 2A EF 83 
41 CA 25 2F E5 C0 E3 F3 F4 DE 98 A9 64 52 19 9B CB 63 D5 7E C7 0C 3A 69 20 93 8A 34 2C BE A5 E1 
C6 20 72 91 48 CE 64 5A F1 AA D8 98 43 22 11 A9 D5 CC CA A2 6A 68 22 93 8A 94 88 69 C5 AB D4 BB 
58 24 42 4C AE 8D DE BE 24 A4 5C 22 27 D9 C6 3B 95 54 65 A2 D7 41 83 8D 3B 86 02 67 64 C6 60 28 
10 42 61 61 61 FE FE FE D5 57 6B D0 AD A4 6A 84 60 71 AD F9 34 9B 4B B1 B9 3C A3 62 96 B9 15 AF 
6E BD D0 49 03 73 2B 3E 5D 5D 2E 9F 4E 1F 1D 3C 9E 71 AB 1A 9A 98 5B F1 8D E7 EE AC F9 86 72 D8 
5C 1E 9B 4E 4C 55 26 C2 60 30 98 B7 0D BC 99 2F 06 83 C1 60 9A 25 38 80 61 30 18 0C A6 59 D2 B4 
5E 21 62 DE 1A 54 62 91 54 53 FE 07 C1 34 9C 14 6C 74 5E 47 5E 02 4C 83 A1 94 8A C4 72 64 C1 B7 
B5 D0 1B 3D B1 A8 08 31 F9 36 3C 56 1D 32 3C E0 A4 10 4D 13 FC 04 86 69 04 D4 D2 94 CF 5B D9 E9 
F2 12 F0 AD AD 59 0C 9F 0B C9 75 48 2F A0 7A 70 63 DF 84 19 87 64 35 2F 45 AA 1D AF 21 2F 01 A6 
C1 78 3E F7 C3 16 8E 8E 76 5F CD BA A0 2B 12 3D DC 6F 63 4B 0D 68 1D 32 3C E0 A4 10 4D 14 FC EB 
12 D3 08 10 2C 68 CD 25 EC 9D 07 CD F9 E9 0B AE 42 FE F0 DE D9 3F F6 9F F6 1B 79 E0 49 CA 54 AB 
DA 7C D8 86 54 19 63 BC C6 17 F4 DE C3 AC EF CF E1 5E 47 5E 02 4C C3 50 98 76 66 73 1E 09 00 31 
21 7F DC 5F F1 65 27 6B 00 00 92 94 83 76 40 59 1F 4D 5A 3C EB 33 C7 DA 64 78 A8 43 13 4C 43 80 
9F C0 30 8D 86 E3 FB DF CE 9D 3A 75 FA EC 39 5B F7 FD E1 65 C9 28 4E 7F 4E A5 07 30 31 2F 01 80 
FC 44 F0 DA 58 05 CA BE 3A 7E E6 BA 0B CA F2 7A 0D 9C 97 00 D3 C4 50 45 85 6B B7 BD 06 74 FA C8 
85 4C E3 1A BA 0C 0F 48 F5 FC AF 0D 33 BF 19 E0 D9 C3 C3 73 C2 8C A0 F4 02 15 54 91 68 42 D7 24 
EB C6 BE 89 63 67 84 1E DA 3B 6B DC 80 1E 1E 9E 2B 43 2F 53 8E A7 96 66 51 AD A6 AC D8 7B EE 9F 
AD 93 27 07 E5 D4 3E D3 21 A6 D6 98 F2 4D 19 FE A0 F5 ED E4 F5 8D 7B F9 CE CB DE 2B D7 AD 5B B7 
6E C5 F8 C1 AE 00 30 79 F3 6D 54 9B BC 04 2F 94 D4 46 C6 00 00 D4 07 EC 14 0D 9B 97 A0 3E C1 1F 
32 BF 3A 2A C9 1D 2F 4B 06 30 E6 C7 26 1C 02 00 FB 4E EB 4A 35 08 95 6F 68 30 79 73 BC 76 EB 70 
C2 3B AD 14 1D 9E C3 03 00 C1 20 FF 09 63 3C 00 C0 C9 3D B4 4C 43 9B 68 A2 A2 09 B5 93 38 00 7C 
E6 ED 43 FD E7 D8 5D 31 42 42 6A AF 6D A7 FE DE 03 3B 53 BE 57 6F 7B 6A BF 9D 98 F8 21 B3 49 AF 
10 5F BC 78 11 1F FF D6 4D 06 A8 D5 EA 97 2F 5F 5A 5B 57 B9 71 F0 1B 8F 50 58 FF 39 AF 2B 81 4E 
2F FC F5 B4 EE 2F B5 FC A5 12 24 7F 2D 9C 03 00 FB AE 16 8C ED EF 78 3F 72 A5 CB C0 45 BF CE FD 
C7 63 DF FB 9B D7 A5 00 23 30 5B BA A9 9D B9 74 CF 9C BE 3F AE 5F 7D F2 E6 8C 69 FB 6F 9C FE B7 
67 DE 80 ED B1 11 FE E6 E5 6F 11 09 16 58 B1 00 08 BF 87 2F 0F 38 29 A2 FB B5 F2 CA 72 9E 77 3F 
75 15 E7 FE 2E 1B D7 49 6A 05 49 8A E2 E9 A4 4D 2A D9 1D 0E E0 F2 DF C3 F8 CF DE E7 8E DB E8 F5 
F5 AC CB 00 50 98 76 62 4D BC B2 DB E8 F0 FF 0E 7C 2F B9 E7 D1 A6 9B FF 9E 43 37 7C BB 7E 89 27 
F3 9B 26 E9 FF 1D 8E 7A A9 19 B3 66 D8 C7 DD 3B 2E FC DC 6C E5 7F BF 46 27 07 F8 74 AD F4 CD 28 
D7 9A 00 00 26 A8 FA 05 5C B9 F4 B9 E8 03 B7 8F 55 99 27 2E 1F BA AA 06 50 83 BC 58 A4 06 00 33 
1B E7 61 BF CC EF 33 7C 85 FB A7 1F 33 41 55 DE 04 A8 9D C4 17 1F B8 B7 DC AF 4B E4 A6 21 03 67 
9E 7C F8 B8 40 D1 22 33 EC 92 C2 BE D3 BA 84 2B 73 EC 88 E7 8B BE 68 BF F2 12 DE A7 B4 21 C0 AF 
10 AB E4 E5 CB 97 B7 6E DD 6A 6C 2D DE 64 9C DC D7 E5 89 65 A5 42 E1 D3 CC 6B 13 BA B1 76 CD F3 
3A 7D 4F 5A AB BC 04 00 60 55 C5 6F B0 86 CA 4B 80 69 52 14 1D DF F6 07 00 1C 98 3F 63 EC 58 BF 
43 97 49 00 D8 F6 E7 0D 35 7D 65 16 4B F6 78 FF B6 A9 ED EC AC 9D DD BE CF 52 23 73 6B 60 56 9D 
68 42 9F 8F BA B4 07 00 D7 FE 9F 01 C0 93 27 A5 A5 2F 1E 66 A9 D1 BB DD DB 5A 11 00 60 AE 7E CD 
3F FC 30 3A 4C 7A 02 6B D9 B2 65 CF 9E 3D 5F B7 2A 4D 0D 91 48 54 54 54 F4 16 9E B8 8E D8 D8 D8 
9A 2B BD 02 E6 D6 36 F6 3C AE 19 70 AD F9 1F 75 ED 66 06 49 2A 79 99 5C B7 E9 FE 7B EF 10 D4 A6 
FB 4E 95 F3 12 98 11 15 79 09 00 84 00 00 04 C7 CC 78 11 87 69 79 09 F4 A4 D9 CB A3 CA F3 12 98 
D3 E4 25 B8 B8 6F 38 99 77 F7 F6 BD 62 E7 2E 9F D4 6A A5 09 A6 C1 28 7D FC DF 92 48 05 00 00 BA 
7A E0 80 B6 F0 42 F0 1F 0F 96 7F E9 40 53 3D 67 D9 E7 23 C2 5F F4 3D 1D 9F 3B A0 DD 63 9F F6 EE 
79 00 E5 89 26 FA 73 F9 64 EC 95 33 5B 97 EC 5C FA 63 F0 B8 11 DB 0D 5A 2A 49 15 00 B0 2D B4 13 
63 B6 4E DD DC 38 44 C1 B3 67 72 04 66 84 8C 69 FB 7A 4E 0F 63 04 7E 02 C3 34 1A E9 67 26 BB FB 
8C 19 E5 3B B8 5F 67 9B E9 E1 65 00 2E 4E EF BE 5B AB BC 04 48 45 4A 55 50 F8 E8 CF C5 2B 0E 95 
E8 3D 15 35 58 5E 02 4C 93 E2 DA 91 9D 00 30 FB CF 7B E5 53 24 92 6D 3F 58 00 3A 7D E8 34 CD 52 
0E A4 52 C9 D5 00 A8 A8 B0 20 EB D0 96 A0 A8 97 1A 99 18 54 74 89 26 6C 6A DA BB 8D CD 7F B7 A7 
2D 33 FB EA AF 03 07 4F 1E DA B5 ED CA FF 94 35 34 C0 D4 17 A6 CC A7 BD 9D 8B 38 F0 8C FA 6B 5F 
C4 A1 47 77 77 BF BF AF E6 22 84 6A 95 97 00 21 E1 96 F1 16 00 00 84 BB 6E CE BC 81 F3 12 D4 23 
D8 E5 5E 05 B5 3C 7D 84 1D 13 08 F7 5B 2F 2A 0A 73 63 D7 03 80 60 50 68 76 8A 6E F4 2B 92 36 DC 
FE 47 9B F6 C1 A9 BF DF C0 CE 0C 20 BC 33 4A 69 13 4D 54 34 A1 D2 CA 1F 8D 13 A3 72 8F A2 E2 A5 
52 98 38 7F 9C 27 00 7C 37 69 BE 97 A5 56 14 A6 CE 98 B8 88 03 07 B0 2A C1 77 93 46 1C 77 0D 29 
2B 15 0A E5 A4 61 B9 52 26 16 0A C5 AA CA 85 65 12 B1 54 66 54 D5 04 AA 90 26 94 CA 8C EB CA 84 
42 A1 58 5C 97 5E 4C 07 BB 5C C3 A3 96 4B 44 62 9A 65 A5 62 B1 D0 D8 37 AA 16 92 32 C9 CB E3 7B 
FF 05 B7 1E 89 D5 F2 CC 99 3D CC F0 2A C4 57 C4 C4 00 F6 06 BE 42 94 E4 27 C5 DC C9 29 FF 4B 9A 
9C 98 22 51 81 42 94 71 E1 42 22 7E B0 6F 2E 10 2C AE 35 9F 26 65 0C 9B CB E3 F3 0D 37 9D 32 B7 
E2 59 72 EB F2 49 7E 15 D2 8C B3 EA 00 00 97 CF E7 57 95 22 07 D3 7C 61 70 AC 6C 78 34 79 2D 78 
3C BE B1 6F 54 2D C4 A9 BB 53 EC DE 9D AB FA BC 6F CD E4 76 D8 98 A0 EC 3D E1 FB 0E 6F EF FA E5 
86 E3 CD BB 20 45 EB FB F4 CE 9D 17 D7 BF 17 00 A8 CE 6F 1B FB BF 9F 1F A4 95 A6 0A AC D8 DB 46 
7C 9C 71 3C 7F DA 67 8E 8D AD 21 06 83 79 C3 B0 0A D8 F9 E2 93 09 D1 89 69 79 6A 33 4E DB 0E 3D 
3D FA 75 36 6B 6C 9D DE 06 DE B4 00 96 17 77 60 79 F6 FB 77 BF EB 82 54 39 8B FF F7 C1 CA FF 94 
40 78 33 01 08 96 F3 CC D5 9E DF 4E 0D 1F 9F 3A C7 1A 2F 21 C3 60 30 F5 0A C1 B2 EA D6 6F 50 B7 
7E 8D AD C7 5B 46 FD 07 30 99 54 A4 D0 5B 03 C6 E6 1A BE 90 21 E5 A2 67 D9 2F 64 00 36 76 6D DE 
71 34 7C 78 2F 2D 7A 9E 5F 2C 56 03 BB AD 93 B3 B5 B6 A1 4A 24 92 1A 77 C4 E3 F3 A9 07 7C A5 B4 
A8 44 C6 69 E5 C8 03 80 C7 B1 27 EC 5D 02 9C 6D 41 F3 B2 24 BF D5 EF A7 8E 97 0E 1E A6 FD 8C C3 
C5 63 64 F1 94 CD 0F 0B E7 F4 6C 51 3F 67 6A 0A AF 66 0D F9 8B 9C 3C 91 8C 24 D8 D6 ED 9D 5B 9B 
95 D7 7F 29 37 EE 47 9B 45 B3 A4 E8 B9 12 71 1D 1D F1 9E D9 18 0C E6 CD A7 DE E7 C0 A4 5B BE 6D 
6D AB 87 95 39 B1 70 CF 9D F2 A3 F2 8B BB 03 CC CC 6D 9D 05 02 57 81 A0 6D 0B EB A1 81 7B CB B7 
A1 03 B5 34 63 E9 F7 5D F8 8E 6D 04 02 81 AB A0 83 8D 39 B1 F6 60 A2 1A 40 2D 4D EC E9 60 67 6B 
48 3F 6A 67 68 8D 22 75 9C 53 AB CE 9E E1 52 04 00 D2 D8 A8 9B 1F 79 77 B6 22 80 69 D5 6D D7 FE 
39 03 BA B4 07 28 A5 E4 DB B5 73 73 E3 DC 4F 7D DA 90 1F 19 D6 DD 1A CF EE 1E EE C5 B5 68 E5 D4 
41 20 10 7C D8 A1 4D 1B 97 31 97 D3 25 00 70 6D BB 87 91 29 6C 6D ED 43 A4 A8 68 EB CF 5D EC 1D 
DB B4 6E 61 D7 D9 3B 28 0F EF C3 86 C1 60 DE 74 EA FF 09 8C 6B 4D 00 B8 FC BA 7C 7C 1B 73 28 13 
65 EE 5A B3 73 D5 8F BD 3F 1B 20 F3 6A CF 8D 3F 3A E3 CB 89 A1 00 30 7D 79 68 5F 27 71 E8 94 B9 
27 B6 8C BF 9F A9 88 8D F0 B7 22 8A 56 0E FD 68 59 A4 02 08 EF 2D 7B 46 31 9E 5D 99 BA 28 74 9E 
5F 0F 19 FB D1 92 21 2D E7 2E 5F 2E E5 71 AE 2C 9E 17 51 AA F9 6E D2 8A 8F 3F E0 28 14 36 36 6C 
28 7C 1C 3D 7F E8 17 47 4A D4 82 BE 1C EA 99 43 96 A3 69 F7 A9 8D 4E 19 39 59 F1 71 10 C1 66 F3 
58 44 03 6F 27 5D 37 6B 30 5E 5C F4 E8 39 3A 4B 8D FA 8F 9E FF F3 D0 2E 77 4E AD DC B8 FF 2F AF 
4E 89 71 2F EE 7E E0 B5 64 C5 8A 34 0E 07 FE DB B7 E4 62 8A 60 FA F2 F1 EF 70 15 60 F3 F1 C3 53 
8B A7 6E 4B E9 ED 1D E8 DE 26 29 28 F4 D7 85 3B 3D F6 4C EF D5 B0 E7 8A C1 60 30 0D 8B 29 2B 1A 
6B B3 9C 5A FB C1 C4 33 B5 F6 EF 7D 3F 77 01 80 83 71 25 D4 D7 39 00 B0 FB 4A 01 75 48 25 D1 7E 
0C 14 91 26 A3 BE A8 00 C2 3F B3 7C ED E9 A3 E8 20 AA E4 69 F9 67 37 77 F6 8F 03 80 63 77 B5 6B 
9C D5 B2 44 6A 73 55 A8 D8 CB 95 3C 3C 87 E7 E4 5E B1 AF 6B 41 EA 4E 20 DC A9 0F 32 5E 3E BF 00 
B5 D9 89 B5 3E D6 34 D7 CD 1A 92 C3 73 BA 00 C0 F0 79 E7 CB 57 F1 CA F6 CF E9 02 00 A3 96 C5 94 
4B 26 37 0D 33 07 C2 FB B1 42 DB D1 96 F1 16 40 B8 C7 17 23 B5 EC 8E 1B 87 D0 37 42 9D 79 3B 3F 
9F 68 44 F0 32 7A 0C 86 A2 51 97 D1 A3 C4 A0 95 41 41 41 41 4B 66 8E 1D F7 47 B2 7D A7 75 5F F6 
B0 45 64 99 54 05 4E EE C1 DF F5 D7 AE 03 64 5A 75 9B B9 DA 07 00 92 53 72 33 13 AE 01 C0 E4 4D 
93 9D CB D7 9E 76 F0 F0 9B D7 D3 0C E0 B9 A4 FC 6D 18 A9 04 00 50 92 E5 7F 13 EC FE DF 2D BF FF 
22 6F CB 78 8B F2 AD 16 58 1F 7E 3C 24 FB DA 93 CA 33 66 DA 07 B2 C2 AC 58 20 FC 7A 7C 40 B3 64 
F6 F5 52 6B 6B 3C CE CE 7A 08 00 13 26 78 94 4F 65 71 BF 19 3F 0D 00 6E 5C 4A 94 6A 1F 29 B5 F3 
60 CA F2 F9 30 B9 44 03 60 63 6D 0E 00 EC D6 5C 22 3B 26 3E 9F 66 AA 0C 83 C1 60 DE 1C 5E D3 2A 
C4 B4 2D BF FD AA FB A3 38 43 58 22 54 31 4B 9F 52 FB DA E9 C3 E1 59 03 C0 FD AC 62 AF 77 00 00 
98 1C FD 83 B6 AD BB B0 20 A1 CA 4D 9D 19 1C D7 0D FB 5C 01 A4 11 12 5D 6E 7A 70 1D E8 EF 4C F4 
4F CE 5E EE D5 9E 05 00 8E 2E 93 90 66 12 75 E8 D6 C9 B5 FD A7 FE FD 9E F9 2B 9F 5C AD A9 B5 35 
7A 12 04 10 7E 1D DE A9 58 EF A1 02 33 00 30 B7 E6 54 65 0D 33 82 00 00 0D 09 A0 5D BD FB 5C 4E 
02 34 C2 C9 62 30 18 4C 03 F1 7A 9E C0 08 EF DB 8F 4B C4 62 61 71 61 F6 A1 55 63 41 B3 7A 7E 58 
BC 95 E3 BB 5E 96 0C 69 A1 48 FF 6B E2 E2 67 4F 01 A0 67 D7 96 D4 9F C2 82 32 BD 83 79 89 67 95 
00 50 C5 4E D2 15 50 F7 6E 0A 36 BF DF 96 85 BC 95 3B 62 0C EA A8 A5 B1 0B 36 4A 7F 9F F1 59 5D 
4F E9 15 A8 B5 35 EC E5 62 04 E8 AF C4 34 89 EE 10 22 25 00 20 13 57 69 0D 25 42 00 C0 A8 98 E2 
6B 6D 89 B3 C7 62 30 98 37 9A D7 B5 13 87 7D 1B 5B 1E 8F 6F E7 D0 EE 13 8F AE 00 F0 F4 D1 33 15 
D7 BE 23 8F 51 7C FF B7 0D E1 DA 5C B7 45 0F FE 99 B6 28 1A 00 BA 7C D0 B2 53 BF FF 01 C0 A1 A5 
0B 23 EF 6B EF DA D7 0E 04 85 17 AA 80 E8 EC 50 CB 77 7E 83 96 15 9F 5D DA DF A0 90 69 D5 3D 55 
AA 74 6F DF 38 DF BD D5 D2 1A 1F 74 19 F0 09 00 FC B6 34 BC 98 04 00 40 AA 9C E0 D9 33 01 E0 9B 
51 1F 57 B5 0F 3A 97 C7 00 94 99 5F 82 00 C8 E7 72 E4 D4 BF A7 63 4D 3B 90 62 30 18 4C B3 E6 F5 
DC D0 D1 E9 E1 5F 0C FE D0 16 C4 A5 8F CE 45 A7 01 C0 57 03 BB 71 58 CE B3 0F 2F DD E1 B9 68 D5 
8F 3D 2E 9D F0 F7 7C BF 6C ED A6 03 00 D0 7F 5A 84 E7 FB 5C 26 F8 EE FE D9 72 C2 1F 57 07 BA 58 
7F 37 29 D0 A2 20 32 FC 54 2A 00 EC BE 3C C3 B1 D6 DF 1D B3 B8 34 F7 6E DA C2 06 A1 F6 D6 80 5F 
D6 7A FD DE 27 EA CC 34 07 CE B1 59 F3 7A 5C DD B8 25 56 81 80 F0 9B 3E BA 47 15 7D 58 7D 36 78 
1C 84 EF 18 33 6A EC 00 BB A4 58 05 9A 32 EA 63 73 FC BD 36 06 83 79 B3 31 65 41 48 AD 57 21 EA 
61 DF C9 65 E1 96 F3 BA 15 71 59 B1 87 B4 29 B7 01 00 E0 B7 1D 51 7A 8B E5 24 67 C3 66 E8 35 F4 
3B 75 2B 57 5F F4 CD FD D4 3E D0 25 C6 3D EA 67 94 AF 2F EA 6D 15 62 9D AC 21 2B 4C 5C 32 CE 53 
77 68 D0 A4 E0 87 C5 46 92 09 3F BD 1D AF 85 E1 8B 07 53 95 BD 26 D6 CF 8E E9 78 15 62 03 83 57 
21 62 30 14 26 AE 42 24 10 AA 39 B9 EC 8E 1D 3B 02 02 02 6A 15 17 AB 45 25 16 49 35 00 E6 56 34 
BB B5 22 95 BC 54 2A 07 60 F2 F9 0D BE 5C B0 32 22 91 28 32 32 72 F8 F0 E1 AF B9 9F EA AC 21 93 
4A 14 2A 35 93 69 65 E2 36 B2 32 A9 48 A1 D2 EE CA F1 EA D4 F7 B8 63 6A A0 A1 5C 0E 83 69 EA 20 
84 C2 C2 C2 FC FD FD AB AF D6 28 73 42 2C 6B 3E BF AA 63 04 AB DE EE BF CD 84 EA AC 61 6E C5 AB 
D5 42 42 73 2B 3E 5E 78 88 C1 60 DE 12 DE C0 74 2A 18 0C 06 83 79 1B C0 01 0C 83 C1 60 30 CD 12 
1C C0 30 18 0C 06 D3 2C C1 01 0C 83 C1 60 30 CD 12 1C C0 30 18 0C 06 D3 2C C1 01 0C 83 C1 60 30 
CD 12 1C C0 30 18 0C 06 D3 2C 31 E9 3B B0 C7 8F 1F 9F 3B 77 EE 75 AB D2 14 40 BC 0B 00 00 20 00 
49 44 41 54 D4 78 F9 F2 65 7C 7C BC A5 A5 65 63 2B D2 68 DC BB 77 EF 2D 1C F7 46 04 BB 1C 06 43 
81 10 2A 2D 2D 35 A9 5E 8D 74 E8 D0 E1 F5 2B 8C C1 60 30 18 8C 96 C9 93 27 D7 18 9B 4C 7A 02 6B 
D7 AE 5D AB 56 AD 5E B7 BA 4D 0D 92 24 8B 8B 8B DF C2 13 D7 F1 EC D9 B3 B6 6D DB 36 B6 16 6F 11 
D8 E5 30 18 0A 84 10 8F 57 F3 6E 82 26 05 B0 EF BE FB EE 2D DC 13 0F 6F 4C 87 F7 42 6C 60 B0 CB 
61 30 14 D4 5E 88 35 56 C3 8B 38 30 18 0C 06 D3 2C C1 01 0C 83 C1 60 30 CD 12 1C C0 30 18 0C 06 
D3 2C 69 94 74 2A 18 53 90 17 15 49 D9 1C BE 8D 69 99 C0 1A 00 A5 54 24 21 99 7C 5B 1E B3 A2 4C 
25 16 89 34 60 55 55 06 9C 32 91 08 AC F8 16 35 9D 41 99 48 A4 AC 5C 62 66 C5 B7 60 A9 44 22 29 
8F CF 67 D2 37 32 44 A3 90 4A 94 DC A6 63 AE FA 40 25 12 89 08 A6 95 0D AF C2 BC 48 25 17 8A E4 
5C 7E 55 56 35 D1 68 2A 91 48 6A 50 C4 E3 F3 D5 52 91 0C 59 99 6E 43 99 54 84 B8 35 8F 6F 13 C1 
44 6F 34 05 65 2D 0D 55 2B C9 12 92 69 6F FB 2A D9 10 55 25 45 D2 AA 3D E4 8D 02 3F 81 35 45 CA 
F2 A3 3F B3 B2 74 74 74 E4 5B B3 67 ED B8 D3 D8 EA 50 48 37 7E DB DA C1 CE FA 68 BC 50 57 F4 F2 
69 84 8D AD E3 FB FD C2 A4 F4 59 51 45 0B 5D 5B 84 DE 10 D2 1E D3 97 1C 3C A2 B5 6D 65 0E C6 09 
0B D3 F6 D8 DA F6 7B 20 36 55 BF 2B DB FA 8D DC 18 6F 6A ED E6 80 5A 9A 38 B0 55 0B BE CD F4 67 
64 45 E1 CD 7D A3 EC 1D 6D 8F C6 D1 5B B5 30 6D 8B AD AD 6D 5A 4D 46 53 4B 13 07 B6 B2 33 B0 79 
9A 18 AE 87 BD 67 BA 0D 35 8A D4 41 AD EC AB D2 A4 E9 61 A2 37 9A 44 AD 0C 05 00 89 67 57 AE 3D 
98 6E 4A CD 9B FB 3D 1D 1D C2 AB B8 A0 4C 42 2D 4D 71 6B 65 57 E7 71 91 17 5D 9F 1E B0 F7 55 14 
68 48 70 00 6B 82 88 82 BF FF 5F C9 E0 3F 85 4A 94 1E 1D B2 F1 A7 DE 17 1E C9 1B 5B 25 00 00 8B 
36 0C 00 D8 77 26 55 57 72 37 72 3F 00 38 3A 73 AA F8 BD 6F F5 CB D9 6B C3 BA 98 F4 5B D2 77 D9 
F9 A2 92 42 8A BC BC BC 51 DD 6C 01 00 08 07 13 1F BF 00 80 C1 75 E0 F3 2D 4C AE DE 0C 20 D8 16 
3C 16 01 68 E7 CD 7B BA 9B D1 F3 E3 7F 9C 03 00 4B 36 FD AF 6B EB 36 C3 6F DF 4E 6E 5F 93 19 08 
16 9B C7 22 FE F8 F7 BE 50 A8 B3 79 E1 87 D6 60 C6 ED 61 C5 65 9B A8 1E 22 49 89 0A F1 2C 9A 4B 
0A D5 5A 78 63 8D D4 CA 50 00 F2 F3 CB 57 24 15 92 35 57 04 B0 E0 39 DB 09 AA BA A0 4C 82 60 81 
3D 0B EA 3C 2E CA 82 A4 90 30 85 19 F1 0A 1A 34 20 4D 34 80 21 55 D6 DA 29 63 B7 1D 4B 07 00 8D 
22 6B ED 94 B1 21 11 99 8D AD 54 03 A1 91 3F F9 E7 8A 62 F9 A2 11 7C 36 7C E8 31 7E F5 40 EE E1 
B3 69 8D AD 14 00 80 46 8A 00 E0 FC F2 E3 E5 0F 04 DA 9B 69 39 A2 93 7F 2C EC D7 99 49 10 AE 13 
66 84 3C 2A 51 01 A8 EE DF 88 CC 2A 96 95 3E 3E 33 7B C1 DE 13 FB 16 12 04 D1 C3 63 F2 F9 84 42 
63 E1 F6 2D DA D8 DB 3A 50 B4 6E DD DA B2 D2 2B 49 63 C9 F0 24 E9 9F 1F 7C 3B 13 04 31 3A 30 E4 
61 A1 0A 00 58 60 FD 38 25 3A 78 91 2F 55 98 5D F9 29 A4 F4 F1 99 D9 0B 76 1E 0E 5B D8 81 C5 F8 
DF 98 DF 93 32 33 76 2D F6 25 08 62 DC FC BD 79 32 00 80 92 C7 D1 33 86 76 26 08 C2 DB 3F 88 12 
58 63 13 B5 34 6B C7 E2 B1 04 41 B4 77 1F 73 2C 26 1B 00 CA F2 AF 2F 5C 18 B4 61 D1 58 82 F1 CD 
92 F9 13 B7 1C D3 FE E8 2E CB 8F FE 65 DC EF 39 B2 5A 5A 1C 91 00 F0 B5 07 63 EF B1 A4 F2 B3 B8 
B2 31 41 E9 CC 24 54 A0 02 80 B2 FC A4 95 B3 7C 09 82 70 70 F1 58 19 7A 59 86 00 A9 5E 9C 3D 72 
59 42 42 C6 95 AD CB 83 F7 06 CD 1A 40 6B 0D 00 90 A8 50 CB 36 ED F9 7C 9D CD 1D CC 00 54 E5 47 
8D 25 1B DB 9C 60 01 8F 45 5C 3A 15 E2 FF 19 DB C1 C5 63 75 F8 35 83 F7 C0 19 57 B6 CE 5F B7 33 
68 96 2F 41 B8 CE 5A 77 21 2B 2B DA AF 1B CB C1 C5 63 CB B1 44 35 00 80 2A EE EC D6 2F BB 30 09 
C2 75 49 79 17 35 35 81 FC D4 8B 3F 0D F1 A4 86 29 BD 40 05 00 C9 E7 D6 4F 5D F0 FB 4F 43 3A F7 
FA 7A E6 2F 63 66 C4 E5 6A 4F 22 F9 DC CA 29 2B 4E EB A9 A4 F5 46 00 69 E4 FE 45 FD 3A 33 F5 4F 
4D 07 29 4A 0D 9A E5 4B 10 44 1F 9F C9 11 B7 F3 A0 0A 3D 75 86 42 AA E7 7B 56 8D 23 08 C2 C1 65 
4C 79 7D CA 31 02 3A B0 18 3D 3C 26 47 DC CE CB BC B2 6B C1 1D C5 E1 C0 91 5B 8E A5 D3 4A 03 90 
9E DB B5 A8 03 8B E1 EE B7 E0 F0 C5 B3 56 0E 86 83 75 FF C6 BE 71 5E 9D F5 B5 A2 D3 B3 02 1E 8B 
38 75 68 BD 5F 37 96 83 8B CF 9E F3 19 50 85 E9 8C 0B 4B 1F 9F 19 D2 6B 1A D2 4C 9E 38 FF B8 BE 
65 8C BB CB B8 B2 75 EE 8A 90 E5 3F 0D 20 08 22 70 C5 F1 62 B2 4A B7 31 B0 46 55 46 AB 23 A6 EC 
C4 B1 7D FB 76 53 AA D5 2F 57 76 8D 05 80 9B CF 4A 4E FC 66 0D 84 5F 46 69 43 2B 20 14 0A 8F 1E 
3D DA D0 BD 22 24 CD 39 0E 84 FB C3 32 ED 9F D1 DB BC 86 AD 89 6F 78 35 90 E1 B8 4B 56 0F E4 FE 
B0 6C 9D 8F 0D E3 60 5C 09 42 48 F8 60 1F 10 FE 61 41 83 ED 5D 42 CB 34 E8 CC 6A 1B 20 DC 8F 5E 
4A 88 BD 76 7C 84 1D B3 F7 C4 08 15 92 FC E6 64 16 76 B3 A4 20 75 27 00 38 F5 9F FF 5F 4C D4 92 
71 1C 20 FC F3 94 C8 40 72 FF 69 E1 B1 09 09 B7 6F DF BE 7D 3B 26 36 21 53 85 50 41 EA 4E 20 DC 
33 4A 69 24 2B 24 77 DC 38 C4 9A BF 62 EE 27 5F 0E 68 C5 A2 14 B8 BE 7B 1C 00 FC B0 EC E0 D5 CB 
87 7C 6C 18 5E 73 A3 F4 FB D0 EA E0 BE 3C 3A E6 F4 24 2F 16 00 8C 5A 76 30 F2 74 88 33 93 58 7E 
F2 89 A2 F0 B2 33 93 18 3E 2F 3C 29 F9 F6 AA EF B9 C0 08 7C AA AC A1 09 42 79 F3 7A 9A 01 E1 7F 
E1 56 C2 D1 AD 93 01 60 F7 95 82 F2 33 0D FC 6D E6 8A ED AB 3D 80 31 BF 58 83 10 42 D1 DB BC EC 
5D 82 25 9A 1A 0C 6E E0 72 6A 59 A2 1B D7 EF 9F 88 20 20 FC 9F 2A 11 42 E8 E2 C6 AE BE CB 0E AE 
F8 96 B3 37 AE 44 43 66 8E B0 63 0A 06 AD BB 75 2F F9 DF 7D 0B 01 E0 60 9C F8 45 D2 56 20 DC D3 
4A D1 F5 DD 5E 00 30 71 CD B1 AB 97 F7 7A 59 1A 5A 43 2D 4B F4 B2 64 2C DD 73 9E 32 79 4C CC ED 
9C 12 12 95 3B 1B AD 64 95 91 CD A5 B2 44 1F 1B 06 00 EC 3A 15 73 32 6C 06 00 1C BE 2B D6 EF 85 
D2 61 F2 E6 88 8B C7 83 A8 BB CD 1F 7F 9F FF 73 E5 60 4A C3 BB 27 02 00 60 F3 DF 31 89 D7 0E B9 
71 08 DF 65 51 35 36 11 65 1D 07 80 E1 F3 C2 13 12 2E CF 1D 62 06 84 5F 66 F9 99 8E 9D B7 62 F1 
8A B0 80 56 AC 91 9B A9 8B 25 2F A0 15 2B F0 C0 7D 7D 37 A3 BC F1 51 F4 42 20 BC 2F DC 4A BE 75 
21 04 00 16 1C 7D A4 57 47 B6 75 B8 45 B7 D1 C1 77 D3 93 0F AC 1F 00 00 F1 C5 F4 7A 96 5F 95 C2 
D5 03 B9 40 F8 47 C6 27 FF BB 6F 26 00 1C 8D 2B 41 48 B8 EC 0B 0E E5 18 07 D6 0F 06 80 13 57 CE 
8E B0 63 7A 4D 5C 17 FB A8 84 56 DA 95 5D BE 00 2E FB FF BD 4D 09 11 0C 0A 2D D3 73 95 92 D4 30 
00 98 BB E3 7C 72 F2 ED ED 8B 3C 81 F0 CB 2A A3 D1 53 7F 70 A9 71 D1 09 DC 73 B3 84 D6 74 C6 85 
69 39 99 07 B7 4E 06 C2 FB C4 D5 4C 55 B5 66 B9 B2 CB 17 00 A6 6F 8E 88 BF 7D DC CB 92 D1 7F DA 
79 92 CE 6D 8C AD 11 F3 AC 80 CE 68 86 68 34 9A D0 D0 D0 1A 2E 18 84 9A 6E 00 43 48 B8 F6 5B ED 
EF F0 53 95 2F 8C 06 EA BE 91 02 D8 8B A4 AD 00 2E 77 CB 3D F2 5A 53 0A 60 53 FF BC 7D 6C 15 AF 
FF B4 28 84 D0 85 D5 5D 87 AD 89 B9 75 64 9C BD 4B 68 99 86 BC 1B 7D FC 72 7C 01 42 48 29 13 1E 
5B D5 D5 DE 25 58 A2 11 2F 71 33 DB 1B 47 05 30 ED 19 49 B2 0E 53 37 23 7D C9 9B 86 55 7A DD 41 
DD EB CB 03 18 8D E4 A2 BC 0B 00 B0 74 4F 54 6E 89 4C 5A 98 FD 30 BB 00 21 74 7D B7 97 BD 4B 30 
75 E5 DF DE ED 6B 10 30 F4 75 B8 B3 7F 08 30 D6 95 6A 10 42 B2 0D 5F 9A 0F 5B 13 7F 7D B7 2F 30 
02 9F 94 92 4A 19 29 CE BB 0C 00 07 2B AB 6D DC 84 8A 55 B7 5E 68 E5 1F 5D CC 73 72 0F CD 4E A9 
68 22 7F 7E 01 00 22 D2 64 08 65 8F 77 64 AD 3E F9 A4 46 83 D3 05 30 9F FB 2F 92 47 D8 31 0F C6 
89 11 CA 1B EF C8 8A 48 7B B2 E1 4B F3 BD 71 25 1A B2 F0 E2 F1 D3 4F 4B 11 42 A4 A8 30 71 84 1D 
53 AB 33 E1 9E 51 8A AE EF F6 72 72 D7 DE 07 29 CB E8 5B 43 77 8F D3 B1 E7 66 09 AA 08 60 34 92 
A9 D3 D1 B7 39 15 05 B7 FC 97 4B 0D E2 DC B6 66 7B 2B DF 89 AE EF F6 2D 1F 11 D9 EA 81 DC F1 9B 
E3 11 42 1A 32 C5 8D 43 1C 8C CB 5B 3D 90 EB 35 F7 BC 02 91 72 92 BC 77 76 26 10 DE 19 A5 D5 37 
11 47 6F F3 22 18 DA 13 D1 90 29 5E 96 8C D0 2B 05 7A 4D 50 DC 91 71 C0 98 5F A0 41 E2 07 FB F4 
2F 22 4A 43 CA 1B AF EF F6 02 C2 FB C4 D5 F4 52 99 2C 27 23 F9 59 81 FE BD 45 B8 C4 CD AC DB E8 
75 89 8F 0A 64 32 E1 FD E4 CC 12 99 90 56 4F CA 50 A2 AC 43 00 70 34 AE 40 43 CA 48 B2 70 D3 30 
F3 FE D3 CE CB 0A 2F 00 C0 A5 C7 24 42 08 A1 C2 03 EB 83 13 9E 09 37 7C 69 3E 61 FB 3D EA 22 32 
92 56 30 B7 AD D9 DC 03 DA 38 7A 66 75 57 DD C0 51 E4 67 5C FB 27 22 41 85 90 86 24 53 A3 7F 07 
C2 3D AD B4 C4 48 4F 52 7F 70 BD 2C 19 9B CE 51 E3 82 F6 FD 6C D5 7B 62 C4 A5 3F 68 4C 47 6B 4F 
F1 83 AD F6 2E A1 8A CA 8E 69 DC DD F5 DD 5E 4E EE E1 54 35 EA 67 53 7A 71 81 B1 DB 28 8C AC 11 
7D 63 9F B1 D1 54 C8 10 13 03 58 13 7D 85 08 00 00 FC 29 41 E1 00 D0 7B 62 84 4F D7 FA 79 73 DD 
2C E0 58 DB 03 E1 A0 7B 83 AD AA B6 72 03 53 A6 B0 76 1F BC 3A 26 E4 70 BE EC F9 89 2D 69 E3 BF 
FD D8 8C 94 00 00 00 EB FD 0F DF BD B8 65 00 41 10 66 E6 B6 C3 16 DC 33 9C 18 23 1C B8 2C 00 00 
8B D6 1F BA 71 0C DF AF CB C5 68 FC E6 8A 20 5D 94 3A D5 AA A2 0A 8D 64 8B 56 5E 97 F7 CF 5C FA 
83 D7 3B 76 E6 56 2D C6 5E 49 2A 51 03 90 0A 18 30 AE 9F 39 01 00 A0 02 31 80 D1 44 42 B9 0E A4 
B2 D4 5E 60 C3 06 00 50 29 11 B2 E2 02 80 35 68 36 B7 B7 61 9B 99 B3 AD DB 0C 00 DD F2 DC EA 9A 
28 81 11 D8 CE 56 2B FB 9D F6 9F 49 8B 14 6A BD 26 9C 56 7D 37 7C 69 BE 2F 22 AD E4 F1 95 F0 A2 
BE 43 07 38 D5 C9 E4 A5 5C 7E E7 EF 26 58 EC FA FB AE F0 E9 95 F0 E2 5F FA 09 5A 2A 84 1A 00 20 
58 0E ED EC 9F 7F DF 86 49 10 6C BE 63 F7 23 25 6A FD 66 A4 02 DC BE FE D8 BC C2 8C 86 D6 90 AA 
E0 A0 5E BC 19 DF C7 56 77 88 56 32 87 CE E6 12 15 72 E4 6B AF 4D 9B 36 86 C3 8A 14 E2 01 E3 7A 
99 13 A0 EF C5 48 45 02 80 46 F1 E0 E6 6D 65 D4 DA AF 38 04 9B CB 66 77 FD 66 23 80 75 F5 4D 00 
54 2C 80 2F 7F EB 4E F9 06 C1 72 FA E6 53 4E E4 CD 2C 52 21 D6 8D 7B D7 81 FE CE C4 9A 3B 99 92 
B8 33 EB BB 8D 5E EE 6A 47 63 D0 3E 7E 61 6B 02 1E 0F 71 17 D8 98 9B 0F 9F 7D 30 BF 4C 7F 2A 8B 
1F B0 E7 50 BB B3 F3 BA BF DF C2 DC DC 36 F8 44 A2 4A F5 84 56 4F 0A A5 4C 02 00 DF 7D DC 82 C1 
36 67 B3 1D 67 1C 93 E5 24 65 E7 3D 7B 00 00 0E D6 94 07 39 F8 CD 9A DA FD 1D 96 12 21 B5 82 D4 
C8 1F 19 4B 53 BD 7C 1C 55 48 BA 75 69 41 C9 B4 6D E1 2C 2D AA A4 70 CB 8E AE CA 07 A1 2C 82 60 
B0 D9 AE 9E 8B 00 6C 98 60 6B A0 A7 86 59 69 4E 54 A2 42 2D 5B 68 C7 45 D0 E7 8B 3B 7F 3E 51 D1 
99 8E D6 9E 72 12 4A D2 15 EA 4A 6F 56 0D CD A2 61 B2 90 A2 B8 93 97 C0 4C AF 12 C1 72 34 76 1B 
51 EE 43 03 6B B8 D8 C8 8D 8D 26 AB EB 9A 91 A6 1C C0 44 DB E6 8C 07 80 DB BB 7C FE 8E 6F 2E 2B 
9D EA 01 5E 6B 81 9B 59 4C F2 13 6A E1 86 F4 46 F8 75 00 93 A6 7F 1B 00 B5 82 74 74 F9 9F 8F F5 
AE 4D EB 83 76 14 FC F2 49 07 2E A9 A0 76 8C 7E BE B0 67 BF 7F 55 93 EF 3F C9 53 20 74 7D B7 57 
61 56 7D F5 49 23 59 25 2D 74 E8 36 5D 4E CA 72 32 12 B6 2F 64 4C F4 F5 37 7D B1 22 2D A4 E2 19 
F5 80 45 92 A4 86 14 C6 5E 8B E9 E3 5C C3 6F 26 44 02 A0 84 97 E5 B7 59 45 69 96 95 83 41 90 B0 
1A 3C 7F E6 B1 F9 1B B7 84 AC EB 3D 61 76 07 6B 63 19 26 A1 52 83 A7 DF 92 A8 75 3B 36 AE FA DD 
77 C9 48 3B 02 14 08 01 80 E8 E1 7E 81 A7 FF C0 9D 57 9E 17 88 11 CA 0B 6C C3 26 6B F3 55 8C 44 
55 E5 3D 83 56 B2 DA C8 E6 19 62 4A 82 D6 04 94 56 95 34 07 00 A0 5F E9 C0 E0 BC D3 89 C7 9A B0 
FD 1E 42 88 24 91 B4 30 3D EA D2 AC D6 16 D5 35 A1 04 DE 8F CA 2C 9F D6 2A B9 13 AB FC E2 13 67 
FD 0A 6C 7E CF D9 E3 CC 43 42 B6 6C 5E 96 F2 D3 64 77 DA A5 10 E2 12 72 F0 DC 1B 4A 59 61 D2 9D 
D3 BD CA D6 4F 5C 70 42 6F 9E 4C 5E 06 1D 77 3C 7D 29 2A CC BC 78 3C 68 FB 6F C3 CE A6 58 D2 EA 
A9 CF 95 C7 32 0D 49 AA 10 99 97 71 E7 F0 E6 AF 6C 2C 6C 00 5C 74 02 CF ED 5A 19 71 3B 1F 00 98 
1C 36 83 DB D6 58 DA BB 8E EF F6 B4 65 66 E5 4A 74 0A 1A 28 7C E3 CF 1F 46 CE B9 7F F6 56 66 A9 
8C 7A 91 50 6A AC E7 69 A3 3B 24 A3 DC 8A 05 CF A2 3E 1A E9 40 D0 99 AE 2A 7B DA 09 38 CC 4A BF 
46 68 BB B3 7F 59 22 A2 0E 9B 99 73 00 A0 E8 D1 3E 63 B7 31 B3 B0 36 B0 C6 BF 77 85 C6 46 33 AF 
EB 9A 91 A6 1B C0 E2 8F 4E 9F 7B DC 39 EE 85 F8 CC EA AE DF B9 4D 7D 5C DB 09 F0 66 0B 83 FB FE 
68 6F EE 82 5F C3 F2 65 F2 94 C8 2D 0B EE 28 7E F4 71 A9 B9 59 83 20 07 12 C0 F9 87 E9 9D D7 FD 
B6 69 FC C6 B1 76 84 F6 EE 85 D4 32 11 89 7A F7 EA FE 81 53 EB C2 D4 7F 02 A7 5C 76 74 36 6C AB 
36 92 66 0A 48 45 23 59 FA FC 4C 97 2E 4E FB AF E4 B6 E9 D8 BD 7B 17 01 00 D0 DD AA 14 C6 45 55 
E9 D0 B1 EF 10 D0 FC BA F7 74 8A 1A 54 37 8E AF 70 FB B4 7F 52 BE AA FA 26 0E 02 4F 1F EB 6B 81 
CB 8F 17 C9 E4 4F 92 FE 99 38 27 79 A4 BF 3B 75 1D EA 9A BC D7 67 94 8F F5 A1 E5 9B 52 66 05 78 
D6 79 5D 19 49 82 AD EB A0 11 B6 87 7F DF 91 EA 3F FC 23 5D C0 40 A4 02 00 7A 74 77 6D E5 48 44 
EF 5F BE 39 8F 54 BD AC 66 B5 AA C2 74 FB D3 4A 96 E4 9D 35 B0 79 6D BF 32 AA AC 9C 7D 9F 1F 05 
BB A7 AC BD 9D 29 D4 C8 73 B6 CF E9 EE F5 F9 3E B9 91 8D 0C CE E7 03 B7 AF B3 AF 8E 0F 3F 9F A1 
50 89 22 F7 6F 39 52 A2 76 6A 63 F0 3B 83 3B 78 CA F2 0B C1 8B 23 24 D3 BC 3F 71 A4 55 23 F1 70 
9F 4E EF CD CE 10 5B 75 ED DE A7 53 3B 36 80 99 5E B7 05 0B DC BB 8D 59 19 C9 E0 3B F7 76 FB D8 
8D 43 00 38 54 A3 A7 43 C7 CF 46 D8 31 17 6D 3A 92 2F 53 15 3D 88 1A DC B5 F7 CA 0B CF ED 3B 7A 
8C 77 7C B0 20 E8 B8 50 2E 7F 70 63 D7 37 93 16 A9 AD 2D 01 20 25 3E 21 5F 46 2B CD D1 73 AC F9 
AF 83 82 92 F3 24 85 8F 2F 2E 9E 16 6D E5 50 C9 EB 48 85 18 40 D0 B9 AB 33 57 95 15 FA DB 54 00 
1B 3A 3D 2B 40 2A E0 B1 88 B9 53 37 3F 11 CA 9F DD 3D 3C 6D 91 78 F4 18 0F D7 5E 34 A6 A3 B5 27 
22 A1 F8 FE D5 F8 F4 3C BD B8 4E D3 1D C1 B1 8E 09 59 75 26 21 AF 4C 94 B1 FE E7 9F 05 83 7E 74 
E2 D0 B8 0D FF 03 43 6B 58 75 F9 CA D8 68 75 5F 75 59 E3 4B 46 D4 18 73 60 D2 9C D3 00 B0 F8 C0 
7D 84 90 5A 9E 3E DE 91 D5 7F 5A 44 03 EB D0 58 73 60 08 21 59 E1 9D F1 8E DA FB C3 8A BF 12 1A 
45 07 44 37 07 36 F7 C0 7D 84 50 5E D2 4E 00 F8 EF A1 0C 21 74 7D B7 2F F5 CA FE D6 91 85 5A 97 
22 BC 57 AC 18 03 84 7F 56 99 78 55 2F CE DE B8 12 E1 83 7D 40 F8 65 95 21 A4 9D D7 F1 A8 3C 07 
26 DB F6 83 85 FE 2B 44 8A 82 D4 9D D4 7C 03 9D 64 59 C4 86 B1 3A 1F 0E 3E F5 08 55 9E 2C 8C 3B 
32 CE C9 3D 5C 7F 22 41 5F 07 BD A3 92 D5 03 B9 13 B6 C7 23 44 5E 3B BC 50 27 70 CD 5F 09 26 34 
41 F9 19 A7 BD 2C B5 3F 01 7F 58 16 51 3E 6F E7 97 5D 56 D1 EF B9 0D 03 A8 59 19 53 A0 9B 03 D3 
DA EA E4 AA AE F6 9D 96 17 6B 10 42 12 CA AA 08 E5 05 8D EF 4C F5 2E 18 14 38 C9 8B F5 CD BC F3 
3A A3 E9 5B E3 CE FE 71 02 EF 4A D6 A0 A6 49 8E 19 4D 2D 97 B7 A2 91 8C 90 A1 CD 29 21 E5 EF 21 
75 5A 19 4B 43 FA CE A3 96 A7 50 EB 80 34 64 F6 86 9F 3A 97 8F AC 5F D4 7D 71 8D 4D 10 22 2F EF 
9F 59 AE 82 4B F8 A5 27 C8 68 92 58 43 66 8E 77 64 0D 5B 73 CB C8 BA 5A 0D 55 92 94 B9 43 CA 5F 
7D 11 FE 09 CF 48 FD 4A 39 B1 7B 9D CB 9F 3E 86 4C 3F 28 54 A2 EA F5 2C CE BA A0 9B 4D F4 9A 18 
FA 42 89 10 42 85 7A 8E 31 77 47 8C 0A A1 F8 13 33 01 40 E0 1D 2E A7 93 A6 96 67 2E 1E 5A F1 36 
AE F7 C4 63 FA 53 50 A2 AC 0A 69 93 E6 07 02 C0 D1 38 B1 B1 9E 06 16 D0 49 9B B8 E6 BC 02 21 5A 
D3 D1 16 BE 7C 7E C1 8D 43 00 B8 E8 5F A4 C6 DD 5D DF ED 6B DF C9 9B 2A B4 EF 34 3F BD 18 55 E1 
36 34 D6 A0 35 9A 01 6F C0 22 8E 46 A6 11 03 18 42 08 21 B2 54 28 94 CA 1A AF FF DA 8F BB 5A 2E 
11 0A C5 C6 F3 B1 AF 0E AD 64 A5 4C 2C 14 8A E5 24 7D 93 3A A0 21 65 62 71 6D 05 92 62 B1 4C 26 
AB AA 8D 64 D3 30 F3 91 46 B1 B9 2A EA E0 72 65 12 A1 58 FC 5A BC 84 56 72 BD DB BC 4C 22 16 89 
6B E7 33 94 33 28 AA 38 AA 28 BA E6 CC 24 CE 3F AC C1 26 65 12 99 4C 56 55 1D EA D2 23 2B D7 AF 
46 4F B2 54 28 14 8B 0D 8C 42 8A C5 62 FD 1E 48 52 46 96 57 A1 95 56 26 31 EC 54 5F 9A 54 26 33 
32 3B 8D 9E 95 05 1A 7A 26 AD E9 E8 0A 49 39 69 2C B6 52 77 D1 DB BC 46 6E BE 87 10 69 60 C6 2A 
1C D2 D0 1A 55 18 AD 02 13 03 D8 5B B0 D9 48 73 85 65 CD E7 37 B6 0E B5 83 C1 B1 E2 73 1A 4E 32 
9B CB AB 62 07 AB 3A 42 B0 B8 3C 5E 6D 25 B2 78 55 EC 27 54 98 B6 AF 85 EB F7 40 B8 DF 0D ED F1 
EA BA 55 85 B9 D5 EB 72 12 5A C9 F5 6E 73 73 2B 5E 6D 3F B8 AD DA CD E4 7B E6 F4 FA 71 7D B2 C0 
3B DC BD 43 0D 5A 9A 5B 55 53 81 E6 D2 AB 56 4F DA 4B 95 65 90 CE 8A C5 AA E8 91 56 5A B5 43 C9 
B2 E4 1A BB 59 0D B7 08 E3 73 A4 35 1D 5D 21 8B 43 E3 D4 95 BA D3 C8 13 44 E2 32 00 16 B7 B2 62 
55 9C 85 A1 35 EA EB FE 86 03 18 06 F3 5A E0 B5 E8 BA 3B 24 B4 D3 E7 C3 BB D2 AD 85 C3 BC 06 B8 
FD 86 2C DD FA 01 7B E8 28 EF 3A 2F 0A C0 98 88 E0 9B 33 4B 95 46 13 DD 0D 0E 0E 60 18 CC 6B 81 
EB D0 ED C7 5F BA 35 B6 16 6F 17 1D FB 0E ED D8 B7 B1 95 78 3B 68 DD B1 5F EB C6 D6 01 9A F2 2A 
44 0C 06 83 C1 60 AA 01 07 30 0C 06 83 C1 34 4B 70 00 C3 60 30 18 4C B3 C4 A4 39 B0 92 92 92 F4 
74 93 92 D9 BC 49 94 96 96 3E 7D FA F4 2D 3C 71 1D CF 9F 3F 7F 9B 4F BF E1 C1 2E 87 C1 50 20 84 
E4 F2 9A D3 48 99 14 C0 CA CA CA 0A 0A 0A 5E 59 A5 66 86 44 22 11 8B C5 6F E1 89 EB 78 CB 4F BF 
E1 C1 2E 87 C1 50 20 84 54 AA 9A 37 82 35 29 80 B5 6D DB D6 DD DD FD 95 55 6A 66 88 44 A2 B2 B2 
B2 B7 F0 C4 75 A4 A5 A5 BD CD A7 DF F0 60 97 C3 60 28 10 42 19 19 19 35 56 C3 73 60 18 0C 06 83 
69 96 E0 00 86 C1 60 30 98 66 09 0E 60 18 0C 06 83 69 96 E0 00 86 C1 60 30 98 66 49 13 0F 60 F2 
A2 A2 A2 52 49 93 4A 4A DC A0 94 16 15 29 6B AE D5 90 C8 73 73 B2 32 32 32 72 0B DF A2 14 A3 8D 
8B 52 2A CA CC C8 C8 C8 C8 2A 79 8B 2F 04 7D CA 44 A2 B2 7A B2 84 52 2A 7A 4D B7 17 A5 54 54 2C 
94 D4 5C AF 3A 54 25 45 F5 76 A6 6F 2A 4D 37 80 95 E5 47 7F 66 65 E9 E8 E8 C8 B7 66 CF DA 71 A7 
B1 D5 69 04 B2 6F AC E7 3B 7A 64 BE 5A AE E1 7A A4 2C 3F 7A 30 DF B2 AD 53 07 81 40 D0 B6 85 5D 
27 EF 90 7C 93 B3 8C CA 8B AE 4F 0F D8 2B AD 6B E2 F0 B7 96 84 93 2B 39 3C DB F7 05 02 81 A0 83 
BD 35 7B 5E E8 1D D3 F3 52 BE A1 36 17 2D 74 6D 11 7A A3 7E 7E 3F 5D 0F 7B 6F E4 C6 78 D3 EB 27 
9E 5D B9 F6 A0 49 5F E9 DD DC EF E9 E8 10 FE 2A C6 57 4B 53 DC 5A D9 1D 8D AB E3 99 BE A1 A3 6F 
48 93 0D 60 A2 E0 EF FF 57 32 F8 4F A1 12 A5 47 87 6C FC A9 F7 85 47 35 7F D4 F6 06 21 BF 7E 64 
51 FB 7E 73 80 E8 50 F7 5C A5 F5 8C 74 E7 D4 AF EF 7E B4 E6 41 81 98 24 C9 EC 94 D3 BC C8 E9 33 
76 26 98 D8 58 59 90 14 12 A6 30 C3 7B 84 D7 06 B5 34 36 60 E4 E2 05 7F C6 94 CA 48 A5 4C 18 7D 
78 E6 DA 80 DE E7 EE 9B FA BB FE 0D B5 B9 D5 2F 67 AF 0D EB C2 AB B9 A2 09 98 71 7B 58 71 D9 26 
57 97 9F 5F BE 22 A9 90 34 A5 AA 05 CF D9 4E C0 79 95 8B 97 60 81 3D 0B 78 16 B5 CD 36 A3 E5 0D 
1D 7D 43 9A 68 00 D3 C8 9F FC 73 45 B1 7C D1 08 3E 1B 3E F4 18 BF 7A 20 F7 F0 D9 B4 C6 56 AA E1 
78 11 B7 F1 D3 91 2B 03 03 7D 1A 5B 11 7D 54 B2 1C 4D BB 6E 5D 3F 70 E4 B1 58 AC 76 AE 83 42 F6 
2D E8 40 94 CA A4 A9 0B BF 9F 19 97 AB 7D D3 91 7C 6E E5 94 15 A7 CB 44 A9 41 B3 7C 09 82 E8 E3 
33 39 E2 76 5E E9 E3 33 43 7A 4D 43 9A C9 13 E7 1F 97 21 40 AA E7 7B 56 8D 23 08 C2 C1 65 4C C4 
ED 3C 00 28 7D 7C 66 F6 82 9D 87 C3 16 76 60 31 FE 37 E6 F7 A4 CC 8C 5D 8B 7D 09 82 18 37 7F 6F 
5E E5 87 BC 8C 2B 5B E7 AF DB 19 34 CB 97 20 5C 67 AD BB 90 95 15 ED D7 8D E5 E0 E2 B1 E5 58 22 
F5 68 52 F2 38 7A C6 D0 CE 04 41 78 FB 07 3D 2C 54 99 D2 24 3F F5 E2 4F 43 3C A9 26 E9 05 2A 00 
28 CB BF BE 70 61 D0 86 45 63 09 C6 37 4B E6 4F DC 72 4C FB A3 BB 2C 3F FA 97 71 BF E7 98 FC DC 
F9 8A C8 85 2F 62 15 A8 77 CF 8F AC B9 2C 36 97 EF 31 62 F6 9A 9F 26 5B B3 21 EB 46 D8 84 19 87 
CA 7F 5C 8B 76 2D 1E B7 37 2A FB 49 D2 3F 3F F8 76 26 08 62 74 60 C8 C3 42 95 81 CD EB 60 96 72 
8A 76 2F 0E 58 BA 2E 68 9C 17 DB C1 C5 E7 60 54 46 DC D9 F5 1D 58 8C 1E 1E 33 2E A7 53 0F 07 AA 
B8 B3 5B BF EC C2 24 08 D7 25 A1 97 65 08 4C 10 2E 8F 39 B1 BE BC C9 05 EA 44 92 CF AD 9F BA E0 
F7 9F 86 74 EE F5 F5 CC 5F C6 CC 30 F0 28 BD 17 E9 AA FB 37 22 B3 8A 65 00 D2 C8 FD 8B FA 75 66 
3A B8 78 AC 2C EF 57 07 59 D9 03 AB D2 53 F7 7E CE D8 27 01 20 3F F5 0C E5 18 A3 03 43 1E 95 A8 
32 AF EC 5A 70 47 71 38 70 E4 96 63 E9 B4 D2 00 A4 E7 76 2D EA C0 62 B8 FB 2D 38 7C F1 AC 95 83 
C1 78 8A 4E FE B1 B0 5F 67 26 41 B8 4E 98 11 F2 A8 44 55 85 9E 15 F0 58 C4 A9 43 EB FD BA B1 1C 
5C 7C F6 9C CF 28 D7 CA D0 5D 8D 0B 0D 46 BF 1A B3 64 5C D9 3A 77 45 C8 F2 9F 06 10 04 11 B8 E2 
78 31 09 00 50 96 9F B4 72 96 2F 41 10 FA B6 55 4B B3 76 2C 0E E8 C0 62 F4 F0 D0 B6 A5 35 5A 43 
53 63 CA 4B D4 18 19 99 A5 39 C7 81 70 7F 58 9E 9A 3D BA 72 D6 F0 86 A1 11 33 32 2B 24 79 85 65 
48 92 B5 0F 08 F7 8C D2 9A EB BF 26 0C C6 FD BF 3F 7C 01 C0 A9 BF FF B6 F0 63 71 C9 D9 E5 F9 64 
F3 02 DB B0 CB 93 0E E7 05 B4 62 05 1E 48 DA 3A DC A2 DB E8 E0 BB E9 C9 07 D6 0F 00 80 1B 99 99 
07 B7 4E 06 C2 FB C4 D5 4C 15 12 AE 1E C8 05 C2 3F 32 3E F9 DF 7D 33 01 E0 68 5C 49 41 EA 4E 00 
70 72 5F 1E 1D 73 7A 92 17 0B 00 46 2D 3B 18 79 3A C4 99 49 2C 3F F9 44 5F 87 EB BB BD 00 60 F2 
E6 88 8B C7 83 28 07 FE E3 EF F3 7F AE 1C 0C 84 7B 5A 29 52 14 5E 76 66 12 C3 E7 85 27 25 DF 5E 
F5 3D 17 18 81 4F 95 35 34 11 65 1D 07 80 E1 F3 C2 13 12 2E CF 1D 62 06 84 5F 66 29 D2 EA D3 3F 
F0 B7 99 2B B6 AF F6 00 C6 FC 62 0D 42 08 45 6F F3 B2 77 09 96 68 5E 97 C1 8D 5C 2E 6F 66 0F 33 
00 18 35 7D C5 D1 88 A8 47 B9 62 AA 54 94 75 08 00 A8 A4 C3 92 AC C3 00 10 F3 E0 BA 1B 87 58 F3 
57 CC FD E4 CB 01 AD 58 F6 2E A1 C2 92 0A 9B CB 6A 6F 16 1D 2A 49 22 95 0F 7E FF BF 51 DB 17 79 
02 80 53 FF F9 E7 A2 4E 4F E8 C6 72 72 0F 2D D3 A0 BB 27 02 00 60 F3 DF 31 89 D7 0E B9 71 08 DF 
65 51 35 0E D3 F5 DD BE 00 F0 C7 DF 31 77 2E EF 75 66 12 FD A7 45 A8 CA 9B 8C 9D B7 62 F1 8A B0 
80 56 AC CA 1E 75 5F CF 26 92 DF 9C CC C2 6E 96 3C 8A 5E 08 84 F7 85 5B C9 B7 2E 84 00 C0 82 A3 
8F F4 EA C8 0C 3C 30 BE 98 5E CF F2 1B 0B 8D 4F 52 BE F4 E5 F4 F0 84 84 CB 3F 77 67 13 8C E0 CC 
F4 0B 23 EC 98 5E 13 D7 C5 3E 2A A1 95 76 65 97 2F 80 CB FE 7F 6F 53 42 04 83 42 CB F4 5C E5 CC 
6A 1B 20 DC 8F 5E 4A 88 BD 76 7C 84 1D B3 F7 C4 08 15 9D 9E 3A D4 B2 44 1F 1B CA F2 5A 81 7B 6E 
96 D0 BA AB 71 61 5A 8E FE 15 57 9D 59 AE EC F2 05 80 E9 9B 23 E2 6F 1F F7 B2 64 F4 9F 76 9E 24 
33 47 D8 31 05 83 D6 DD BA 97 FC EF BE 85 00 70 30 4E 8C 90 70 D9 17 1C 20 FC 2F DC 4A 38 B0 7E 
30 00 C4 3C 2B 30 36 DA AB 38 BF 01 26 66 64 6E A2 01 EC 45 D2 56 00 97 BB E5 C3 79 ED 2D 0B 60 
14 05 A9 3B 9B 54 00 43 08 DD 8D 3E F4 F3 58 0F ED 6F 1F C2 FD FC BD 12 84 50 DC 91 71 C0 98 5F 
A0 41 E2 07 FB 00 5C EE 16 97 2C 71 33 EB 36 7A 5D E2 A3 02 99 4C 78 3F 39 B3 44 46 8A 1F 6C B5 
77 09 55 94 DF 7C 8F C6 15 68 48 19 49 16 6E 1A 66 DE 7F DA F9 FC 94 9D BA E1 BE B3 7F 08 30 D6 
95 6A 10 42 B2 0D 5F 9A 1B 8C FB F5 DD BE F6 2E C1 65 1A 84 90 6C F5 40 EE F8 CD F1 08 21 0D 99 
E2 C6 21 0E C6 89 AF EF F6 05 46 E0 93 52 52 29 23 C5 79 97 01 E0 60 5C 49 F5 4D A2 B7 79 11 0C 
6D 4C D2 90 29 5E 96 8C D0 2B 05 05 A9 15 FA C8 9F 5F 00 80 88 34 19 42 D9 E3 1D 59 AB 2B 07 D4 
FA C5 D8 E5 34 64 61 C4 BE A0 81 9D B5 6F 4A 04 83 82 73 CB 10 42 C2 25 6E 66 C3 D6 DC 42 08 5D 
DC D8 55 E0 1D 2E CE BB 00 00 4B F7 44 E5 96 C8 A4 85 D9 0F B3 0B 10 42 3A 9B D7 C1 2C 3A 05 D4 
B2 44 2F 4B C6 96 FF 72 11 42 8A C2 0B 00 70 FE 21 89 10 2A 49 DD 4A 30 82 CB 34 E2 D5 03 B9 5E 
73 CF 2B 10 29 27 C9 7B 67 67 02 E1 9D 51 5A FD 30 3D 08 68 C5 9A 5B 1E 93 72 63 D7 EB A2 5A 79 
13 63 8F D2 37 89 64 89 9B D9 DE B8 92 EB BB BD 80 F0 3E 71 35 BD 54 26 CB C9 48 7E 56 20 D6 AB 
23 34 F2 40 21 AD 9E 54 00 A3 F5 C9 98 5D 5E C0 58 47 39 86 34 E7 F2 86 E0 63 45 4A D9 86 2F CD 
27 6C BF 87 90 84 4E 5A C1 DC B6 66 73 0F 68 E3 E8 99 D5 5D A9 00 5F 0E 79 37 FA F8 E5 F8 02 84 
90 52 26 3C B6 AA AB BD 4B B0 44 63 AC 27 69 60 F9 4D E7 72 A9 3F F7 FD 6C D5 7B 62 C4 A5 3F 68 
DC 95 D6 87 75 A3 5F AD 59 C8 EB BB BD 9C DC C3 A9 6A 2F 92 B6 02 E1 9E 5E 5C 70 F1 F8 E9 A7 A5 
08 21 52 54 98 38 C2 8E 79 30 AE 84 1A FA 4B 8F 29 F5 0A 0F AC 0F 8E BE B1 CF D8 68 2A 54 6F 98 
18 C0 9A E8 2B 44 8E B5 3D 10 0E BA D7 BF 78 25 4E 13 40 9E 9B F3 DC D5 63 E4 D6 7D D1 1A 52 96 
93 71 79 AA D7 CD AF BA ED 12 23 E8 3A D0 DF 99 58 73 27 53 12 77 66 7D B7 D1 CB 5D ED 6C 03 F6 
1C 6A 77 76 5E F7 F7 5B 98 9B DB 06 9F 48 D4 30 59 72 12 4A D2 15 6A 04 4A 99 04 00 BE FB B8 05 
83 6D CE 66 3B CE 38 26 CB 49 CA 2E 03 00 C2 81 4A 4D 4E 2A 4B ED 05 36 6C 00 00 95 12 21 83 AC 
E8 48 21 1E 30 AE 97 39 01 FA 4E 81 54 D4 B4 84 0A C0 1A 34 9B DB DB B0 CD CC D9 D6 6D 06 00 00 
AB A6 26 2C 80 2F 7F EB 6E 45 00 00 10 2C A7 6F 3E E5 44 DE CC 02 3D 7D 38 AD FA 6E F8 D2 7C 5F 
44 5A C9 E3 2B E1 45 7D 87 0E 70 7A 1D C6 A5 45 29 2D 7A 56 C8 F4 1E 3B FB 42 B2 5A 21 29 BC 75 
21 44 F9 EF F4 85 3B 13 00 F8 DF 2D FD E5 D8 82 53 45 B2 9C 83 AB D3 7E 9A FE 05 AF B5 D7 E5 FD 
33 97 FE E0 F5 8E 9D B9 55 8B B1 57 92 4A D4 00 3A 9B D7 C1 2C FA 6A 48 54 C8 91 CF 03 00 96 55 
0B 37 AE 47 87 77 58 BA 1A 1A 45 E6 CD DB CA A8 B5 5F 71 08 36 97 CD EE FA CD 46 00 6B A8 56 B8 
46 51 98 27 D3 B8 08 5A 52 85 36 2D DF A3 FE 43 2A C4 03 C6 F5 A3 32 29 1B 79 14 8D 71 FA F8 85 
AD 09 78 3C C4 5D 60 63 6E 3E 7C F6 C1 FC 32 FD A9 2C BE 81 07 AA 54 4F 68 F5 D4 DA 99 CE 27 65 
60 0D 20 D7 00 00 80 E5 BB 9E 33 A7 7E 6B CF 56 29 11 52 2B 48 8D FC 91 B1 34 D5 CB C7 51 85 A4 
5B 97 16 94 4C DB 16 CE D2 22 7D 7D 59 EF 7F F8 EE C5 2D 03 08 82 30 33 B7 1D B6 E0 9E A3 33 87 
69 A4 A7 86 59 69 6F 3F 89 0A B5 6C A1 9D ED 13 F4 F9 E2 CE 9F 4F 54 74 EE 4A EB C3 7A A3 5F A5 
59 34 4C 16 52 14 77 F2 12 98 E9 55 22 58 8E ED EC 9F 7F DF 86 49 10 6C BE 63 F7 23 25 6A 00 10 
E5 3E 04 00 07 6B 4A 3D 07 BF 59 53 5D 6C E4 34 46 6B F0 35 23 4D 34 80 F1 5A 0B DC CC 62 92 9F 
50 0B 37 A4 37 C2 AF 03 98 34 77 8A 79 4D 90 A2 F8 B6 4E 6D 8E C6 4B 00 80 60 71 DF ED E8 B9 2C 
78 13 A0 98 7C 09 B0 F9 3D 67 8F 33 0F 09 D9 B2 79 59 CA 4F 93 DD 99 20 2F 83 8E 3B 9E BE 14 15 
66 5E 3C 1E B4 FD B7 61 A7 E3 85 00 60 27 E0 30 CB A7 94 AF 3C 96 69 48 52 85 C8 BC 8C 3B 87 37 
7F 65 61 B2 1A 2A 00 80 2A 67 DD 49 C5 33 EA E9 8D 24 49 0D 29 8C BD 16 D3 C7 99 57 7D 13 15 C0 
FD A8 CC F2 29 96 92 3B B1 CA 2F 3E 31 48 94 6E 35 78 FE CC 63 F3 37 6E 09 59 D7 7B C2 EC 0E D6 
46 22 5E 1B 77 4F FA B7 7B 67 5E 3E 02 00 30 B3 72 E8 3D F0 97 F9 E3 CC A5 72 00 80 0F DD 47 BA 
B1 D7 6C 0D D9 1C 5E 34 C2 BB 6F 1B B5 B4 D0 A1 DB 74 39 29 CB C9 48 D8 BE 90 31 D1 D7 FF 81 18 
A0 DC E6 75 30 8B 11 15 71 88 D4 BB 10 19 9C B6 9D 78 AC 09 DB EF 21 84 48 12 49 0B D3 A3 2E CD 
6A 6D 51 DD CB E3 21 6F 00 00 20 00 49 44 41 54 30 11 2C 16 00 94 14 68 27 12 49 59 89 71 1D 23 
8F A2 41 5C 42 0E 9E 7B 43 29 2B 4C BA 73 BA 57 D9 FA 89 0B 4E E8 CD 93 19 7A E0 D9 14 4B 5A 3D 
F5 31 F0 49 A6 42 6C 2F 68 C9 25 00 00 D4 D2 8C 4D 2B F7 E6 C9 10 00 30 39 6C 06 97 E6 AC DF 75 
7C B7 A7 2D 33 2B 57 B7 C4 C6 60 F5 F0 F3 85 3D FB FD AB 9A 7C FF 49 9E 02 A1 EB BB BD 0A B3 68 
F4 A4 AE 14 7D 18 E5 56 2C 78 16 F5 D1 48 07 82 CE 5D AB F2 61 FD 2B 8E D6 2C A7 E3 85 00 F6 2F 
4B 44 D4 61 33 73 0E 00 14 3D DA 27 F0 F4 1F B8 F3 CA F3 02 31 35 41 40 02 CB CC C2 1A C0 45 27 
E7 DC AE 95 FF DE 15 1A 1B CD BC C1 D7 8C 34 D1 00 C6 E0 BE 3F DA 9B BB E0 D7 B0 7C 99 3C 25 72 
CB 82 3B 8A 1F 7D 5C 6A 6E 86 79 6D B0 F9 CE F3 7A 9A 8D 76 1B 74 E0 7C E2 D3 E7 39 A9 B1 FF 8C 
EF 3B 4D 30 68 54 7B 6B 00 E0 0E 9E B2 FC 42 F0 E2 08 C9 34 EF 4F 1C 01 0A 16 B8 77 1B B3 32 92 
C1 77 EE ED F6 B1 1B 87 00 00 44 42 F1 FD AB F1 E9 79 D6 1D 3F 1B 61 C7 5C B4 E9 48 BE 4C 55 F4 
20 6A 70 D7 DE 2B 2F 3C 67 50 B7 89 DA 6B 65 B0 32 B5 63 DF 21 A0 F9 75 EF E9 14 35 A8 6E 1C 5F 
E1 F6 69 FF A4 7C C3 A7 77 83 26 1F B8 7D 9D 7D 75 7C F8 F9 0C 85 4A 14 B9 7F CB 91 12 B5 53 1B 
ED 6F 5E 9D 3E EF F5 19 E5 63 7D 68 F9 A6 94 59 01 9E 0D B9 28 D4 C5 E3 47 40 3B 07 F8 AC B8 91 
9C 95 9B 93 75 E1 C8 CA 49 7B CA 5C 9D 6D 00 80 69 D5 7D CE AF 56 CB E6 6E F2 5D 3A E1 3D 73 90 
E4 9D ED D2 C5 69 FF 95 DC 36 1D BB 77 EF 22 00 00 A6 9E CD DF FB A4 D6 66 31 19 87 3E 3F 0A 76 
4F 59 7B 3B 53 A8 91 E7 6C 9F D3 DD EB F3 7D 72 23 1B E9 0B 27 98 EF 8D F6 B7 9C 31 28 28 3E 5B 
52 26 4A DD 38 FF 67 7B C1 A0 96 86 8B 0A 0D 3C 8A 86 C4 C3 7D 3A BD 37 3B 43 6C D5 B5 7B 9F 4E 
ED D8 00 66 7A DD 1A 7B 60 75 7A 3A D0 F9 64 E7 7E 23 8B D3 26 53 8E F1 77 C8 F0 99 BF 25 B1 B9 
00 00 29 F1 09 F9 32 5A 69 8E 9E 63 CD 7F 1D 14 94 9C 27 29 7C 7C 71 F1 B4 68 2B 87 0A 17 42 2A 
99 88 44 BD 7B 75 FF C0 A9 75 61 EA 3F 81 53 2E 3B 3A D3 EA 59 01 52 01 8F 45 CC 9D BA F9 89 50 
FE EC EE E1 69 8B C4 A3 C7 78 B8 F6 A2 71 57 5A 1F D6 8D BE B2 3A B3 00 C1 B1 8E 09 59 75 26 21 
AF 4C 94 B1 FE E7 9F 05 83 7E 74 E2 28 00 A0 47 77 D7 56 8E 44 F4 FE E5 9B F3 48 D5 4B 39 FF 03 
8F F1 8E 0F 16 04 1D 17 CA E5 0F 6E EC FA 66 D2 22 AB 2E 5F 19 1B AD 11 96 4C 9B F2 3A B2 E1 E7 
C0 10 42 B2 C2 3B E3 1D B5 0F D4 2B FE 4A 68 78 05 9A C6 1C 98 77 D3 99 03 53 49 52 96 8C F3 D4 
79 4E FF D1 C1 4F CA 75 D3 90 99 E3 1D 59 D4 AC 0C 42 28 27 76 AF 73 F9 6F BF 21 D3 0F 0A 95 E8 
E5 F3 0B 6E 1C 02 C0 25 AD 14 15 67 5D A0 66 A7 01 C0 6B 62 E8 0B 25 12 3E D8 07 84 5F 56 19 42 
08 C5 1D 19 E7 E4 1E 5E A6 41 D4 4C C3 84 ED 95 E6 C0 F4 66 43 25 AB 07 72 A9 A9 14 B5 3C C5 C7 
86 71 30 AE 04 21 F2 DA E1 85 3A 0D D7 FC 95 60 4A 93 CB FB 67 96 B7 70 09 BF F4 04 69 2D EF 97 
5D 56 D1 EF B9 0D 03 A8 59 99 D7 8A B1 CB E5 C4 1E D2 4D 80 01 C0 6F 3B 62 74 B3 1A 2F 92 B6 02 
C0 A9 BB D4 DC 8F 2C 62 C3 58 5D B5 E0 53 8F 10 D2 B7 79 1D CC A2 85 9A 89 A1 4A D4 B2 44 37 AE 
07 B5 C4 A3 20 75 2B 35 65 A5 21 B3 37 FC D4 59 2B 9A F0 8B BA 2F AE 51 B8 5A 9E B9 EA 7B ED AB 
61 FB 4E 81 C9 2F 48 64 34 CF 6D E0 51 7A 48 56 F5 E2 EC 8D 2B 51 49 52 E6 0E 29 7F F5 45 F8 27 
3C 23 F5 2B 19 7B 60 F5 7A 1A FB 64 25 5F 22 DC CF DE 2D 41 08 C5 9F 98 09 00 02 EF 70 39 9D 34 
B5 3C 73 F1 D0 8A B7 71 BD 27 1E D3 9F 82 BA 75 44 27 CD 7B C5 8A 31 40 F8 67 95 D1 E8 69 60 01 
9D B4 89 6B CE 2B 10 A2 75 57 DA 42 FD 2B AE 1A B3 5C DF ED 6B DF C9 9B 2A B4 EF 34 3F BD 18 21 
94 17 34 5E 7B 6A 82 41 81 93 BC 58 DF CC 3B 8F 10 2A CC 38 4D 2D E7 01 80 B9 3B 62 54 F4 46 AB 
37 9A F7 22 8E 72 C8 52 A1 50 2A 6B 9C BE 1B 3D 80 35 3A B4 E3 AE 94 89 85 42 A1 54 56 E9 7E A1 
28 BA E6 CC 24 A8 75 71 E5 50 63 A7 5F 8D 94 93 A4 FE 51 B1 B8 92 90 FA 42 43 CA C4 62 B1 BC 36 
B2 D5 72 89 50 28 56 54 79 5C B2 69 98 79 F9 BA B8 D7 48 55 2E 57 26 11 0B 85 86 67 74 F7 44 80 
6E 79 24 85 52 66 5C AD C2 E6 75 30 8B E9 94 49 C4 22 B1 B8 56 73 F8 65 12 B1 58 5C E5 B5 4D E7 
51 B4 42 64 32 59 55 75 8C 3D B0 7A 3D 69 7C 52 2D 97 C8 64 32 FD FA 24 29 D3 79 31 AD B4 32 89 
61 A7 FA D2 84 42 E3 DE 69 F4 AC 2C 50 26 93 19 6A 65 EC AE 74 85 FA 57 1C 7D 77 D1 DB BC 46 6E 
BE 87 10 69 60 C6 32 89 90 6E 74 48 B1 58 5C B9 E2 EB BA 90 4D 0C 60 26 E5 03 6B 3C 58 D6 7C 7E 
63 EB 80 A9 04 9B CB E3 57 5A 58 21 DF 33 A7 D7 8F EB 93 05 DE E1 EE 1D F4 0F 18 8F 1D 8B C3 AA 
E6 68 BD 41 B0 B8 3C 1E B7 E6 7A 7A 30 38 56 7C 0E FD A1 C2 B4 7D 2D 5C BF 07 C2 FD 6E 68 8F 7A 
50 AE 4E 98 5B F1 F4 3F 67 D5 28 52 27 BC DB 2D BC 50 B5 FA E4 13 3B BD D7 4E 46 43 03 FA 36 AF 
83 59 EA AC A1 89 4D AA 38 52 95 47 D1 0A A9 A6 02 8D 8F 55 AB 27 4D 7D 06 C7 B0 03 16 AB A2 80 
56 9A B9 55 95 8E 5D 85 9B D5 70 2D 18 9F 23 AD 1C BA 42 FD 2B 8E BE 3B 8D 3C 41 24 2E 03 60 71 
B9 95 AA 56 71 16 2C 1E CF 60 D4 1A F9 16 DD C4 03 18 A6 E9 C3 ED 37 64 E9 D6 0F D8 43 47 79 37 
FC 14 6E 03 C0 6B D1 75 77 48 68 A7 CF 87 77 A5 5B 0B D7 28 10 CC 96 43 37 6C FB CA F1 E3 21 5F 
35 DC 92 C8 06 E4 0D F7 A8 26 85 E0 9B 33 4B 95 CE 35 D7 6B AA E0 00 86 79 55 3A F6 1D DA B1 6F 
63 2B F1 DA E0 3A 74 FB F1 97 6E 8D AD 45 25 08 96 83 F7 D8 49 8D AD C5 6B E4 CD F6 A8 26 45 EB 
8E FD 5A 37 B6 0E AF 42 13 5D 85 88 C1 60 30 18 4C F5 E0 00 86 C1 60 30 98 66 09 0E 60 18 0C 06 
83 69 96 98 34 07 76 F7 EE DD 1D 3B 76 BC 6E 55 9A 1A 65 65 65 A9 A9 A9 C5 C5 C5 8D AD 48 A3 11 
1D 1D DD D8 2A BC 5D 60 97 C3 60 28 10 42 42 61 CD B9 D0 4C 0A 60 1F 7D F4 51 40 40 C0 2B AB D4 
CC 10 89 44 91 91 91 C3 87 0F 6F 6C 45 1A 93 B7 70 DC 1B 11 EC 72 18 0C 05 42 28 2C 2C AC C6 6A 
F8 15 22 06 83 C1 60 9A 25 38 80 61 30 18 0C A6 59 82 03 18 06 83 C1 60 9A 25 38 80 61 30 18 0C 
A6 59 D2 0C 76 E2 28 2D 2A 32 77 70 30 AB B9 E2 1B 48 93 3A F7 32 91 48 69 58 C6 E5 1B ED BE 67 
80 46 21 95 28 B9 36 BC DA 79 9A 4C 2A 42 5C BE 05 AB E6 42 63 90 4A 2A 14 A9 6C 1C F8 C6 69 3D 
72 73 F2 A4 32 D2 CA AE C5 3B 8E B6 54 91 C1 49 B1 B9 56 96 95 37 85 43 2A 69 B1 08 D9 3A F0 74 
D2 94 52 91 84 64 F2 6D 79 7A F2 55 62 91 48 03 56 35 5A A3 96 A8 44 22 A9 41 91 99 55 8D 16 50 
95 14 49 B9 FC 9A 0D A5 0F AD D1 AA B6 A4 21 94 4D EC 6D 0D B7 37 54 4A 45 4F 73 5F A8 80 ED D8 
A6 9D 5D B9 0F 88 45 22 8D 5E 1D 0B 3E DF C0 C3 65 52 91 42 55 C9 B5 4C B4 B9 52 2A 92 21 AB DA 
3A 5B 15 A8 44 22 29 8F 5F F3 B9 D7 16 D3 AD 5A 0D 75 BB AC DE 3C 9A FA 13 58 F6 8D F5 7C 47 8F 
4C 71 CD 35 DF 3C 9A D8 B9 4B 83 47 B4 B6 35 C0 3E 44 5A 53 0E D6 2B DB FA 8D DC 18 5F DB BE D6 
74 6E 79 30 4E 68 42 21 0D 85 A9 7B ED 1D FB 3D A8 6C B7 B2 FC E8 C1 7C CB B6 4E 1D 04 02 41 DB 
16 76 9D BC 43 F2 65 60 7C 52 56 E6 EC EF E6 9F D6 4F 2C 7B 6E 7D 3F 47 47 EB A3 15 99 06 A5 1B 
BF 6D ED 60 A7 5F 02 2F 9F 46 D8 D8 3A BE DF 2F AC 46 6B D4 0A B5 34 71 60 2B 3B 03 93 D7 68 01 
B5 34 C5 AD 95 DD 51 13 0C A5 0F AD D1 68 0B 69 B9 B9 DF D3 D1 21 DC E0 F4 13 4E AE E4 F0 6C DF 
17 08 04 82 0E F6 D6 EC 79 A1 77 D4 00 1A 79 D2 90 B6 F6 FA 67 C4 21 88 BD 51 D9 BA 56 48 95 F5 
83 93 83 AD DD F4 67 15 99 33 4D B5 79 D4 FA F6 43 57 DE AA D5 89 57 45 61 DA 1E 5B 5B 93 CE 9D 
42 5E 74 7D 7A C0 5E 53 1C C0 74 AB 56 43 9D 2E AB 0A 12 CF AE 5C 7B 30 FD 95 34 68 1A 34 E5 00 
26 BF 7E 64 51 FB 7E 73 80 E8 D0 08 79 D2 1A 99 26 7A EE BE CB CE 17 95 14 96 93 F7 3C 3F C0 AA 
A6 ED 56 19 5C 07 3E DF F4 94 CB 14 2C 6E 4B C2 CC 30 A3 2F 6D 21 0D E6 16 D6 40 38 54 B6 9B 74 
E7 D4 AF EF 7E B4 E6 41 81 98 24 C9 EC 94 D3 BC C8 E9 33 76 26 50 C7 7C 97 45 49 65 62 A1 50 2C 
16 17 46 1F 5E F8 F7 1A 9F 93 09 DA 1B A5 46 91 BA 3F 28 15 00 B6 EC 88 D2 3D A8 59 B4 61 00 C0 
BE 33 A9 3A E9 77 23 F7 03 80 A3 33 A7 7E 07 8B 60 B1 79 2C E2 8F 7F EF 0B 85 E5 16 CF CB 1B D5 
CD B6 A6 56 60 CF 02 9E 45 ED 76 87 A7 33 1A 7D 21 2D 16 3C 67 3B 41 A5 D3 57 4B 63 03 46 2E 5E 
F0 67 4C A9 8C 54 CA 84 D1 87 67 AE 0D E8 7D EE BE 36 61 F1 F6 FF 1E C9 64 62 91 58 5C 5C 98 BE 
E1 A7 CE E3 3F 5F F8 58 9B A2 19 9E 27 9D 3B 52 A2 06 B4 F3 CC D5 BC 0A F9 A6 D9 FC E3 1F AF 6D 
99 E4 6A FA 59 D7 80 69 E7 4E A1 2C 48 0A 09 53 98 99 B0 FB B0 E9 56 AD 86 3A 5D 56 3A E4 E7 97 
AF 48 2A 7C 13 72 DC 37 DD 00 F6 22 6E E3 A7 23 57 06 06 FE BF BD 33 0F 68 E2 DA FE F8 99 2C 90 
28 01 14 5C 6B 45 B1 55 40 B4 5A 4B B5 7D 0F D4 BC 3E DB F7 8A 8A 7D F6 69 B5 5A 6D 2D DA 4D 51 
6B 71 AB 56 EB 56 70 41 70 01 95 BA B5 6A 55 6A 8B B6 05 6B 03 0A 54 16 21 6A 40 40 09 0A 4A 40 
22 49 48 30 93 64 86 DC DF 1F 93 0C 59 86 CD D2 A2 EF 37 9F BF E0 66 EE 9D 73 BE F7 DC B9 99 B9 
37 73 26 75 B6 21 9D C0 63 EB BB 57 CF BE 5E DD BC AD F4 E9 DD 43 04 00 A5 17 77 AD 88 DA 17 BD 
34 0C C3 86 2E 8D 4A 2D 2F 4F 9F 39 82 E7 1D 30 76 E7 69 69 23 00 0F DC 6F 17 A6 6C 5C 3A 1E C3 
86 2E 8D 4A AA B3 8C 1A F2 CA 4F BB 5E 1D C6 C5 B0 A1 6B 13 D2 A8 3B 1E C3 83 AB EB 3F 08 C3 30 
6C 69 D4 FE EC 52 82 9A AA 18 0B 55 B7 D3 17 BF 11 88 61 D8 C4 F0 E8 5B 4A 4B 72 E1 F2 DF 4F FC 
77 7C A0 77 C0 DB AB B7 7D 05 E0 61 6F 38 89 57 9A FB 8F 18 FE 6C 0F 11 8F C7 EB 3F 34 34 EE C8 
CA 41 58 BD 09 10 00 78 7A 78 77 15 88 3C 3D 45 22 91 F7 D8 69 B3 E9 AC 7D 00 70 3B FB F8 77 9A 
4F 32 32 F6 E5 1C 58 23 AB B5 14 9A 1B 10 00 A4 AC 4F B2 DE 22 54 27 ED FE F9 4F 10 1B 00 40 47 
A2 5E 7D 07 78 7A 5A 15 EF D3 A7 AB 00 00 1E 24 7E BE E0 8B A8 E8 D9 62 BE 77 C0 A4 63 92 D2 2B 
3F 6D 1D C4 E3 3C 3F 76 71 5A 89 1A 00 44 3C EC C7 E3 5B 67 8E E0 79 07 4C 3A 98 52 4A 35 85 C8 
EA 83 9B 66 63 18 E6 1D F0 76 72 8E A2 05 D1 98 0A 19 FA 0B A0 E1 E7 03 AB 07 F1 38 21 33 57 9E 
38 FF 93 9B B7 9D E5 06 F5 FD 3C 23 1A 3D EA 39 77 01 8F 2F F0 1C 3B ED D3 2D 1F CC 77 E7 5B 9C 
EA D6 A3 A7 40 20 F2 10 89 BA 7B 0F 79 7F F1 22 80 BB 06 8B 98 86 9F F7 44 86 AD 4B 49 DA 36 7E 
CB FA 73 F4 AD 70 1B 35 AF 29 4D CF 2C 52 01 00 A1 29 8A 5E 1A 86 61 D8 98 49 F3 69 67 AD 34 FC 
7A 74 F5 DF 02 B9 DE 01 63 37 5A 7D 61 14 87 86 29 DE 0C 19 67 B6 BE 3A 8C 8B 71 C6 6E 4C 48 AB 
B9 7D 6E CA 8B 0B 91 79 FE BC 15 49 38 6A 87 D4 34 FA 9A AB 1B 97 86 61 18 66 6B D5 9D AB DF CF 
0D 0B C4 30 6C 46 44 1C 1D E7 14 CD 0C 2B AB 55 D8 D0 B5 09 A9 D4 ED 60 63 43 79 FC E7 B3 30 0C 
1B 10 F2 F6 E9 8C 0A 00 90 5F 3C B0 32 D7 78 22 62 FA CE D3 B6 37 61 CE B2 50 61 B6 E1 8D E1 5C 
EF 80 49 89 C9 96 40 2A FE FD C8 6C 71 A0 BD B6 76 6A 50 C6 33 0E D2 8E A7 2D B9 C5 3A 25 A1 A5 
51 A7 50 EA 91 AE FC 08 60 21 9D 92 95 B8 13 13 5A 76 BA EF 14 F6 FD AE DB 3C 41 30 7A 5E 42 56 
4E 06 85 44 22 29 AF 25 10 42 59 89 62 00 98 1F 93 7C 3E 29 9A 0A AA DD A7 52 BE DE 38 19 B0 90 
1B F5 28 2B 71 36 00 7C F4 55 72 5E E6 F1 20 57 2C 78 61 0A 49 25 63 04 88 39 95 21 CD 3C 1E E4 
8A 85 AD 93 20 A4 8C EC E7 E2 E5 BF 22 A3 20 87 4A D7 7B EC 8A 8A B1 D0 A8 4C F3 E5 62 6F 2E 3F 
74 55 96 B3 E9 1D 01 70 22 EE 9A 90 A6 FC 38 00 CC DB 72 3A 2F F3 B8 B8 2B C7 39 93 F5 85 DD 61 
00 E0 13 1C BE E7 D0 E9 2B B2 0A D2 C6 A9 D7 97 27 57 2A 2A 2A 2A 2A E4 72 D9 D7 1B 27 03 40 F2 
0D 2A 67 9F 6E C7 54 A1 38 32 03 21 C5 9C 1E 3C 6B 6E 68 DD E6 09 82 B9 EB A2 E8 CC C5 EA 9B 47 
00 0B DF 1F 3D D9 2B 20 41 FF C7 52 36 3B 84 1C 95 0D 39 32 3E 39 3B 93 96 3C 47 6D 42 A4 4E 4A 
CD B2 47 7F 91 EC 5D 3D 0E 00 7C 82 57 FC 2C 39 FB DE 08 9E 4F 48 42 03 2E A5 F2 E4 1E FD 25 E7 
97 23 4B 00 E0 E0 65 15 42 EA CD 13 04 80 85 FF 9A 2F A3 0A 4F 5E 51 31 8A C6 58 C8 D4 5F E8 E2 
81 30 80 00 FA 2C 7E A1 0E EE 2B 96 3C EF 02 00 6F 2D FA F2 64 B2 A4 AC 4A 6B EB D4 B6 1F 0A EE 
55 54 54 54 54 14 49 D3 3E 1A C9 A7 B3 5D 9B D4 99 BE 5C EC C4 35 5C 7F FB 08 00 5C B0 24 B4 6C 
AB E6 92 ED C3 43 37 67 23 84 EF 7A B3 CB 88 19 B1 D7 4A 64 DF 6C 1D 0F 00 F9 75 4D C7 94 A5 AF 
02 6C 62 6A B6 2C 3B 35 0E 00 56 9E 2C 63 14 A7 B6 68 1F 35 FA 18 E3 2D FB 3B 8B 20 59 A9 FB 00 
60 41 DC F9 63 BB E6 03 36 F1 CC 25 39 D9 66 A9 69 CC 84 7C 5A 77 AE 5F 68 54 F6 75 D9 2F 47 56 
01 C0 B1 2B 5A 52 97 1B E4 8A 6D F9 36 A3 58 96 B6 A0 37 CF C1 53 C6 61 95 95 18 06 00 BB 4F 65 
E4 A6 1D F6 E5 62 C1 0B 93 49 A4 58 3E CA 05 B0 F0 D4 EC 82 93 BB E6 03 40 E2 C5 DA 9A D2 D4 69 
DD B9 E2 79 51 79 65 AA 16 64 B1 86 59 C0 C9 DF 0A 2E 9C 58 45 05 92 AA 68 3F 00 44 C6 A7 C8 64 
39 7B 57 8F A3 12 A9 3B A8 F1 C9 D7 C5 8C A2 B5 8B FF 8D 8C CC 88 0E A3 BF 9E 4E CF C8 DC 89 BE 
53 38 4C 60 3B A6 3A 3E 95 A2 AE 26 59 89 61 54 76 79 84 F0 CD 13 04 73 62 F2 11 42 66 A2 30 C8 
15 3B 76 45 9B 95 28 F6 09 39 44 25 8A AD C9 DB 05 58 48 69 BD 76 F3 04 81 38 32 C5 88 08 03 41 
5C FF 69 09 60 13 73 F2 0F 03 04 5C B3 5C 68 E4 D3 BA 73 8F 5D 51 A9 6F 1E 71 2E CC 4A 0C 03 4E 
C4 9D 7A C2 84 13 5A 45 1A 65 46 FA 1E B1 D5 06 74 FF EA 2E 46 DD AE A5 1F FF 68 D6 58 8B E9 58 
48 CA 75 15 83 53 58 C8 A9 4B 72 EA 78 43 75 2A 00 FC 78 4D 8B 10 4A DF 23 06 4E 84 C2 84 A8 8B 
E9 27 5F E7 9C DE 24 0A 5E 28 41 08 A5 6E 1E 3E 75 4B 46 F6 77 B3 FF 8C 09 8C 4E D9 6E 35 6F E6 
2D BD 65 0E D8 79 A1 0A 21 64 54 A6 02 40 CA 2D 02 21 A4 2A DA 85 71 62 1B 70 A9 B8 2B 67 C7 CF 
55 54 23 47 3E 72 1B 3D 2F B9 AE FC 38 00 9C BC 52 6B 26 70 82 50 EE 98 2A 0C 5E 98 F2 DB 6E 06 
D1 98 94 64 E8 AF D2 FA DA C8 7E 2E 91 DF 94 51 67 39 B7 79 B8 4F 88 A3 FB 66 42 99 7C 24 7A 42 
A0 C5 05 BF D0 D8 2A 3D 83 53 7E A1 51 45 55 96 2C BF 57 BE 9B 0D 9C 88 FB 26 84 90 22 A2 2F FF 
B5 2F 32 10 6A 87 E6 E9 7B C4 53 B7 E4 23 A4 5E 1B E4 32 62 46 94 B4 AC 16 C7 D5 C5 32 B9 CA 26 
A3 71 56 A2 18 B0 89 67 2E 95 D4 E3 78 65 A9 EC 5E AD 56 C3 24 4E 4D A1 65 F4 31 C5 5B F9 DA 20 
17 3A 43 B7 EC FC BE C3 C9 32 75 E9 2E AF 80 04 23 42 8C AD 31 4A 6D 2B D4 F9 A4 B3 77 EB 11 42 
84 46 29 A5 E2 9C 0A BF 2F 0E 4A AA 54 78 83 B2 E2 56 45 AD AD B6 4C C3 4A B1 A0 37 2F F2 9B 62 
EA 80 AA BC AD 80 85 5C CA DE 07 00 D9 F7 2D B5 4E 7E 2E F2 09 49 D0 9B F1 6D AF 0A DF DB 7B DD 
A1 41 07 59 1A ED 03 E9 C4 32 51 F0 C2 64 45 69 E6 F7 C9 05 24 42 66 82 28 4A DF 00 58 C8 8D 7A 
95 B3 1A 19 07 18 06 29 43 C4 37 4F 1B 27 B0 C7 F7 11 22 CB E3 86 41 8B E6 58 C3 94 E2 AD 51 DD 
00 00 19 B5 E3 67 BF 28 C4 00 A0 E9 41 01 22 A9 87 1A 24 32 C2 B0 7F F9 51 DB CC 08 53 3D 00 98 
0D 65 97 73 4C 92 AF 5E 73 C5 F8 02 3E 7F F8 EB DB 01 DC 49 C2 08 70 C3 5A BF FB 80 2E 5C 02 80 
20 0C CE 85 00 EE 60 8E 19 E0 C1 77 11 F2 DD FB 8E 07 00 1E 00 0F 20 E0 95 C1 54 FE C3 6E 3E 23 
06 71 A1 D1 DE F6 AA CA EA A1 63 A7 EF 3A 92 6E 26 F0 CA D2 B4 4F C4 97 5F 1B 71 40 8B 90 41 8B 
C2 D6 65 90 08 69 94 B2 65 AF B8 00 F6 FC A8 17 2C F9 FD F2 7F FE 16 00 26 3F E7 8E 61 D8 B8 0F 
25 60 8E F9 E5 B2 92 FA 48 6F 74 0F 99 BC 39 23 EE 44 0D 5E 7D 66 E7 8D 39 FF 79 C1 85 D0 75 B0 
DC 00 00 50 6D 40 C7 AE 68 6D 86 F5 37 CF 08 01 00 74 24 EA E1 29 02 00 9E 5B CF 20 C1 D8 41 4F 
F1 C0 46 7D 1D 89 7A F5 B4 6C 08 F4 1B F3 CF DC AF EF D4 EB 75 00 F0 DF 17 7A 72 F8 42 3E BF C7 
E2 D3 78 E5 D5 0A 92 49 34 67 25 4D 8C FD F5 F0 B6 44 49 04 0D EB 49 9D A5 5B 4F DF 86 07 76 96 
9B 1A 1E DC 53 72 27 CE FA 34 55 D6 68 D4 29 B3 53 E3 4C BF 2C 5A B5 AF 00 00 1A 48 38 78 B9 16 
21 E2 56 EE 61 00 18 14 38 7C 48 5F 6A 27 61 F5 E9 A8 13 60 8E E9 E5 82 61 58 DF 18 05 91 B2 2E 
BE CC BA 36 D6 1E CD 3D 17 1C 3C DE FF A7 E5 23 9F E9 29 14 76 8B 3D 23 35 73 9B 76 EB 8D 99 B9 
7F CB 82 DB 53 42 FC 3C 84 C2 37 3F 3D 56 A3 E7 9B 70 06 71 F4 4D AD 39 C7 1B CF 15 C3 5E 1D 3D 
90 FA 38 F0 9F EF CF 9E 18 48 90 A0 2A 31 36 22 60 6C 8D 51 6A 1A 8C E7 DD DF AB FA 9D BE 5C 0C 
E3 7B F6 18 F9 9D AA 11 00 5C 7B 8B D3 8E 2E F9 62 AE F8 A9 EE 42 B7 9E B3 2E 5E 55 D9 56 61 1A 
56 75 0A DC 1C E0 D7 8B 3A C0 A3 17 65 9E 11 38 11 FD AD CB A6 4F 0D F8 47 C3 03 63 23 10 26 84 
1A 8D 76 6B 60 CE B2 50 81 D4 E7 29 4B 20 F9 0E 7F 25 73 D7 1D D1 B3 43 4D 37 13 78 18 C6 E1 F3 
87 8E 5B 0D E0 C1 65 52 83 83 31 0C D2 3F 03 76 02 63 69 17 0C 9B 28 C8 66 CA 69 F4 1A CB 50 E9 
EA D9 13 00 90 A0 9F BF 88 47 7D 01 24 08 D4 A0 2C 91 FC B6 B4 8F 10 00 0B 71 B7 DC 0E 91 46 B3 
75 F5 C3 A9 90 30 DE 03 4E 54 BD 19 11 04 61 26 D4 79 99 19 63 7C 45 24 40 E5 D5 0A 6A 9F 85 51 
5D 2E 6F 04 DB 45 72 42 93 DF CF A7 EF C9 7C 1D 00 60 3C C1 D3 83 C7 AD 8B DD 01 28 A3 46 07 00 
E0 E9 D1 85 0B E0 E1 1D B8 F1 54 A6 58 18 FB EF 69 87 71 04 00 95 FB 97 1F 7B 6B 5D 72 A9 BC A4 
A4 A4 44 2E 2F 58 F5 8A 4B F4 D6 9F 71 84 00 A0 D1 48 F4 08 F8 D7 24 F7 03 3B B6 46 C7 D7 7E FC 
D2 20 01 61 AC 7F 04 35 DB 02 87 DF 9C B6 4D 5F 17 08 A7 F5 78 8E B5 52 ED 3D C9 73 D3 BD A9 5C 
F3 17 6F E3 66 82 20 11 A1 28 CD 3D 11 F3 1A 8F 49 34 67 25 5D 98 FA EB E9 1E 4F 8F EA C6 2D AF 
A2 A7 10 C7 4D 75 D7 7E 08 EF FF D4 F2 1A 04 00 E0 E2 E6 3D 7A C2 C7 2B 66 0B 1B 0C 00 00 3A 12 
B9 F2 05 00 BC 67 82 66 DF FC 75 D5 4F 5B 5E FB EA 94 1C 00 34 B7 2E 6C C9 37 1D FA 4D 56 56 52 
52 52 22 2F CC 3D EE CB 39 76 FA BC 65 83 62 7B 34 37 E8 61 70 FC DD 87 1A A5 FC 7C 52 F4 DE 35 
53 CF DA 6C 5F D4 AA 88 C9 91 BF 9B 70 E5 D5 DC B3 2F EA B7 CE 5B 79 86 40 0C E2 D0 1B 24 18 E3 
0D 00 0A 8A EF 53 07 C8 2F EE 8F DE 97 49 20 D4 DD CF 95 6B DD C4 D1 16 A9 69 34 B7 8E FA 8D 0B 
9F B0 EF 62 75 AD 96 BA F5 24 80 D7 D8 A0 F4 1E B1 C8 40 E0 95 A5 05 7B 57 71 E6 85 85 3B 6E AC 
B5 1F 56 66 1E 1F 00 54 B5 96 09 9F C0 55 00 80 08 00 54 F0 D0 1A 29 C6 FA 72 37 6F CB B6 17 AE 
AB 5D 5C 39 CB 62 02 10 F1 30 B3 35 B4 D4 F7 E4 CF 4D EF 9B FF F5 DC E9 CB 8A 7F CA 96 D7 E3 A8 
B6 68 1F 80 A5 0B 1C D4 78 68 60 16 AD C3 61 27 30 96 76 20 2F 2F B8 56 28 CD CD CD CD CD CD BD 
22 CD CD CD 2D D4 39 AD CE 1A EC FF C5 5C DD 25 5F 05 FF 90 AF D0 6B 4A 37 2F FA C8 2F F4 DD 01 
A2 1E 63 DE F5 4B FC F0 AB 1C B9 DA 6C A8 DC BB 6C A4 F8 95 23 5D FD 43 A6 75 CB 8A 58 7F 56 6D 
30 E4 9E 89 89 51 10 7C 00 EF C1 0C 85 83 5F 9E 02 E6 CF 0E 9F 2D 6C 04 F2 F7 A4 2F 83 FE 1E 7C 
B5 86 1C F0 DC BF 2A 2E CD 3F 2E 91 E3 0D 95 87 B6 46 39 2C 92 F3 3D 7D 97 8F 72 99 11 14 FA 4D 
8A F4 6E 75 65 51 DE F7 73 5E 5E E8 17 FA D6 00 77 B0 3F 2C 28 FE 87 15 25 67 E7 EC 3D 5B 51 7B 
ED EC 21 25 F9 E1 7B A1 83 7D 87 0C 19 32 C4 D7 77 E4 3B 91 CB 4A CE CE C9 AB 68 04 00 03 10 00 
BE 73 17 05 46 AD D9 31 67 FB AC EE 18 FC 49 8B D4 22 1E 56 52 70 59 26 A5 34 97 E6 E6 E6 96 54 
B4 B2 3F DE 4C 80 88 87 45 7E 12 73 47 6D B8 77 ED C4 C2 D5 DA 19 6F 8F ED 33 E4 1F D3 BA 73 57 
EF F8 AE 06 27 1F DC 94 4C 1E 3E 7A 63 6A F5 A0 11 0C A2 31 29 C9 D0 5F 06 6E 8F 71 B3 84 9F 85 
46 CB 14 3A E5 ED F3 9F 2F 4C 77 F3 B6 BB AB 08 18 FB 2E A0 7D E3 27 7D F9 BB AC BC AA B2 3C F5 
BB 8D EF 1F D4 0F F5 A5 FB C5 22 D8 B3 AF AC DE 33 B7 CB AA 69 8B AF AB 20 FD 9B 8F BD FC A3 FE 
33 3E 70 D0 90 21 43 86 F8 0E 0D 0A FB 74 B6 70 EB CA 64 2D 42 D0 3E CD 6B 57 86 8C 78 7B E3 AF 
1C 4F DF D1 41 2F 04 B9 DA 6D 0D 94 9E 18 E3 3F F0 D3 52 AD DB F0 91 63 FC FB F3 01 5C 7A 32 89 
C3 B1 56 62 8A 37 C1 F0 29 43 E2 E6 25 5C AB D0 3D 7C 70 75 C3 9B 1F 4A AA 81 47 62 75 C5 97 F2 
4B 14 EE 83 DB 2A 35 0D 22 8C 00 F0 FC C8 A1 BD 7B 60 E9 47 D7 C7 28 08 F2 A1 41 A7 F8 69 D8 30 
9F A3 17 AB FA 0E 1E 39 72 98 1F 80 DD 9C E7 3C AC 06 76 1B 34 23 BC EB E2 D0 E8 FC 0A 9D 5E 53 
B4 7D C5 47 5E 7E A1 01 A3 C6 4D 72 CF 8C 58 9F F4 00 37 DC B9 FA FD BC 65 B2 E9 E1 21 42 0C 03 
80 C2 FC 82 1A BC A9 41 67 59 A8 D3 AD 58 12 73 47 6D A8 2A FA FE 83 D5 B2 69 FF 7D 01 4C 5A 00 
BF C0 E1 BE 02 B2 3C 61 CD 27 00 1E 00 22 67 35 02 FF C6 30 48 5B 8E DB 47 A4 2D 8F 23 3B 7B 0D 
CC 71 41 FE AF E1 F1 58 03 EB 1C DF 29 1C D6 C0 F6 CC 75 DA B6 8B 85 DC A8 47 99 96 85 07 44 AD 
55 50 4F E1 1B 0D 85 D4 92 7B 56 62 18 40 00 75 B8 4F F0 8A 5B 75 08 21 64 26 2A B6 7D 10 68 6D 
64 A6 A4 58 8B 10 AA 2D 4A B2 BD D6 50 8F CE 98 0A 89 CC 13 AB E8 92 2D DF 16 20 84 10 22 7E 3B 
60 79 71 FE E8 89 93 00 9B E9 A0 1B A9 2B 5C 3B 7B 1C 5D 2B 78 46 EC 9D 7A 44 AD 81 59 77 67 58 
DC DC 39 A7 0B 60 E1 DB 23 84 3E 21 09 3A 9B F5 15 CA A3 0F F7 E6 D0 3E 2A AE EE 03 EB 46 83 AC 
C4 30 E7 45 A0 F6 D2 FA 1A 18 C0 D4 2D D9 D4 E2 04 B5 A8 D0 88 4B 83 04 63 6F D4 23 84 50 6D D1 
2E AF 80 D8 87 84 7C 4E 8F A6 07 36 F3 B6 A4 50 2B 25 75 E5 A9 74 6B E2 79 09 F7 4D CD 89 C6 50 
C8 D8 5F 8D 06 F9 E7 6F 34 FD 04 79 F4 BC D3 46 7B 77 2A F3 8E D3 0B 60 00 B0 26 3E C3 68 DD C4 
61 BB 22 62 7C 90 29 EE CA 79 F9 C3 B8 49 1E 9C B5 27 CB 6C 5B B8 FB FB 56 00 F8 F9 86 B2 8D 9A 
D3 A1 58 99 77 D8 D7 7A 37 34 65 D1 31 B5 CD 0E 02 52 57 18 39 C5 6A 36 16 5E 70 8F 60 14 C7 66 
F4 31 C4 9B AD 20 23 66 C4 56 E9 D1 C3 EA D4 20 57 0C 20 E0 46 7D DB A5 A6 51 44 CF B1 B4 E6 17 
1A F1 BE 98 F7 FA F2 14 84 F0 E4 6D B3 E8 F3 C6 FE 68 A7 0C E3 B0 6A 34 C8 A9 BD 4E 00 E0 E5 1F 
21 BB 4F 20 84 6A 4A CF D2 1B 6B E7 AE 4B A6 42 3A FF CC 12 00 F0 9B 78 88 EE 32 67 59 A8 9E F2 
F2 0F B0 D6 4D D1 9B 91 A6 BC A9 B5 F7 57 44 00 C0 C9 2B 5A 67 35 9A 19 A4 ED E0 7F 64 13 47 27 
D2 E9 13 58 A7 D3 81 FD 6E 26 70 AD 16 77 28 D4 EB B4 1A AD 96 B4 2B 23 EA D5 6A 87 EB 20 63 A1 
99 C0 B5 5A AD 81 B0 2B 34 E1 38 8E 3B 9E C5 FE 00 AD 5A AD 6E C0 89 16 8E E9 44 3A 36 E4 F4 3A 
1C 77 F4 94 A8 57 AB B5 5A BB 42 46 D1 18 0B 99 FA 0B E9 75 AD E8 A9 D7 69 D5 6A C7 9E FA 4B 20 
EA 9B EF 6B BD CE D9 41 06 71 68 18 E3 4D AF D3 DA 47 35 61 20 E8 23 DA 2A B5 4D 6B 6A E7 31 62 
C2 5B 52 AF B9 61 E5 54 48 68 B5 8E C1 40 10 38 E1 D4 AC AD 2C 8D B8 34 C8 15 3B 7D 4D DB 68 D0 
D9 CB 48 34 E0 B8 B3 49 CE E7 65 14 AD 8D B4 71 02 FB FF FE 26 12 96 BF 06 8C 27 10 39 3D 03 17 
BA 89 9C 7E 6D CB 73 F7 F4 74 AA CD 50 88 F1 04 22 91 E3 7B 9B F8 02 41 CB 3F 74 E6 0B 44 1D FC 
B2 A7 C7 18 A1 9B B3 AB 0C 4A 32 8A C6 58 C8 D4 5F 20 74 73 EE AF D6 6B FD 25 30 C6 92 85 36 8A 
43 C3 18 6F 42 37 87 98 E6 B9 36 5D 50 DB 2A B5 4D 6B 0C 67 6F 39 62 9B 1B 56 4E 07 F2 44 4E 2F 
9D E2 F1 18 DA B5 95 05 91 44 1D 09 3A 3D C9 71 ED D6 D5 BE AA C3 EB D6 9A 3B 2F A3 68 1D 0B 3B 
81 B1 B0 B0 B0 B0 38 C2 11 0C FC FA E7 94 FE 83 FE 94 CD 17 1D 05 3B 81 B1 B0 B0 B0 B0 38 82 F1 
BC C7 4E 98 D0 D9 56 B4 02 BB 0B 91 85 85 85 85 E5 89 84 9D C0 58 58 58 58 58 9E 48 D8 09 8C 85 
85 85 85 E5 89 A4 4D 6B 60 2E 2E 2E F1 F1 F1 7F B6 29 8F 1B 06 83 E1 EE DD BB 75 75 75 9D 6D 48 
A7 21 93 C9 FE 1F F6 7B 27 C2 86 1C 0B 0B CD B0 61 C3 5A 3D 06 43 A8 43 73 F0 B1 B0 B0 B0 B0 B0 
FC 25 B0 8F 10 59 58 58 58 58 9E 48 D8 09 8C 85 85 85 85 E5 89 84 9D C0 58 58 58 58 58 9E 48 D8 
09 8C 85 85 85 85 E5 89 84 9D C0 58 58 58 58 58 9E 48 DA FD 2A A9 FA 07 0F 84 DE DE 2E AD 1F 68 
41 AB D1 98 9D 0A 45 9E 9E A6 06 0D 12 78 76 69 CF F9 F5 1A 8D C9 FA 37 C6 15 78 38 BE 26 92 BC 
57 2E D7 E8 C1 AD 7B F7 A7 FB F6 E0 DA 7F 56 FF A0 B2 BA 46 CB E9 E2 DE AF 7F 7F FA A4 CD D9 C6 
6D AA D5 3E 67 6D C1 DB EF 20 8D 5E A3 01 B7 B6 D6 45 64 83 5A 43 7A 78 7B 72 5B 3F F6 2F C5 D4 
A0 C1 91 9B 87 D3 5B 44 DB 0B 22 1B CA E5 55 1C 61 CF 81 74 66 59 9B 8F 3A C8 77 52 AB 69 A0 83 
41 E8 E6 E9 6A 6F B5 D9 A8 B9 7D E7 BE 11 F8 5E 3D FB F6 EA D6 96 C0 33 68 34 0E 99 D1 00 40 E0 
69 7D 33 AB A9 41 63 E0 79 BA 37 F3 A6 53 C6 70 6D D5 05 8D A6 C1 36 7A DB 0E 22 0D F5 0D B4 B5 
5C 91 A7 88 6B 35 B2 43 7A 90 85 E5 CF A2 5D AF B8 BF 93 15 4D 25 BC 69 23 A4 2E 97 CE CA 63 8B 
F4 BE 4C DC 95 73 F0 B2 AA F5 26 9A D0 6D 9E 60 37 DC C5 EF 1F AA B3 A6 02 AA AF 4C 9B F1 5C D3 
C8 F5 F2 0F CF B9 63 79 B1 BF 99 50 EC 5F 3D DE B6 62 EC 8F B2 16 6C BB 6E F5 AE BD CE DA D2 68 
28 6C BF 83 34 EA 88 BE FC ED 17 5B A9 8B 2B 33 17 CE 3F A4 33 A3 FB 57 77 3D B2 9D 7F 2A BF AC 
F5 10 47 66 20 84 0A CE 6D D8 F2 6D F1 A3 36 A3 FC EA 3F 02 00 00 4E 14 9D 9D AB C3 7D 27 75 52 
87 B4 87 D1 A7 64 F4 A7 05 E7 A2 6D 3F 9A B2 E8 D0 03 6B 7E A9 E6 02 2F 2B 51 CC 30 D8 AC 2E 90 
3A E9 24 0F CE 7E A6 F0 68 2E 5C 9B 83 D6 B6 B6 68 AB 6D F4 B6 8B AC C4 30 3B 3B B1 99 59 B7 71 
64 D3 83 B4 E0 2C 2C 8F 15 6D 9F C0 70 4B 82 B2 F6 A5 58 C4 EF 2B 14 4A A5 AA 28 3D 1A B0 90 CC 
5B B5 75 4A A5 42 A1 D4 EB A8 4C 33 2D A5 6E 72 42 B7 79 82 20 6C 5D CA 03 95 4A A9 54 14 A4 1D 
F6 E5 62 54 FA 3B 93 3A 57 DC 95 E3 13 B2 BE A8 4A 8B 10 A1 AC C8 5D F6 8A 8B 35 65 1C BE 7F 6E 
17 80 80 53 97 E4 06 02 19 75 8A A4 6D B3 00 60 FF 85 AA E6 6C 33 3E BA B3 4D 50 A9 74 6C B3 F6 
B5 07 A2 4C 9A 53 A9 6A 25 8B 4E 7D D1 2E 8C 93 60 B4 E6 BD BC ED 94 44 AB D3 51 56 C8 64 65 2A 
84 F0 4D 2F BA 4E 8F B9 FE 68 8D 98 89 C2 20 57 CC E1 AB 40 87 FB DE 88 4B 83 04 01 E9 96 18 90 
9F D8 3A 0B 20 E0 5A 1D 42 08 DD FC 75 15 00 2C 8A 49 51 E1 84 99 C0 6F 64 ED F3 E5 62 C1 0B 93 
C9 16 03 4F AF 53 2A 14 0A B5 5A 79 F2 F3 E1 5E FE 51 F2 5A 95 52 A9 A8 AE D5 22 84 14 D6 04 83 
4C E1 D1 42 B8 32 D2 A4 AD 41 5D 91 93 23 6B 26 9B 55 2B 64 25 86 59 8D 54 DE 91 E7 2E 7B C5 85 
4A 14 69 ED C1 26 C1 59 58 1E 2B DA 3A 81 D5 E4 6D 04 80 88 88 49 8F 76 4D 57 15 ED 07 2C E4 96 
DE F2 2F 95 EB F3 83 F5 51 EF 8B 79 5E FE 21 9B 0E 66 58 93 C6 A6 45 4C 19 0A 00 A1 EF 47 DD AC 
75 18 8B BA CD 13 04 EF ED A5 BF C8 13 DB 5E 15 4E DD 92 8D A8 EF 8F D8 CC 72 7D D3 A1 A4 2E 57 
DC 95 F3 DE DE EB BA F2 24 00 F8 C6 EE F2 87 EF 99 DB C5 CB 3F AA DE FA 75 D2 C1 B6 96 9D 2D 49 
8F 7B 7F C5 69 6B 12 58 C5 B6 0F E6 9F BF A1 45 48 7D 66 D7 CA 97 87 72 00 02 DE 8D 88 BD 55 47 
D8 4C 60 CA DD 4B A9 63 10 42 78 F2 B6 C5 D4 DF 2D 7A 8A 9F DD BD 21 FD 96 16 21 DD F9 23 AB 5E 
1E CA F1 F2 0F D9 10 2F B1 CD 3C 4B E7 45 9D B5 FC 74 45 E1 3E 00 58 FD E5 CA 20 57 6C 64 48 F8 
2F F9 B5 A8 75 31 51 75 61 EA 82 B0 B1 D4 A7 C5 F7 09 AA CD 88 C5 B1 87 E3 16 03 C0 E8 89 2B 72 
6E 6B 29 7F 3F 5B 1F BB 6E C1 38 00 58 B4 FE B4 F5 CE 03 BF F4 7D F4 84 40 0E 40 C0 9A F8 14 EA 
8B F9 6D 69 D2 9C C9 43 01 E0 AD 45 B1 D4 E9 64 E7 E3 F6 FE 58 56 96 1E 07 00 00 01 31 A7 8A 11 
22 F2 CE C5 59 2B 4A 9C F3 17 3B 58 D5 68 28 59 F6 8A 0B 00 8C 0C 99 14 73 AA B8 43 7C D7 94 9F 
5D BA E2 D0 F7 87 57 02 00 5D 85 CA 6B 4C 4F 84 A4 2E D3 97 8B 25 DF C0 CD 44 C5 82 DE BC E0 85 
29 B6 2D 94 A5 6F 00 80 94 5B 78 0B 81 47 97 64 8C AE 61 86 00 00 0B 88 49 44 41 54 25 86 79 05 
34 65 0D 26 75 B9 00 30 77 5D EC B4 EE 5C E7 09 AC E5 70 75 EE 0B 5B 6D 71 65 EE 9A 25 54 32 5C 
E7 DE 51 1E 58 BD 38 2A 3E 76 D6 78 BB E1 66 63 A4 D8 27 E4 10 9D A9 32 75 B3 87 57 40 AC CE 6C 
E9 41 5B C1 FF 60 CA 69 16 96 8E A5 AD 13 98 51 A7 50 EA 91 AE FC 08 60 21 8F 30 81 D5 16 ED B3 
AD 48 E7 4A 3F F0 63 C6 0F FB 17 03 C0 89 6B 5A A3 32 CD 97 8B BD B9 FC D0 55 59 CE A6 77 04 C0 
89 B8 6B B2 6D 43 B7 63 AA D0 2F 34 EA 42 86 44 22 49 DD 1F 3D 0B 20 E0 E2 6D 9C 9A D8 A8 99 CC 
06 62 FF DC 2E A3 E7 25 CB B3 36 00 36 D1 F6 12 83 10 BA 7F 75 17 60 21 F4 73 27 07 DB 5A 76 56 
7D F3 08 00 5C BE 47 58 2A 42 C0 95 FB E8 DC 66 0F C0 42 4E FE 56 90 97 99 34 AD 3B 77 F4 BC 64 
93 75 02 A3 9E 4D 1D B6 5C AA 74 6B 7C 5C 0E 5E 56 B5 EA E9 1A 1F 97 FD 97 55 65 E9 AB 00 9B 98 
9A 2D CB 4E 8D 03 80 95 36 D9 D6 0D 6A F9 B1 5D F3 01 9B 78 E6 92 BC A6 70 1F 00 78 F9 AF B8 90 
21 D9 F2 41 20 60 13 6F E9 51 CB A7 D0 94 27 01 C0 9B CB 0F 15 14 A4 45 4E 71 01 6C A6 BC 9E 72 
07 7C 42 D6 5F 91 15 6C FB 20 90 BA 93 B8 78 20 0C 00 16 C5 24 E7 E7 24 89 BB 72 82 17 A6 90 D6 
27 4E BB 4F 65 E4 A6 1D A6 6E 47 8C BA DC 20 57 6C CB B7 19 C5 B2 B4 05 BD 79 D4 25 5B B2 7D 78 
E8 E6 EC 9A D2 D4 69 DD B9 E2 79 51 79 65 AA 6B 67 16 00 40 CC A9 0C 69 E6 F1 20 57 2C 6C 9D C4 
D6 6D 67 AB 6E D5 A9 32 CE C5 F9 72 B1 65 3B 8F 15 14 D7 76 88 EF 16 37 83 57 5C C8 90 AC 9D ED 
0A 58 B8 C2 64 F9 46 B5 FB 54 8A 44 22 49 49 49 8A 08 73 F1 09 89 AD 37 5B 1E 2D 1E BB A2 B5 B5 
D3 4C 14 8A BB 72 8E 5D A9 6C 21 F0 E8 C9 20 2B 51 6C 3B 81 21 A4 AB A8 50 21 44 6C 7A D1 F5 B0 
D3 04 76 A7 C5 70 75 EE 0B 85 8D B6 F4 61 4C BD 23 A5 66 A0 03 3F 4A 4E EF 5F 0C 00 A7 AF D9 79 
44 CD C4 C9 12 89 44 22 39 73 3C 2E C8 15 5B B2 B7 00 21 4B 0F DA 0A EE 90 8E 99 85 A5 73 69 DF 
1A 98 F3 B5 FE D1 2A 52 D7 8B 9D 96 07 23 BA C8 7E 2E 87 AF A8 B2 12 C3 80 13 71 A7 9E 30 E1 84 
56 91 E6 F4 8C 45 B7 63 AA 63 66 D7 9F AE D5 5A 27 B0 7C 87 33 E6 1E 9D 82 71 62 CF 1F 10 7B 05 
24 38 3C BB AF CA DB 68 6B 4C 73 4E 35 53 AE 8C EC E7 F2 E1 DE EB 08 A1 33 6B DC 47 CC 38 4D 22 
E2 5A 7A 52 5A 7E 2D 42 C8 84 AB 4F 6F 1A EE 15 10 5B 6F 9D C0 EC 9F 25 EA D6 06 B5 C9 53 EB 61 
62 C0 26 9E B9 54 52 8F E3 95 A5 B2 7B B5 76 17 1D ED CD 5D 5E 01 D6 C7 68 D6 E7 5D 78 65 52 D3 
55 AC F9 53 A4 EF 11 63 9C 58 4A 16 EA 72 9C 70 B1 96 6A 87 5A 44 A1 1E DC 51 36 F8 84 1C A2 BE 
B0 53 97 C8 D2 7A C5 82 DE BC C8 6F 8A AD 62 6E 05 2C A4 A0 34 15 00 BE 38 28 A9 52 E1 0D CA 8A 
5B 15 B5 D4 59 A6 6E C9 47 08 DF F6 AA F0 BD BD D7 A9 9E 12 47 A6 18 11 61 20 88 EB 3F 2D 71 B8 
C1 65 B4 8A FA E3 84 FD D3 E6 3F E2 BB 6D 15 5D F9 09 AA 0A 15 90 B6 A1 E5 E5 BF BE 4A 4F 3F 0A 
B6 53 9E BA 3F DB FC C3 F5 16 02 8F 0E 39 A7 09 CC AE 8B 1D 4A A9 83 9B 0B 57 A6 BE A0 B5 A5 C3 
95 A1 77 64 F7 0B C4 5D 39 51 3F 5B 86 DB 1A 1F C7 53 67 25 CE 76 18 59 F3 63 32 C8 A6 1E 6C 12 
9C 85 E5 B1 A2 D3 B6 D1 EB 48 D4 C3 D3 92 EB D3 A3 2F B5 7E EE 0E E6 98 01 1E 7C 17 21 DF BD EF 
78 70 DA 22 69 D0 A2 E9 31 96 EB 85 99 50 C6 7F D8 E5 F5 91 F1 5A C4 F3 78 8A D3 60 A8 77 38 F6 
9A 24 75 FC B2 C1 7E CF FD AB AE F8 DB 1A C7 ED 60 EE 00 1E 8F 6A B8 F7 F4 6D D3 F7 7C 94 A2 35 
94 1E DC D9 B0 E8 13 31 17 78 CF 0C 79 FA FC CE F1 18 86 B9 08 BB 4D 5D 79 BD 87 AF AB ED 4E 30 
11 AF 69 77 80 2B D6 26 4F 29 C6 CC DC BF 65 C1 ED 29 21 7E 1E 42 E1 9B 9F 1E AB D1 DB A5 23 37 
10 A0 2A 31 36 52 6F B2 C4 BC A9 1C DF 2E 3D 7C AD 9B 11 5A 3A 05 0F E0 D5 35 23 DD 30 00 00 8C 
E7 F3 FA DF 5D 7F BD 5C 0E 60 02 CE E4 DE 22 4B E1 1B 63 5D 2B EE A9 90 B1 CE 5F EC 67 BB 0F D3 
6C A8 53 E0 E6 00 BF 5E D4 BF 1E BD 06 02 80 A0 B7 38 ED E8 92 2F E6 8A 9F EA 2E 74 EB 39 EB E2 
55 55 63 53 0D D2 84 50 A3 91 30 1B CA 2E E7 98 24 5F BD E6 8A F1 05 7C FE F0 D7 B7 03 B8 DB 7A 
C4 68 15 22 09 1D 89 CC 04 DE 51 BE DB 56 E9 D2 67 08 BD 77 43 D7 18 5C F2 D0 32 2A B4 8A CC BF 
29 BE 58 B5 AF 00 91 00 00 46 82 B4 AB CD EB EA C5 03 9F 7E BD 5B 08 3C 21 C3 F6 A0 D6 19 30 FC 
DF 2D 84 AB 73 5F 00 10 94 B6 F4 FF 8C BD 03 00 3A 12 F5 7F CA 32 DC 04 BD 9C 8D BB 67 3B CB CA 
CE 47 27 44 04 5F 28 6B B2 C3 4E 70 16 96 C7 86 CE FD 1D 98 E5 BA 60 44 08 00 08 E3 3D E0 44 D5 
9B 11 41 10 66 42 9D 97 99 31 C6 D7 31 9B B5 00 2C 17 71 8C E7 FD FC 4B AF 02 2A AD 35 08 5E 10 
4F 4D F9 E2 E3 FC DA A6 C3 8C 35 97 36 1F C1 9F 1F E2 D3 BD 97 2F A0 4B 27 CF C9 6D DA 78 70 60 
E5 A7 3E C1 A1 4F 3F 6A A6 EC A1 13 C2 7D B1 C8 E8 AD DB 93 75 0B 5F 1D D5 0D A0 7A D5 A8 BF FD 
42 CE 2F BE A3 30 22 94 95 28 56 96 37 1D 8C 48 D0 91 88 C3 A7 2E A1 BA CA CA C6 36 7A 0A 00 5A 
15 31 39 F2 77 13 AE BC 9A 7B F6 45 FD D6 79 2B CF 98 EC 0F E8 EE E7 CA B4 8F 12 5A 3D 05 09 50 
2C 91 5B 5B 53 E5 E6 99 FE F9 92 2F 80 0B A0 C2 87 96 8B A1 E2 72 8E C9 A7 5F 77 00 AF 87 2A 0D 
55 E4 22 74 05 00 33 8F 0F 00 AA 5A CB 8C 42 E0 2A 00 20 1B 94 DE 23 16 19 08 BC B2 B4 60 EF 2A 
CE BC B0 F0 9B 5A 3B 7B B8 AE 7C 8E A0 9F BF 88 47 DD 2E 10 04 6A 50 96 48 7E 5B DA A7 4B D3 31 
CD 58 C5 CC 23 FB DE 02 74 83 A2 3E A3 5E 1A ED 62 00 E0 BA F5 FB F7 70 FE 57 1B 4F 35 D8 5C BB 
A5 C9 09 79 46 34 B0 77 B7 16 02 EF D1 B6 F5 7B F4 1A D8 62 B8 3A F6 05 F5 2D 81 EB DA F4 CD 06 
63 EA 1D 0A 33 61 37 DC 9C A1 DD 1F 12 F4 92 2F 17 AB 7E 60 F7 A5 A1 05 C1 59 58 3A 8B 3F 34 81 
DD BB F6 FD DE C3 99 A6 D6 0F 6C 13 83 5F 9E 02 E6 CF 0E 9F 2D 6C 04 F2 F7 A4 2F 83 FE 1E 7C B5 
86 74 38 46 5E 5E 70 AD 50 2A 95 4A 7F FD 7E EB F4 39 3F 8C 78 6B 4A 7F 21 BC 30 FD CB 05 BD 6F 
BE D0 7B D2 0F 19 A5 75 EA 07 B2 AC 23 C1 03 5E 2B 47 EB 3E 9B E3 D7 F5 E9 37 2E EC 0E 5B F5 DF 
67 D6 26 A4 55 29 D5 F7 CA F3 D6 FC E7 A9 B5 BF 1A F7 C6 BF F5 68 DF 91 01 80 EF 39 6A D5 82 2E 
1B 3E DF 37 67 FB 5B 7D F8 80 48 5C 43 A0 D1 2F 8E 7C D6 A7 8F B2 E8 FB 88 0F D3 7A D8 5C 75 B9 
6E BD FE E6 C5 3B 7A FC BC 4A A7 49 3F BA 3E BE 86 E4 B7 CD 53 00 90 9E 18 E3 3F F0 D3 52 AD DB 
F0 91 63 FC FB F3 01 5C 6C 2F 8B 88 80 BA E2 4B F9 25 0A 02 01 58 AF 65 6D 14 F3 D9 A0 7F 57 5C 
9A 73 28 A5 D4 48 6A 7E 3D BA F3 3B 55 A3 4F 5F 11 00 00 3A 1B 7F 30 53 4F EA D2 8F EE 48 AE F7 
0B E8 2D C2 5C DD 33 E2 36 9D 2B 50 E8 35 A5 5B 3F FA C8 2F F4 DD 81 DD 06 CD 08 EF BA 38 34 3A 
BF 42 A7 D7 14 6D 5F F1 91 97 5F 68 17 DD B9 61 C3 7C 8E 5E AC EA 3B 78 E4 C8 61 7E 00 E0 70 05 
2F CC 2F A8 C1 BD C7 BC EB 97 F8 E1 57 39 72 B5 D9 50 B9 77 D9 48 F1 2B 47 0C 36 C7 35 6B 95 13 
7F C4 77 0A 87 2A 00 00 E8 92 F4 B2 54 2A 95 16 E4 65 EE DB 14 BE E2 BC E1 B9 01 1E 00 DE 1F 7F 
73 B8 E4 DC FC E0 B7 E3 0A E5 D5 AA 07 95 3F 1E 58 F0 C2 B4 F8 F9 31 39 63 9E E2 B5 10 78 8C 66 
B7 4A CB E1 EA DC 17 03 44 B4 B6 96 16 30 1E 43 EF F4 16 B5 1A EB EE 75 25 C5 B9 52 A9 54 2A CD 
C9 3A B7 74 EA F8 72 73 F0 F3 83 9B 7E 75 47 0B 6E 24 2B 0F 6D 8B CB AF 70 FE 89 1B 0B 4B 67 D0 
AE 07 8E D4 AE 65 7A DD 22 7D CF 73 B6 8F FB DB 5E 91 5A 72 A0 57 86 AC 0B DA 84 65 F3 3A 00 00 
6C F9 B6 C0 BE 0D C7 35 B0 B7 16 25 DC B1 36 48 EA 4A 76 2C 9D 6C FB D1 DD A6 C5 15 3C FD C4 06 
FA 27 5F 3E C1 E1 17 AE D7 B6 60 5B AB E5 08 A1 AA BC 38 00 B8 78 DB B2 BD 2D FB 3B AB D9 D8 C4 
2F BF 7C 1B B0 F0 32 55 01 ED A0 75 AB 18 F8 04 4F F4 E5 52 0B 2A AD 78 4A 09 42 EA 0A 23 A7 58 
9F 18 61 E1 05 F7 EC 76 D3 3D AC 4E 0D 72 C5 00 02 B2 F2 0F D3 7B E1 A8 DD 74 37 EA 51 6B A7 20 
D2 8E 2E B1 7E 18 70 E8 B7 3B C8 BA BB 81 2E 3C 7E A9 0A 59 36 58 4F A4 D4 F3 F2 5F 51 52 87 10 
42 8D 06 F9 A6 77 2C BF C9 F3 F2 8F 90 DD 27 10 C2 93 B7 CD A2 2B C7 FE 58 86 10 CA B4 AE A0 E4 
9F 59 02 00 7E 13 0F 19 88 8A 6D 1F 04 5A 3D 9A 29 29 D6 B6 6A 95 7D A8 74 80 EF EA 9B 47 9C AB 
D0 BB 8A AC B6 D9 6D D5 BB 57 78 D6 E6 C7 5E 01 DB BF CD A1 3F 6A 31 F0 10 25 20 B5 25 9D B1 8B 
11 03 CD 86 2B 63 5F D0 DA 56 15 5A C2 D5 B9 77 9A 19 6E B6 46 DA AD 81 D1 9B 33 E9 1E A4 05 97 
DD 2F 99 E4 C1 69 C6 72 16 96 BF 9A C7 2E 1F 18 22 0D 0D 38 E1 22 14 B9 B6 FF E7 FF 84 41 F7 D0 
D0 E8 FC 1A 05 00 A0 5E B5 80 71 05 22 C7 F7 77 74 0C 66 63 83 16 47 F4 2B 0C 1C 40 A4 A1 BE 81 
70 F8 B4 8D 9E E2 0D 06 8C 07 02 01 A3 D9 A4 91 04 57 5E B3 F5 5B 3E 05 65 73 17 4F 11 35 49 2A 
6F EC EF 19 78 56 AE 49 EE C7 D1 81 9B A5 F0 E2 DE 7F C4 9B 62 8E 2F F2 37 18 48 07 1B F0 06 1D 
89 F8 B6 7A 12 06 DD 43 03 08 DD 18 4E 47 92 06 00 01 65 29 DE A0 33 21 70 13 31 6B E5 60 55 F3 
FC 21 DF 1F 01 BC 41 63 24 B9 8C 5D DC 62 E0 3D 1A 0C E1 DA 5C 5F D8 6A 6B 63 AD 63 EF FC 71 93 
5A 16 9C 85 E5 AF E7 B1 0B 47 8C F7 E8 73 0C 5F 20 F2 6C B6 2A CF DD D3 F3 51 8D 6A 1D 8E AB 9B 
A7 6B B3 9F 62 BC A6 77 08 D9 16 B6 C5 53 A1 5B 0B C7 F0 5A BE 62 B6 7C 0A 07 9B 11 A1 05 24 37 
02 B8 B8 35 3D B8 33 1B 0A 34 5A 3D 00 4F 20 70 3C 93 D0 CD F1 F9 5E 0B FA F3 78 4D 1F 08 DD 44 
8E DB 49 9B B7 AA 79 FE 90 EF 8F 80 D0 CD B3 39 B3 5B 0C BC 47 83 21 5C 9B EB 0B 5B 6D 69 9C 7B 
E7 8F 9B D4 71 D3 33 0B 4B C7 F0 D8 DD 81 B1 74 16 8D 0D E5 97 F2 EA C7 8C 1B 69 BB 3A 58 7D 33 
AB D2 34 78 74 60 8F CE B3 8B C5 02 DB 17 2C 2C 0E B0 13 18 0B 0B 0B 0B CB 13 09 9B 4E 85 85 85 
85 85 E5 89 84 9D C0 58 58 58 58 58 9E 48 D8 09 8C 85 85 85 85 E5 89 84 9D C0 58 58 58 58 58 9E 
48 D8 09 8C 85 85 85 85 E5 89 84 9D C0 58 58 58 58 58 9E 48 D8 09 8C 85 85 85 85 E5 89 E4 FF 00 
BD 71 24 61 40 92 BA 63 00 00 00 00 49 45 4E 44 AE 42 60 82 
EndData
$EndBitmap
$Sheet
S 6150 1800 1500 4250
U 5861537A
F0 "Processor" 60
F1 "processor.sch" 60
F2 "AIN_TEMP_C" I L 6150 4250 60 
F3 "AIN_TEMP_B" I L 6150 4150 60 
F4 "AIN_TEMP_A" I L 6150 4050 60 
F5 "DFSDM_DATA_A" I L 6150 2100 60 
F6 "HIGHSIDE_PWM_A" O L 6150 2750 60 
F7 "HIGHSIDE_PWM_B" O L 6150 3000 60 
F8 "HIGHSIDE_PWM_C" O L 6150 3250 60 
F9 "LOWSIDE_PWM_C" O L 6150 3350 60 
F10 "LOWSIDE_PWM_B" O L 6150 3100 60 
F11 "LOWSIDE_PWM_A" O L 6150 2850 60 
F12 "DFSDM_DATA_B" I L 6150 2200 60 
F13 "DFSDM_CLK" O L 6150 2000 60 
F14 "DFSDM_DATA_C" I L 6150 2300 60 
F15 "USART1_TX" O R 7650 2300 60 
F16 "USART1_RX" I R 7650 2400 60 
F17 "CAN_RX" I R 7650 5650 60 
F18 "CAN_TX" O R 7650 5550 60 
F19 "AIN_VDC" I L 6150 3950 60 
F20 "AIN1" I L 6150 5200 60 
F21 "AIN2" I L 6150 5750 60 
F22 "BRAKE_PWM" O L 6150 3450 60 
F23 "BOOT0" I R 7650 3350 60 
F24 "ADR0" I R 7650 3050 60 
F25 "ADR1" I R 7650 3150 60 
F26 "ADR2" I R 7650 3250 60 
F27 "G_EN" I L 6150 2500 60 
$EndSheet
Wire Wire Line
	2000 5750 3250 5750
Wire Wire Line
	2000 5200 3250 5200
Wire Wire Line
	2000 2500 6150 2500
$Comp
L R R102
U 1 1 58F906C6
P 8850 3050
F 0 "R102" V 8800 3250 50  0000 C CNN
F 1 "DNP" V 8850 3050 50  0000 C CNN
F 2 "Resistors_SMD:R_0603" V 8780 3050 50  0001 C CNN
F 3 "" H 8850 3050 50  0001 C CNN
	1    8850 3050
	0    1    1    0   
$EndComp
$Comp
L R R103
U 1 1 58F90FED
P 8850 3150
F 0 "R103" V 8800 3350 50  0000 C CNN
F 1 "DNP" V 8850 3150 50  0000 C CNN
F 2 "Resistors_SMD:R_0603" V 8780 3150 50  0001 C CNN
F 3 "" H 8850 3150 50  0001 C CNN
	1    8850 3150
	0    1    1    0   
$EndComp
$Comp
L R R104
U 1 1 58F9117A
P 8850 3250
F 0 "R104" V 8800 3450 50  0000 C CNN
F 1 "DNP" V 8850 3250 50  0000 C CNN
F 2 "Resistors_SMD:R_0603" V 8780 3250 50  0001 C CNN
F 3 "" H 8850 3250 50  0001 C CNN
	1    8850 3250
	0    1    1    0   
$EndComp
$Comp
L R R105
U 1 1 58F91306
P 8850 3350
F 0 "R105" V 8800 3550 50  0000 C CNN
F 1 "DNP" V 8850 3350 50  0000 C CNN
F 2 "Resistors_SMD:R_0603" V 8780 3350 50  0001 C CNN
F 3 "" H 8850 3350 50  0001 C CNN
	1    8850 3350
	0    1    1    0   
$EndComp
$EndSCHEMATC
