EESchema Schematic File Version 2
LIBS:control_board-rescue
LIBS:power
LIBS:device
LIBS:transistors
LIBS:conn
LIBS:linear
LIBS:regul
LIBS:74xx
LIBS:cmos4000
LIBS:adc-dac
LIBS:memory
LIBS:xilinx
LIBS:microcontrollers
LIBS:dsp
LIBS:microchip
LIBS:analog_switches
LIBS:motorola
LIBS:texas
LIBS:intel
LIBS:audio
LIBS:interface
LIBS:digital-audio
LIBS:philips
LIBS:display
LIBS:cypress
LIBS:siliconi
LIBS:opto
LIBS:atmel
LIBS:contrib
LIBS:valves
LIBS:stm32
LIBS:switches
LIBS:ThunderDrive
LIBS:ftdi
LIBS:control_board-cache
EELAYER 25 0
EELAYER END
$Descr A4 11693 8268
encoding utf-8
Sheet 4 7
Title "Isolated Hott and PPM interface to 3 Pin RC connectors"
Date "2017-03-06"
Rev "1"
Comp "ThunderDrive"
Comment1 ""
Comment2 ""
Comment3 ""
Comment4 ""
$EndDescr
$Comp
L GND #PWR402
U 1 1 58BE9201
P 2750 4450
F 0 "#PWR402" H 2750 4200 50  0001 C CNN
F 1 "GND" H 2750 4300 50  0000 C CNN
F 2 "" H 2750 4450 50  0000 C CNN
F 3 "" H 2750 4450 50  0000 C CNN
	1    2750 4450
	1    0    0    -1  
$EndComp
$Comp
L +3.3V #PWR401
U 1 1 58BE9A1C
P 2450 2300
F 0 "#PWR401" H 2450 2150 50  0001 C CNN
F 1 "+3.3V" H 2450 2440 50  0000 C CNN
F 2 "" H 2450 2300 50  0000 C CNN
F 3 "" H 2450 2300 50  0000 C CNN
	1    2450 2300
	1    0    0    -1  
$EndComp
Text HLabel 2250 4100 0    60   Output ~ 0
HOTT_TXD
Text HLabel 2250 4200 0    60   Input ~ 0
HOTT_RXD
Text HLabel 2250 3600 0    60   Output ~ 0
PPM_OUT1
$Comp
L CONN_01X03 J405
U 1 1 58D772AC
P 6300 5450
F 0 "J405" H 6300 5650 50  0000 C CNN
F 1 "HOTT" V 6400 5450 50  0000 C CNN
F 2 "ThunderDrive:3Pin-SMD" H 6300 5450 50  0001 C CNN
F 3 "" H 6300 5450 50  0001 C CNN
	1    6300 5450
	1    0    0    -1  
$EndComp
Text HLabel 2250 3700 0    60   Output ~ 0
PPM_OUT2
$Comp
L CONN_01X03 J403
U 1 1 58D79DA8
P 6300 4600
F 0 "J403" H 6300 4800 50  0000 C CNN
F 1 "PPM_IN1" V 6400 4600 50  0000 C CNN
F 2 "ThunderDrive:3Pin-SMD" H 6300 4600 50  0001 C CNN
F 3 "" H 6300 4600 50  0001 C CNN
	1    6300 4600
	1    0    0    -1  
$EndComp
$Comp
L CONN_01X03 J404
U 1 1 58D7A25F
P 6300 5050
F 0 "J404" H 6300 5250 50  0000 C CNN
F 1 "PPM_IN2" V 6400 5050 50  0000 C CNN
F 2 "ThunderDrive:3Pin-SMD" H 6300 5050 50  0001 C CNN
F 3 "" H 6300 5050 50  0001 C CNN
	1    6300 5050
	1    0    0    -1  
$EndComp
Text HLabel 2250 3800 0    60   Output ~ 0
PPM_IN1
Text HLabel 2250 3900 0    60   Output ~ 0
PPM_IN2
$Comp
L CONN_01X03 J401
U 1 1 58D8008D
P 6300 3700
F 0 "J401" H 6300 3900 50  0000 C CNN
F 1 "PPM_OUT1" V 6400 3700 50  0000 C CNN
F 2 "ThunderDrive:3Pin-SMD" H 6300 3700 50  0001 C CNN
F 3 "" H 6300 3700 50  0001 C CNN
	1    6300 3700
	1    0    0    -1  
$EndComp
$Comp
L CONN_01X03 J402
U 1 1 58D813DF
P 6300 4150
F 0 "J402" H 6300 4350 50  0000 C CNN
F 1 "PPM_OUT2" V 6400 4150 50  0000 C CNN
F 2 "ThunderDrive:3Pin-SMD" H 6300 4150 50  0001 C CNN
F 3 "" H 6300 4150 50  0001 C CNN
	1    6300 4150
	1    0    0    -1  
$EndComp
$Comp
L ADuM7643ARZ U402
U 1 1 58D70D0D
P 3300 3850
F 0 "U402" H 2950 4450 50  0000 L CNN
F 1 "ADuM7643ARZ" H 3300 4450 50  0000 L CNN
F 2 "ThunderDrive:QSOP-20" H 3500 3450 50  0001 C CIN
F 3 "" H 3300 3650 50  0001 C CNN
	1    3300 3850
	1    0    0    -1  
$EndComp
Wire Wire Line
	2850 3600 2250 3600
Wire Wire Line
	2850 3700 2250 3700
Wire Wire Line
	2250 3800 2850 3800
Wire Wire Line
	2850 3900 2250 3900
Wire Wire Line
	2250 4100 2850 4100
Wire Wire Line
	2250 4200 2850 4200
$Comp
L C C401
U 1 1 58D720A7
P 2750 2750
F 0 "C401" H 2775 2850 50  0000 L CNN
F 1 "100n" H 2775 2650 50  0000 L CNN
F 2 "Capacitors_SMD:C_0603_HandSoldering" H 2788 2600 50  0001 C CNN
F 3 "" H 2750 2750 50  0001 C CNN
	1    2750 2750
	1    0    0    -1  
$EndComp
$Comp
L C C402
U 1 1 58D72395
P 3050 2750
F 0 "C402" H 3075 2850 50  0000 L CNN
F 1 "100n" H 3075 2650 50  0000 L CNN
F 2 "Capacitors_SMD:C_0603_HandSoldering" H 3088 2600 50  0001 C CNN
F 3 "" H 3050 2750 50  0001 C CNN
	1    3050 2750
	1    0    0    -1  
$EndComp
Wire Wire Line
	2750 4300 2850 4300
Wire Wire Line
	2750 2900 2750 4450
Wire Wire Line
	2450 4000 2850 4000
Wire Wire Line
	2450 2300 2450 4000
Wire Wire Line
	2850 3400 2450 3400
Connection ~ 2450 3400
Wire Wire Line
	2850 3500 2750 3500
Connection ~ 2750 4300
Wire Wire Line
	2750 3050 3050 3050
Wire Wire Line
	3050 3050 3050 2900
Connection ~ 2750 3500
Connection ~ 2750 3050
Wire Wire Line
	2750 2600 2750 2500
Wire Wire Line
	2450 2500 3050 2500
Connection ~ 2450 2500
Wire Wire Line
	3050 2500 3050 2600
Connection ~ 2750 2500
$Comp
L C C403
U 1 1 58D72D50
P 3750 2750
F 0 "C403" H 3775 2850 50  0000 L CNN
F 1 "100n" H 3775 2650 50  0000 L CNN
F 2 "Capacitors_SMD:C_0603_HandSoldering" H 3788 2600 50  0001 C CNN
F 3 "" H 3750 2750 50  0001 C CNN
	1    3750 2750
	1    0    0    -1  
$EndComp
$Comp
L C C404
U 1 1 58D72D83
P 4050 2750
F 0 "C404" H 4075 2850 50  0000 L CNN
F 1 "100n" H 4075 2650 50  0000 L CNN
F 2 "Capacitors_SMD:C_0603_HandSoldering" H 4088 2600 50  0001 C CNN
F 3 "" H 4050 2750 50  0001 C CNN
	1    4050 2750
	1    0    0    -1  
$EndComp
Wire Wire Line
	6000 4300 3750 4300
Wire Wire Line
	4050 2900 4050 4400
Wire Wire Line
	3750 3050 3750 2900
Connection ~ 4050 3050
Wire Wire Line
	3750 2600 3750 2500
Wire Wire Line
	4050 2500 4050 2600
Wire Wire Line
	3750 3500 4050 3500
Connection ~ 4050 3500
Wire Wire Line
	4400 4000 3750 4000
Wire Wire Line
	4400 2300 4400 4000
Connection ~ 4050 2500
Wire Wire Line
	3750 3400 4400 3400
Connection ~ 4400 3400
Wire Wire Line
	6100 4050 5300 4050
Wire Wire Line
	5300 4050 5300 3700
Wire Wire Line
	5800 4150 6100 4150
Wire Wire Line
	5800 2500 5800 5450
Wire Wire Line
	5800 3700 6100 3700
Connection ~ 4400 2500
Connection ~ 5800 3700
Wire Wire Line
	6100 4500 5200 4500
Wire Wire Line
	5200 4500 5200 3800
Wire Wire Line
	6100 4950 5100 4950
Wire Wire Line
	5100 4950 5100 3900
$Comp
L R R402
U 1 1 58D75DAA
P 4650 3700
F 0 "R402" V 4600 3900 50  0000 C CNN
F 1 "1k" V 4650 3700 50  0000 C CNN
F 2 "Resistors_SMD:R_0603_HandSoldering" V 4580 3700 50  0001 C CNN
F 3 "" H 4650 3700 50  0001 C CNN
	1    4650 3700
	0    1    1    0   
$EndComp
Wire Wire Line
	5300 3700 4800 3700
Wire Wire Line
	4500 3700 3750 3700
$Comp
L R R403
U 1 1 58D75F91
P 4650 3800
F 0 "R403" V 4600 4000 50  0000 C CNN
F 1 "1k" V 4650 3800 50  0000 C CNN
F 2 "Resistors_SMD:R_0603_HandSoldering" V 4580 3800 50  0001 C CNN
F 3 "" H 4650 3800 50  0001 C CNN
	1    4650 3800
	0    1    1    0   
$EndComp
Wire Wire Line
	4500 3800 3750 3800
Wire Wire Line
	5200 3800 4800 3800
$Comp
L R R404
U 1 1 58D7605E
P 4650 3900
F 0 "R404" V 4600 4100 50  0000 C CNN
F 1 "1k" V 4650 3900 50  0000 C CNN
F 2 "Resistors_SMD:R_0603_HandSoldering" V 4580 3900 50  0001 C CNN
F 3 "" H 4650 3900 50  0001 C CNN
	1    4650 3900
	0    1    1    0   
$EndComp
Wire Wire Line
	4500 3900 3750 3900
Wire Wire Line
	5100 3900 4800 3900
$Comp
L R R401
U 1 1 58D76147
P 4650 3600
F 0 "R401" V 4600 3800 50  0000 C CNN
F 1 "1k" V 4650 3600 50  0000 C CNN
F 2 "Resistors_SMD:R_0603_HandSoldering" V 4580 3600 50  0001 C CNN
F 3 "" H 4650 3600 50  0001 C CNN
	1    4650 3600
	0    1    1    0   
$EndComp
Wire Wire Line
	4800 3600 6100 3600
Wire Wire Line
	4500 3600 3750 3600
Wire Wire Line
	6000 3800 6000 5550
Wire Wire Line
	6000 3800 6100 3800
Connection ~ 4050 4300
Wire Wire Line
	6100 4250 6000 4250
Connection ~ 6000 4250
Wire Wire Line
	6000 4700 6100 4700
Connection ~ 6000 4300
Wire Wire Line
	6000 5150 6100 5150
Connection ~ 6000 4700
Wire Wire Line
	5800 4600 6100 4600
Connection ~ 5800 4150
Wire Wire Line
	5800 5050 6100 5050
Connection ~ 5800 4600
$Comp
L PWR_FLAG #FLG401
U 1 1 58D76E01
P 4400 2300
F 0 "#FLG401" H 4400 2375 50  0001 C CNN
F 1 "PWR_FLAG" H 4400 2450 50  0000 C CNN
F 2 "" H 4400 2300 50  0001 C CNN
F 3 "" H 4400 2300 50  0001 C CNN
	1    4400 2300
	1    0    0    -1  
$EndComp
$Comp
L PWR_FLAG #FLG402
U 1 1 58D77020
P 4050 4400
F 0 "#FLG402" H 4050 4475 50  0001 C CNN
F 1 "PWR_FLAG" H 4050 4550 50  0000 C CNN
F 2 "" H 4050 4400 50  0001 C CNN
F 3 "" H 4050 4400 50  0001 C CNN
	1    4050 4400
	-1   0    0    1   
$EndComp
$Comp
L R R406
U 1 1 58D77768
P 4650 4200
F 0 "R406" V 4600 4400 50  0000 C CNN
F 1 "1k" V 4650 4200 50  0000 C CNN
F 2 "Resistors_SMD:R_0603_HandSoldering" V 4580 4200 50  0001 C CNN
F 3 "" H 4650 4200 50  0001 C CNN
	1    4650 4200
	0    1    1    0   
$EndComp
Wire Wire Line
	4500 4200 3750 4200
$Comp
L R R405
U 1 1 58D7797C
P 4650 4100
F 0 "R405" V 4600 4300 50  0000 C CNN
F 1 "1k" V 4650 4100 50  0000 C CNN
F 2 "Resistors_SMD:R_0603_HandSoldering" V 4580 4100 50  0001 C CNN
F 3 "" H 4650 4100 50  0001 C CNN
	1    4650 4100
	0    1    1    0   
$EndComp
Wire Wire Line
	4500 4100 3750 4100
Wire Wire Line
	5000 5350 6100 5350
Wire Wire Line
	5000 4100 5000 5350
Wire Wire Line
	5000 4100 4800 4100
Wire Wire Line
	4800 4200 5000 4200
Connection ~ 5000 4200
Wire Wire Line
	5800 5450 6100 5450
Connection ~ 5800 5050
Wire Wire Line
	6000 5550 6100 5550
Connection ~ 6000 5150
Wire Wire Line
	3750 3050 5650 3050
$Comp
L TPS71550DCKR U401
U 1 1 58D8581E
P 5100 2600
F 0 "U401" H 4800 2950 50  0000 L CNN
F 1 "TPS71550DCKR" H 4800 2850 50  0000 L CNN
F 2 "TO_SOT_Packages_SMD:SC-70-5" H 5150 2450 50  0001 L CNN
F 3 "" H 4800 3400 50  0001 C CNN
	1    5100 2600
	-1   0    0    -1  
$EndComp
Wire Wire Line
	3750 2500 4700 2500
Wire Wire Line
	5500 2500 5800 2500
Wire Wire Line
	5100 3050 5100 2800
$Comp
L C C406
U 1 1 58D86489
P 4600 2800
F 0 "C406" H 4625 2900 50  0000 L CNN
F 1 "100n" H 4625 2700 50  0000 L CNN
F 2 "Capacitors_SMD:C_0603_HandSoldering" H 4638 2650 50  0001 C CNN
F 3 "" H 4600 2800 50  0001 C CNN
	1    4600 2800
	1    0    0    -1  
$EndComp
Wire Wire Line
	4600 2650 4600 2500
Connection ~ 4600 2500
Wire Wire Line
	4600 2950 4600 3050
Connection ~ 4600 3050
$Comp
L C C405
U 1 1 58D865CD
P 5650 2750
F 0 "C405" H 5675 2850 50  0000 L CNN
F 1 "470n" V 5700 2500 50  0000 L CNN
F 2 "Capacitors_SMD:C_0603_HandSoldering" H 5688 2600 50  0001 C CNN
F 3 "" H 5650 2750 50  0001 C CNN
	1    5650 2750
	1    0    0    -1  
$EndComp
Wire Wire Line
	5650 3050 5650 2900
Connection ~ 5100 3050
Wire Wire Line
	5650 2600 5650 2500
Connection ~ 5650 2500
$EndSCHEMATC
