EESchema Schematic File Version 2
LIBS:control_board-rescue
LIBS:power
LIBS:device
LIBS:transistors
LIBS:conn
LIBS:linear
LIBS:regul
LIBS:74xx
LIBS:cmos4000
LIBS:adc-dac
LIBS:memory
LIBS:xilinx
LIBS:microcontrollers
LIBS:dsp
LIBS:microchip
LIBS:analog_switches
LIBS:motorola
LIBS:texas
LIBS:intel
LIBS:audio
LIBS:interface
LIBS:digital-audio
LIBS:philips
LIBS:display
LIBS:cypress
LIBS:siliconi
LIBS:opto
LIBS:atmel
LIBS:contrib
LIBS:valves
LIBS:stm32
LIBS:switches
LIBS:ThunderDrive
LIBS:ftdi
LIBS:control_board-cache
EELAYER 25 0
EELAYER END
$Descr A4 11693 8268
encoding utf-8
Sheet 2 6
Title "Isolated USB interface"
Date "2017-03-05"
Rev "1"
Comp "ThunderDrive"
Comment1 "Galvanic isolation of USB signals with ADUM4xxx is problematic"
Comment2 "Isolation of UARTs is far more relieable easier to achieve."
Comment3 ""
Comment4 ""
$EndDescr
$Comp
L FT230XS U302
U 1 1 58C5AED3
P 6300 4100
F 0 "U302" H 5750 4700 50  0000 L CNN
F 1 "FT230XS" H 6600 4700 50  0000 L CNN
F 2 "Housings_SSOP:SSOP-16_3.9x4.9mm_Pitch0.635mm" H 6300 4100 50  0001 C CNN
F 3 "" H 6300 4100 50  0000 C CNN
	1    6300 4100
	-1   0    0    -1  
$EndComp
$Comp
L C C308
U 1 1 58BDD497
P 9250 4750
F 0 "C308" H 9275 4850 50  0000 L CNN
F 1 "10n" H 9275 4650 50  0000 L CNN
F 2 "Capacitors_SMD:C_0603_HandSoldering" H 9288 4600 50  0001 C CNN
F 3 "" H 9250 4750 50  0000 C CNN
	1    9250 4750
	1    0    0    -1  
$EndComp
Wire Wire Line
	9250 5100 9250 4900
Wire Wire Line
	9900 5100 9900 4400
Wire Wire Line
	9250 3050 9250 4600
$Comp
L C C307
U 1 1 58BDD671
P 8950 4750
F 0 "C307" H 8975 4850 50  0000 L CNN
F 1 "47p" H 8975 4650 50  0000 L CNN
F 2 "Capacitors_SMD:C_0603_HandSoldering" H 8988 4600 50  0001 C CNN
F 3 "" H 8950 4750 50  0000 C CNN
	1    8950 4750
	1    0    0    -1  
$EndComp
$Comp
L C C306
U 1 1 58BDD6AF
P 8700 4750
F 0 "C306" H 8725 4850 50  0000 L CNN
F 1 "47p" H 8725 4650 50  0000 L CNN
F 2 "Capacitors_SMD:C_0603_HandSoldering" H 8738 4600 50  0001 C CNN
F 3 "" H 8700 4750 50  0000 C CNN
	1    8700 4750
	1    0    0    -1  
$EndComp
Wire Wire Line
	8950 5100 8950 4900
Connection ~ 9250 5100
Wire Wire Line
	8700 5100 8700 4900
Connection ~ 8950 5100
Wire Wire Line
	8950 4100 8950 4600
Wire Wire Line
	8700 4000 8700 4600
$Comp
L R R303
U 1 1 58BDDA47
P 8400 4000
F 0 "R303" V 8300 4000 50  0000 C CNN
F 1 "27R" V 8400 4000 50  0000 C CNN
F 2 "Resistors_SMD:R_0603_HandSoldering" V 8330 4000 50  0001 C CNN
F 3 "" H 8400 4000 50  0000 C CNN
	1    8400 4000
	0    1    1    0   
$EndComp
$Comp
L R R304
U 1 1 58BDDA86
P 8400 4100
F 0 "R304" V 8480 4100 50  0000 C CNN
F 1 "27R" V 8400 4100 50  0000 C CNN
F 2 "Resistors_SMD:R_0603_HandSoldering" V 8330 4100 50  0001 C CNN
F 3 "" H 8400 4100 50  0000 C CNN
	1    8400 4100
	0    1    1    0   
$EndComp
Connection ~ 8700 4000
Connection ~ 8950 4100
$Comp
L Ferrite_Bead_Small L301
U 1 1 58BDDC42
P 8800 3150
F 0 "L301" H 8875 3200 50  0000 L CNN
F 1 "1k 10MHz" V 8650 2900 50  0000 L CNN
F 2 "Inductors_SMD:L_0603_HandSoldering" V 8730 3150 50  0001 C CNN
F 3 "" H 8800 3150 50  0000 C CNN
	1    8800 3150
	0    1    1    0   
$EndComp
Wire Wire Line
	8900 3150 9250 3150
Wire Wire Line
	8250 4000 7000 4000
Wire Wire Line
	8250 4100 7000 4100
Wire Wire Line
	6400 5100 6400 4800
Connection ~ 8700 5100
Wire Wire Line
	6200 5100 6200 4800
Connection ~ 6400 5100
$Comp
L C C305
U 1 1 58BDE8ED
P 7850 4600
F 0 "C305" H 7875 4700 50  0000 L CNN
F 1 "4µ7" H 7875 4500 50  0000 L CNN
F 2 "Capacitors_SMD:C_0603_HandSoldering" H 7888 4450 50  0001 C CNN
F 3 "" H 7850 4600 50  0000 C CNN
	1    7850 4600
	1    0    0    -1  
$EndComp
$Comp
L C C304
U 1 1 58BDEA0E
P 7550 4600
F 0 "C304" H 7575 4700 50  0000 L CNN
F 1 "100n" H 7575 4500 50  0000 L CNN
F 2 "Capacitors_SMD:C_0603_HandSoldering" H 7588 4450 50  0001 C CNN
F 3 "" H 7550 4600 50  0000 C CNN
	1    7550 4600
	1    0    0    -1  
$EndComp
Wire Wire Line
	7550 4750 7550 5200
Connection ~ 7550 5100
Wire Wire Line
	7850 5100 7850 4750
Connection ~ 7850 5100
Wire Wire Line
	7850 3150 7850 4450
Wire Wire Line
	6400 3150 8700 3150
Wire Wire Line
	7550 3000 7550 4450
Connection ~ 7850 3150
Wire Wire Line
	6400 3150 6400 3400
Connection ~ 7550 3150
$Comp
L C C303
U 1 1 58BDF006
P 7250 4600
F 0 "C303" H 7275 4700 50  0000 L CNN
F 1 "100n" H 7275 4500 50  0000 L CNN
F 2 "Capacitors_SMD:C_0603_HandSoldering" H 7288 4450 50  0001 C CNN
F 3 "" H 7250 4600 50  0000 C CNN
	1    7250 4600
	1    0    0    -1  
$EndComp
Wire Wire Line
	7250 3250 7250 4450
Wire Wire Line
	7250 3700 7000 3700
Wire Wire Line
	6200 2450 6200 3400
Wire Wire Line
	6200 3250 7250 3250
Connection ~ 7250 3700
Wire Wire Line
	7000 4300 7250 4300
Connection ~ 7250 4300
Wire Wire Line
	7250 5100 7250 4750
Connection ~ 7250 5100
$Comp
L R R302
U 1 1 58BDF3F4
P 5400 2800
F 0 "R302" V 5300 2800 50  0000 C CNN
F 1 "270R" V 5400 2800 50  0000 C CNN
F 2 "Resistors_SMD:R_0603_HandSoldering" V 5330 2800 50  0001 C CNN
F 3 "" H 5400 2800 50  0000 C CNN
	1    5400 2800
	-1   0    0    1   
$EndComp
$Comp
L R R301
U 1 1 58BDF5AE
P 5100 2800
F 0 "R301" V 5000 2800 50  0000 C CNN
F 1 "270R" V 5100 2800 50  0000 C CNN
F 2 "Resistors_SMD:R_0603_HandSoldering" V 5030 2800 50  0001 C CNN
F 3 "" H 5100 2800 50  0000 C CNN
	1    5100 2800
	-1   0    0    1   
$EndComp
$Comp
L LED D301
U 1 1 58BDF616
P 5100 3200
F 0 "D301" H 5100 3300 50  0000 C CNN
F 1 "RX" H 5100 3100 50  0000 C CNN
F 2 "Resistors_SMD:R_0603_HandSoldering" H 5100 3200 50  0001 C CNN
F 3 "" H 5100 3200 50  0000 C CNN
	1    5100 3200
	0    -1   -1   0   
$EndComp
$Comp
L LED D302
U 1 1 58BDF6B5
P 5400 3200
F 0 "D302" H 5400 3300 50  0000 C CNN
F 1 "TX" H 5400 3100 50  0000 C CNN
F 2 "Resistors_SMD:R_0603_HandSoldering" H 5400 3200 50  0001 C CNN
F 3 "" H 5400 3200 50  0000 C CNN
	1    5400 3200
	0    -1   -1   0   
$EndComp
Wire Wire Line
	5600 4300 5400 4300
Wire Wire Line
	5400 4300 5400 3350
Wire Wire Line
	5600 4400 5100 4400
Wire Wire Line
	5100 4400 5100 3350
Wire Wire Line
	5400 2950 5400 3050
Wire Wire Line
	5100 2950 5100 3050
Wire Wire Line
	4700 2450 6200 2450
Wire Wire Line
	5100 2450 5100 2650
Connection ~ 6200 3250
Wire Wire Line
	5400 2650 5400 2450
Connection ~ 5400 2450
NoConn ~ 5600 3900
NoConn ~ 5600 4000
Connection ~ 6200 5100
$Comp
L C C302
U 1 1 58BDFDAF
P 4700 4100
F 0 "C302" H 4725 4200 50  0000 L CNN
F 1 "100n" H 4725 4000 50  0000 L CNN
F 2 "Capacitors_SMD:C_0603_HandSoldering" H 4738 3950 50  0001 C CNN
F 3 "" H 4700 4100 50  0000 C CNN
	1    4700 4100
	1    0    0    -1  
$EndComp
$Comp
L C C301
U 1 1 58BE0A67
P 2600 4000
F 0 "C301" H 2625 4100 50  0000 L CNN
F 1 "100n" H 2625 3900 50  0000 L CNN
F 2 "Capacitors_SMD:C_0603_HandSoldering" H 2638 3850 50  0001 C CNN
F 3 "" H 2600 4000 50  0000 C CNN
	1    2600 4000
	1    0    0    -1  
$EndComp
$Comp
L GND #PWR03
U 1 1 58BE0E73
P 2600 4500
F 0 "#PWR03" H 2600 4250 50  0001 C CNN
F 1 "GND" H 2600 4350 50  0000 C CNN
F 2 "" H 2600 4500 50  0000 C CNN
F 3 "" H 2600 4500 50  0000 C CNN
	1    2600 4500
	1    0    0    -1  
$EndComp
$Comp
L +3.3V #PWR04
U 1 1 58BE0F12
P 2600 3250
F 0 "#PWR04" H 2600 3100 50  0001 C CNN
F 1 "+3.3V" H 2600 3390 50  0000 C CNN
F 2 "" H 2600 3250 50  0000 C CNN
F 3 "" H 2600 3250 50  0000 C CNN
	1    2600 3250
	1    0    0    -1  
$EndComp
Text HLabel 2200 3800 0    60   Input ~ 0
USB_RXD
Wire Wire Line
	4700 2450 4700 3950
Connection ~ 5100 2450
Wire Wire Line
	4700 4250 4700 5100
Wire Wire Line
	4150 3800 5600 3800
Wire Wire Line
	4150 3700 5600 3700
Wire Wire Line
	2600 4150 2600 4500
Wire Wire Line
	2600 3250 2600 3850
Text HLabel 2200 3700 0    60   Output ~ 0
USB_TXD
$Comp
L PWR_FLAG #FLG05
U 1 1 58C037C0
P 7550 3000
F 0 "#FLG05" H 7550 3095 50  0001 C CNN
F 1 "PWR_FLAG" H 7550 3180 50  0000 C CNN
F 2 "" H 7550 3000 50  0000 C CNN
F 3 "" H 7550 3000 50  0000 C CNN
	1    7550 3000
	1    0    0    -1  
$EndComp
$Comp
L PWR_FLAG #FLG06
U 1 1 58C03E2E
P 7550 5200
F 0 "#FLG06" H 7550 5295 50  0001 C CNN
F 1 "PWR_FLAG" H 7550 5380 50  0000 C CNN
F 2 "" H 7550 5200 50  0000 C CNN
F 3 "" H 7550 5200 50  0000 C CNN
	1    7550 5200
	-1   0    0    1   
$EndComp
$Comp
L PWR_FLAG #FLG07
U 1 1 58C03EE5
P 9250 3050
F 0 "#FLG07" H 9250 3145 50  0001 C CNN
F 1 "PWR_FLAG" H 9250 3230 50  0000 C CNN
F 2 "" H 9250 3050 50  0000 C CNN
F 3 "" H 9250 3050 50  0000 C CNN
	1    9250 3050
	1    0    0    -1  
$EndComp
Connection ~ 9250 3150
NoConn ~ 5600 4200
NoConn ~ 5600 4500
NoConn ~ 9500 4200
$Comp
L ISO7321C U301
U 1 1 58D6A6F3
P 3750 3600
F 0 "U301" H 3750 4025 50  0000 C CNN
F 1 "ISO7321C" H 3750 3950 50  0000 C CNN
F 2 "Housings_SOIC:SOIC-8_3.9x4.9mm_Pitch1.27mm" H 3750 3250 50  0001 C CIN
F 3 "" H 3750 3600 50  0001 C CNN
	1    3750 3600
	1    0    0    -1  
$EndComp
Wire Wire Line
	2200 3800 3350 3800
Wire Wire Line
	2200 3700 3350 3700
Wire Wire Line
	3350 3400 2600 3400
Connection ~ 2600 3400
Wire Wire Line
	3350 3500 3000 3500
Wire Wire Line
	3000 3500 3000 4350
Wire Wire Line
	3000 4350 2600 4350
Connection ~ 2600 4350
Wire Wire Line
	4700 5100 9900 5100
Wire Wire Line
	4700 4450 4350 4450
Wire Wire Line
	4350 4450 4350 3500
Wire Wire Line
	4350 3500 4150 3500
Connection ~ 4700 4450
Wire Wire Line
	4150 3400 4700 3400
Connection ~ 4700 3400
$Comp
L USB_OTG J301
U 1 1 58D6E6AD
P 9800 4000
F 0 "J301" H 9600 4450 50  0000 L CNN
F 1 "USB_OTG" H 9600 4350 50  0000 L CNN
F 2 "Connectors:USB_Micro-B_10103594-0001LF" H 9950 3950 50  0001 C CNN
F 3 "" H 9950 3950 50  0001 C CNN
	1    9800 4000
	-1   0    0    -1  
$EndComp
Wire Wire Line
	9500 3800 9250 3800
Connection ~ 9250 3800
Wire Wire Line
	9800 4400 9800 5100
Connection ~ 9800 5100
Wire Wire Line
	9500 4000 9100 4000
Wire Wire Line
	9100 4000 9100 4100
Wire Wire Line
	9100 4100 8550 4100
Wire Wire Line
	8550 4000 9050 4000
Wire Wire Line
	9050 4000 9050 4150
Wire Wire Line
	9050 4150 9150 4150
Wire Wire Line
	9150 4150 9150 4100
Wire Wire Line
	9150 4100 9500 4100
$EndSCHEMATC
