EESchema Schematic File Version 2
LIBS:control_board-rescue
LIBS:power
LIBS:device
LIBS:transistors
LIBS:conn
LIBS:linear
LIBS:regul
LIBS:74xx
LIBS:cmos4000
LIBS:adc-dac
LIBS:memory
LIBS:xilinx
LIBS:microcontrollers
LIBS:dsp
LIBS:microchip
LIBS:analog_switches
LIBS:motorola
LIBS:texas
LIBS:intel
LIBS:audio
LIBS:interface
LIBS:digital-audio
LIBS:philips
LIBS:display
LIBS:cypress
LIBS:siliconi
LIBS:opto
LIBS:atmel
LIBS:contrib
LIBS:valves
LIBS:stm32
LIBS:switches
LIBS:ThunderDrive
LIBS:ftdi
LIBS:control_board-cache
EELAYER 25 0
EELAYER END
$Descr A3 16535 11693
encoding utf-8
Sheet 6 6
Title "CPU with µSD-Card, FRAM and JTAG/SWD connector"
Date "2016-10-23"
Rev "1"
Comp "ThunderDrive"
Comment1 ""
Comment2 ""
Comment3 ""
Comment4 ""
$EndDescr
Text GLabel 7700 1200 0    60   Input ~ 0
TMS
Wire Wire Line
	8150 1600 7700 1600
Wire Wire Line
	8150 1400 7700 1400
Wire Wire Line
	8150 1300 7700 1300
Wire Wire Line
	8150 1200 7700 1200
Connection ~ 8900 1600
Wire Wire Line
	8900 1600 8650 1600
Connection ~ 8900 1500
Connection ~ 8900 1400
Wire Wire Line
	8650 1400 8900 1400
Wire Wire Line
	8900 1300 8900 1850
Wire Wire Line
	8650 1300 8900 1300
Wire Wire Line
	8900 1200 8900 1000
Wire Wire Line
	8650 1200 8900 1200
$Comp
L CONN_02X05 P201
U 1 1 57E0687A
P 8400 1400
F 0 "P201" H 8400 1700 50  0000 C CNN
F 1 "JTAG" H 8400 1100 50  0000 C CNN
F 2 "Pin_Headers:Pin_Header_Straight_2x05_Pitch1.27mm" H 8400 200 50  0001 C CNN
F 3 "" H 8400 200 50  0000 C CNN
	1    8400 1400
	-1   0    0    -1  
$EndComp
$Comp
L +3.3V #PWR032
U 1 1 57E06881
P 3100 900
F 0 "#PWR032" H 3100 750 50  0001 C CNN
F 1 "+3.3V" H 3100 1040 50  0000 C CNN
F 2 "" H 3100 900 50  0000 C CNN
F 3 "" H 3100 900 50  0000 C CNN
	1    3100 900 
	1    0    0    -1  
$EndComp
$Comp
L +3.3V #PWR033
U 1 1 57E06889
P 6050 2600
F 0 "#PWR033" H 6050 2450 50  0001 C CNN
F 1 "+3.3V" H 6050 2740 50  0000 C CNN
F 2 "" H 6050 2600 50  0000 C CNN
F 3 "" H 6050 2600 50  0000 C CNN
	1    6050 2600
	1    0    0    -1  
$EndComp
Connection ~ 1900 1700
Wire Wire Line
	1900 1700 1900 1500
Connection ~ 2500 1700
Wire Wire Line
	2500 1700 2500 1500
Connection ~ 2800 1700
Wire Wire Line
	2800 1700 2800 1500
Connection ~ 3100 1700
Wire Wire Line
	3100 1500 3100 1850
Wire Wire Line
	1400 1700 1400 1500
Connection ~ 1900 1000
Wire Wire Line
	1400 1000 1400 1200
Connection ~ 2500 1000
Wire Wire Line
	1900 1000 1900 1200
Connection ~ 2800 1000
Wire Wire Line
	2500 1000 2500 1200
Connection ~ 3100 1000
Wire Wire Line
	2800 1000 2800 1200
Wire Wire Line
	3100 900  3100 1200
Wire Wire Line
	4750 1500 4750 1850
Wire Wire Line
	4750 850  4750 1200
$Comp
L C C202
U 1 1 57E0690E
P 1900 1350
F 0 "C202" H 1925 1450 50  0000 L CNN
F 1 "100n" H 1925 1250 50  0000 L CNN
F 2 "Capacitors_SMD:C_0603_HandSoldering" H 1938 1200 50  0001 C CNN
F 3 "" H 1900 1350 50  0000 C CNN
	1    1900 1350
	1    0    0    -1  
$EndComp
$Comp
L C C204
U 1 1 57E06915
P 2500 1350
F 0 "C204" H 2525 1450 50  0000 L CNN
F 1 "100n" H 2525 1250 50  0000 L CNN
F 2 "Capacitors_SMD:C_0603_HandSoldering" H 2538 1200 50  0001 C CNN
F 3 "" H 2500 1350 50  0000 C CNN
	1    2500 1350
	1    0    0    -1  
$EndComp
$Comp
L C C205
U 1 1 57E0691C
P 2800 1350
F 0 "C205" H 2825 1450 50  0000 L CNN
F 1 "100n" H 2825 1250 50  0000 L CNN
F 2 "Capacitors_SMD:C_0603_HandSoldering" H 2838 1200 50  0001 C CNN
F 3 "" H 2800 1350 50  0000 C CNN
	1    2800 1350
	1    0    0    -1  
$EndComp
$Comp
L C C206
U 1 1 57E06923
P 3100 1350
F 0 "C206" H 3125 1450 50  0000 L CNN
F 1 "100n" H 3125 1250 50  0000 L CNN
F 2 "Capacitors_SMD:C_0603_HandSoldering" H 3138 1200 50  0001 C CNN
F 3 "" H 3100 1350 50  0000 C CNN
	1    3100 1350
	1    0    0    -1  
$EndComp
$Comp
L C C209
U 1 1 57E06930
P 4750 1350
F 0 "C209" H 4775 1450 50  0000 L CNN
F 1 "10n" H 4750 1250 50  0000 L CNN
F 2 "Capacitors_SMD:C_0603_HandSoldering" H 4788 1200 50  0001 C CNN
F 3 "" H 4750 1350 50  0000 C CNN
	1    4750 1350
	1    0    0    -1  
$EndComp
$Comp
L GNDA #PWR034
U 1 1 57E0693E
P 4750 1850
F 0 "#PWR034" H 4750 1600 50  0001 C CNN
F 1 "GNDA" H 4750 1700 50  0000 C CNN
F 2 "" H 4750 1850 50  0000 C CNN
F 3 "" H 4750 1850 50  0000 C CNN
	1    4750 1850
	1    0    0    -1  
$EndComp
$Comp
L +3.3VADC #PWR035
U 1 1 57E06944
P 4750 850
F 0 "#PWR035" H 4900 800 50  0001 C CNN
F 1 "+3.3VADC" H 4750 950 50  0000 C CNN
F 2 "" H 4750 850 50  0000 C CNN
F 3 "" H 4750 850 50  0000 C CNN
	1    4750 850 
	1    0    0    -1  
$EndComp
$Comp
L +3.3VADC #PWR036
U 1 1 57E0695E
P 6550 2550
F 0 "#PWR036" H 6700 2500 50  0001 C CNN
F 1 "+3.3VADC" H 6550 2650 50  0000 C CNN
F 2 "" H 6550 2550 50  0000 C CNN
F 3 "" H 6550 2550 50  0000 C CNN
	1    6550 2550
	1    0    0    -1  
$EndComp
Text GLabel 7700 1300 0    60   Input ~ 0
TCK
Text GLabel 7700 1400 0    60   Input ~ 0
SWO
Wire Wire Line
	8650 1500 8900 1500
NoConn ~ 8150 1500
Text GLabel 7700 1600 0    60   Output ~ 0
/RESET
Wire Wire Line
	9850 4950 10300 4950
Wire Wire Line
	9850 4850 10300 4850
Text GLabel 3450 3400 0    60   Input ~ 0
/RESET
Text GLabel 10300 4850 2    60   Output ~ 0
TMS
Text GLabel 10300 4950 2    60   Output ~ 0
TCK
$Comp
L C C213
U 1 1 57E078A7
P 1750 5500
F 0 "C213" H 1775 5600 50  0000 L CNN
F 1 "13p" H 1775 5400 50  0000 L CNN
F 2 "Capacitors_SMD:C_0603_HandSoldering" H 1788 5350 50  0001 C CNN
F 3 "" H 1750 5500 50  0000 C CNN
	1    1750 5500
	-1   0    0    -1  
$EndComp
$Comp
L C C212
U 1 1 57E07990
P 1050 5500
F 0 "C212" H 1075 5600 50  0000 L CNN
F 1 "13p" H 1075 5400 50  0000 L CNN
F 2 "Capacitors_SMD:C_0603_HandSoldering" H 1088 5350 50  0001 C CNN
F 3 "" H 1050 5500 50  0000 C CNN
	1    1050 5500
	-1   0    0    -1  
$EndComp
Wire Wire Line
	1750 5800 1750 5650
Wire Wire Line
	1050 5800 1950 5800
Wire Wire Line
	1400 5450 1400 5900
Connection ~ 1400 5800
Wire Wire Line
	1050 5800 1050 5650
Wire Wire Line
	1050 5250 1250 5250
Wire Wire Line
	1050 4800 1050 5350
Wire Wire Line
	1750 4900 1750 5350
Wire Wire Line
	1550 5250 1750 5250
Wire Wire Line
	3900 4800 1050 4800
Connection ~ 1050 5250
Wire Wire Line
	3900 4900 1750 4900
Connection ~ 1750 5250
Wire Wire Line
	9850 5550 10300 5550
Text GLabel 10300 5550 2    60   Output ~ 0
SWO
Wire Wire Line
	6050 2600 6050 3000
Wire Wire Line
	6150 3000 6150 2800
Wire Wire Line
	6050 2800 6450 2800
Connection ~ 6050 2800
Wire Wire Line
	6250 2800 6250 3000
Connection ~ 6150 2800
Wire Wire Line
	6350 2800 6350 3000
Connection ~ 6250 2800
Wire Wire Line
	6450 2800 6450 3000
Connection ~ 6350 2800
Wire Wire Line
	6550 2550 6550 3000
$Comp
L GNDA #PWR037
U 1 1 580FBAB8
P 6550 9300
F 0 "#PWR037" H 6550 9050 50  0001 C CNN
F 1 "GNDA" H 6550 9150 50  0000 C CNN
F 2 "" H 6550 9300 50  0000 C CNN
F 3 "" H 6550 9300 50  0000 C CNN
	1    6550 9300
	1    0    0    -1  
$EndComp
Wire Wire Line
	6050 8900 6050 9300
Wire Wire Line
	6550 8900 6550 9300
Wire Wire Line
	6150 8900 6150 9100
Wire Wire Line
	6050 9100 6450 9100
Connection ~ 6050 9100
Wire Wire Line
	6250 9100 6250 8900
Connection ~ 6150 9100
Wire Wire Line
	6350 9100 6350 8900
Connection ~ 6250 9100
Wire Wire Line
	6450 9100 6450 8900
Connection ~ 6350 9100
$Comp
L +3.3V #PWR038
U 1 1 580FF585
P 1200 2750
F 0 "#PWR038" H 1200 2600 50  0001 C CNN
F 1 "+3.3V" H 1200 2890 50  0000 C CNN
F 2 "" H 1200 2750 50  0000 C CNN
F 3 "" H 1200 2750 50  0000 C CNN
	1    1200 2750
	1    0    0    -1  
$EndComp
Wire Wire Line
	1200 2750 1200 3800
Wire Wire Line
	1200 3800 3900 3800
$Comp
L +3.3VADC #PWR039
U 1 1 580FFDB1
P 850 2700
F 0 "#PWR039" H 1000 2650 50  0001 C CNN
F 1 "+3.3VADC" H 850 2800 50  0000 C CNN
F 2 "" H 850 2700 50  0000 C CNN
F 3 "" H 850 2700 50  0000 C CNN
	1    850  2700
	1    0    0    -1  
$EndComp
Wire Wire Line
	3900 3900 850  3900
Wire Wire Line
	850  3900 850  2700
$Comp
L C C203
U 1 1 58107EFC
P 2200 1350
F 0 "C203" H 2225 1450 50  0000 L CNN
F 1 "100n" H 2225 1250 50  0000 L CNN
F 2 "Capacitors_SMD:C_0603_HandSoldering" H 2238 1200 50  0001 C CNN
F 3 "" H 2200 1350 50  0000 C CNN
	1    2200 1350
	1    0    0    -1  
$EndComp
Wire Wire Line
	2200 1000 2200 1200
Connection ~ 2200 1000
Wire Wire Line
	2200 1700 2200 1500
Connection ~ 2200 1700
$Comp
L C C201
U 1 1 58108964
P 1400 1350
F 0 "C201" H 1425 1450 50  0000 L CNN
F 1 "10µ25V" H 1425 1250 50  0000 L CNN
F 2 "Capacitors_SMD:C_1206_HandSoldering" H 1438 1200 50  0001 C CNN
F 3 "" H 1400 1350 50  0000 C CNN
	1    1400 1350
	1    0    0    -1  
$EndComp
$Comp
L C C207
U 1 1 58109152
P 4150 1350
F 0 "C207" H 4175 1450 50  0000 L CNN
F 1 "1µ" H 4150 1250 50  0000 L CNN
F 2 "Capacitors_SMD:C_1206_HandSoldering" H 4188 1200 50  0001 C CNN
F 3 "" H 4150 1350 50  0000 C CNN
	1    4150 1350
	1    0    0    -1  
$EndComp
Wire Wire Line
	4150 1200 4150 1000
Connection ~ 4750 1000
Wire Wire Line
	4150 1700 4150 1500
Connection ~ 4750 1700
Wire Wire Line
	9850 3650 10300 3650
Wire Wire Line
	9850 3750 10300 3750
Wire Wire Line
	9850 3850 10300 3850
Text HLabel 10300 3650 2    60   Input ~ 0
AIN_TEMP_C
Text HLabel 10300 3750 2    60   Input ~ 0
AIN1
Text HLabel 10300 3850 2    60   Input ~ 0
AIN_TEMP_B
$Comp
L C C211
U 1 1 5813B520
P 2950 4300
F 0 "C211" H 2975 4400 50  0000 L CNN
F 1 "2µ2 25V" H 2975 4200 50  0000 L CNN
F 2 "Capacitors_SMD:C_0603_HandSoldering" H 2988 4150 50  0001 C CNN
F 3 "" H 2950 4300 50  0000 C CNN
	1    2950 4300
	1    0    0    -1  
$EndComp
$Comp
L C C210
U 1 1 5813B9EC
P 2550 4300
F 0 "C210" H 2575 4400 50  0000 L CNN
F 1 "2µ2 25V" H 2575 4200 50  0000 L CNN
F 2 "Capacitors_SMD:C_0603_HandSoldering" H 2588 4150 50  0001 C CNN
F 3 "" H 2550 4300 50  0000 C CNN
	1    2550 4300
	1    0    0    -1  
$EndComp
Wire Wire Line
	3900 4100 2950 4100
Wire Wire Line
	2950 4100 2950 4150
Wire Wire Line
	3900 4000 2550 4000
Wire Wire Line
	2550 4000 2550 4150
Wire Wire Line
	2550 4450 2550 4550
Wire Wire Line
	2550 4550 2950 4550
Wire Wire Line
	2950 4550 2950 4450
Wire Wire Line
	2750 4600 2750 4550
Connection ~ 2750 4550
$Comp
L FM24C64B IC201
U 1 1 581525D5
P 13200 6250
F 0 "IC201" H 13000 6500 50  0000 C CNN
F 1 "FM24C64B" H 13450 5950 50  0000 C CNN
F 2 "Housings_SOIC:SOIC-8_3.9x4.9mm_Pitch1.27mm" H 13200 6250 50  0001 C CNN
F 3 "" H 13200 6250 50  0000 C CNN
	1    13200 6250
	-1   0    0    -1  
$EndComp
Wire Wire Line
	11500 6300 12800 6300
Wire Wire Line
	9850 6150 12800 6150
$Comp
L C C214
U 1 1 581571E9
P 12250 6500
F 0 "C214" V 12100 6400 50  0000 L CNN
F 1 "100n" V 12200 6250 50  0000 L CNN
F 2 "Capacitors_SMD:C_0603_HandSoldering" H 12288 6350 50  0001 C CNN
F 3 "" H 12250 6500 50  0000 C CNN
	1    12250 6500
	1    0    0    -1  
$EndComp
Wire Wire Line
	13200 5550 13200 5900
Wire Wire Line
	12250 5750 13200 5750
Wire Wire Line
	12250 5750 12250 6350
Connection ~ 13200 5750
Wire Wire Line
	12250 6650 12250 6750
Wire Wire Line
	12250 6750 13700 6750
Wire Wire Line
	13200 6650 13200 6800
Connection ~ 13200 6750
$Comp
L R R201
U 1 1 5815A71E
P 12400 5950
F 0 "R201" V 12300 6000 50  0000 C CNN
F 1 "4k7" V 12400 5950 50  0000 C CNN
F 2 "Resistors_SMD:R_0603_HandSoldering" V 12330 5950 50  0001 C CNN
F 3 "" H 12400 5950 50  0000 C CNN
	1    12400 5950
	-1   0    0    1   
$EndComp
$Comp
L R R202
U 1 1 5815BA28
P 12650 5950
F 0 "R202" V 12550 6000 50  0000 C CNN
F 1 "4k7" V 12650 5950 50  0000 C CNN
F 2 "Resistors_SMD:R_0603_HandSoldering" V 12580 5950 50  0001 C CNN
F 3 "" H 12650 5950 50  0000 C CNN
	1    12650 5950
	-1   0    0    1   
$EndComp
Wire Wire Line
	12650 5800 12650 5750
Connection ~ 12650 5750
Wire Wire Line
	12400 5800 12400 5750
Connection ~ 12400 5750
Wire Wire Line
	12400 6100 12400 6300
Connection ~ 12400 6300
Wire Wire Line
	12650 6100 12650 6150
Connection ~ 12650 6150
Wire Wire Line
	13800 6450 13600 6450
Wire Wire Line
	13700 6750 13700 6100
Wire Wire Line
	13700 6100 13600 6100
Wire Wire Line
	13600 6200 13700 6200
Connection ~ 13700 6200
Wire Wire Line
	13600 6300 13700 6300
Connection ~ 13700 6300
Text Label 11550 6150 0    60   ~ 0
FRAM_SDA
Text Label 11550 6300 0    60   ~ 0
FRAM_SCL
NoConn ~ 9850 7450
NoConn ~ 9850 7350
NoConn ~ 9850 5450
NoConn ~ 3900 6500
NoConn ~ 3900 7100
NoConn ~ 3900 7200
NoConn ~ 3900 7500
NoConn ~ 3900 7600
NoConn ~ 3900 7700
NoConn ~ 3900 7900
NoConn ~ 3900 7800
Wire Wire Line
	9850 3550 10300 3550
Text HLabel 10300 3550 2    60   Input ~ 0
AIN2
Wire Wire Line
	9850 3950 10300 3950
Text HLabel 10300 3950 2    60   Input ~ 0
AIN_VDC
Wire Wire Line
	9850 4050 10300 4050
Wire Wire Line
	9850 5350 10300 5350
Text HLabel 10300 4050 2    60   Input ~ 0
AIN_TEMP_A
Text HLabel 10300 5350 2    60   Input ~ 0
DFSDM_DATA_A
$Comp
L +3.3V #PWR040
U 1 1 58174C1C
P 13200 5550
F 0 "#PWR040" H 13200 5400 50  0001 C CNN
F 1 "+3.3V" H 13200 5690 50  0000 C CNN
F 2 "" H 13200 5550 50  0000 C CNN
F 3 "" H 13200 5550 50  0000 C CNN
	1    13200 5550
	1    0    0    -1  
$EndComp
Wire Wire Line
	3900 3400 3450 3400
Text Label 3450 4000 2    60   ~ 0
VCAP1
Text Label 3450 4100 2    60   ~ 0
VCAP2
Text Label 3450 4800 2    60   ~ 0
OSC_IN
Text Label 3450 4900 2    60   ~ 0
OSC_OUT
$Comp
L Crystal_GND24 Y201
U 1 1 58656819
P 1400 5250
F 0 "Y201" H 1525 5450 50  0000 L CNN
F 1 "8MHz" H 1525 5375 50  0000 L CNN
F 2 "Crystals:Crystal_SMD_Abracon_ABM3B-4pin_5.0x3.2mm" H 1400 5250 50  0001 C CNN
F 3 "" H 1400 5250 50  0000 C CNN
	1    1400 5250
	1    0    0    -1  
$EndComp
Wire Wire Line
	1400 5050 1400 4600
Wire Wire Line
	1400 4600 1950 4600
Wire Wire Line
	1950 4600 1950 5800
Connection ~ 1750 5800
$Comp
L C C208
U 1 1 5865C5B9
P 4450 1350
F 0 "C208" H 4475 1450 50  0000 L CNN
F 1 "100n" H 4475 1250 50  0000 L CNN
F 2 "Capacitors_SMD:C_0603_HandSoldering" H 4488 1200 50  0001 C CNN
F 3 "" H 4450 1350 50  0000 C CNN
	1    4450 1350
	1    0    0    -1  
$EndComp
Wire Wire Line
	4450 1200 4450 1000
Connection ~ 4450 1000
Wire Wire Line
	4450 1500 4450 1700
Connection ~ 4450 1700
$Comp
L +3.3V #PWR041
U 1 1 58BD8480
P 8900 1000
F 0 "#PWR041" H 8900 850 50  0001 C CNN
F 1 "+3.3V" H 8900 1140 50  0000 C CNN
F 2 "" H 8900 1000 50  0000 C CNN
F 3 "" H 8900 1000 50  0000 C CNN
	1    8900 1000
	1    0    0    -1  
$EndComp
Wire Wire Line
	1400 1700 3100 1700
Wire Wire Line
	1400 1000 3100 1000
Wire Wire Line
	4150 1000 4750 1000
Wire Wire Line
	4150 1700 4750 1700
$Comp
L GND #PWR042
U 1 1 58C2164B
P 2750 4600
F 0 "#PWR042" H 2750 4350 50  0001 C CNN
F 1 "GND" H 2750 4450 50  0000 C CNN
F 2 "" H 2750 4600 50  0000 C CNN
F 3 "" H 2750 4600 50  0000 C CNN
	1    2750 4600
	1    0    0    -1  
$EndComp
$Comp
L GND #PWR043
U 1 1 58C218E8
P 1400 5900
F 0 "#PWR043" H 1400 5650 50  0001 C CNN
F 1 "GND" H 1400 5750 50  0000 C CNN
F 2 "" H 1400 5900 50  0000 C CNN
F 3 "" H 1400 5900 50  0000 C CNN
	1    1400 5900
	1    0    0    -1  
$EndComp
$Comp
L GND #PWR044
U 1 1 58C21D02
P 3100 1850
F 0 "#PWR044" H 3100 1600 50  0001 C CNN
F 1 "GND" H 3100 1700 50  0000 C CNN
F 2 "" H 3100 1850 50  0000 C CNN
F 3 "" H 3100 1850 50  0000 C CNN
	1    3100 1850
	1    0    0    -1  
$EndComp
$Comp
L GND #PWR045
U 1 1 58C21E33
P 6050 9300
F 0 "#PWR045" H 6050 9050 50  0001 C CNN
F 1 "GND" H 6050 9150 50  0000 C CNN
F 2 "" H 6050 9300 50  0000 C CNN
F 3 "" H 6050 9300 50  0000 C CNN
	1    6050 9300
	1    0    0    -1  
$EndComp
$Comp
L GND #PWR046
U 1 1 58C22A05
P 8900 1850
F 0 "#PWR046" H 8900 1600 50  0001 C CNN
F 1 "GND" H 8900 1700 50  0000 C CNN
F 2 "" H 8900 1850 50  0000 C CNN
F 3 "" H 8900 1850 50  0000 C CNN
	1    8900 1850
	1    0    0    -1  
$EndComp
$Comp
L GND #PWR047
U 1 1 58C232EE
P 13200 6800
F 0 "#PWR047" H 13200 6550 50  0001 C CNN
F 1 "GND" H 13200 6650 50  0000 C CNN
F 2 "" H 13200 6800 50  0000 C CNN
F 3 "" H 13200 6800 50  0000 C CNN
	1    13200 6800
	1    0    0    -1  
$EndComp
NoConn ~ 9850 4750
Wire Wire Line
	9850 4350 10300 4350
Wire Wire Line
	9850 4450 10300 4450
Wire Wire Line
	9850 4550 10300 4550
Text HLabel 10300 4350 2    60   Output ~ 0
HIGHSIDE_PWM_A
Text HLabel 10300 4450 2    60   Output ~ 0
HIGHSIDE_PWM_B
Text HLabel 10300 4550 2    60   Output ~ 0
HIGHSIDE_PWM_C
NoConn ~ 9850 5250
NoConn ~ 9850 5750
Wire Wire Line
	3900 6800 3450 6800
Wire Wire Line
	3900 6900 3450 6900
Text HLabel 3450 6800 0    60   Input ~ 0
CAN_RX
Text HLabel 3450 6900 0    60   Output ~ 0
CAN_TX
Wire Wire Line
	11500 6300 11500 6050
Wire Wire Line
	11500 6050 9850 6050
NoConn ~ 9850 6250
NoConn ~ 9850 6350
Text GLabel 13800 6450 2    60   Input ~ 0
FRAM_WP
Text HLabel 10300 6750 2    60   Output ~ 0
LOWSIDE_PWM_C
Wire Wire Line
	9850 6750 10300 6750
Text HLabel 10300 6650 2    60   Output ~ 0
LOWSIDE_PWM_B
Text HLabel 10300 6550 2    60   Output ~ 0
LOWSIDE_PWM_A
Wire Wire Line
	10300 6650 9850 6650
Wire Wire Line
	10300 6550 9850 6550
NoConn ~ 9850 6450
NoConn ~ 9850 6950
NoConn ~ 9850 7050
NoConn ~ 9850 7150
NoConn ~ 9850 7250
NoConn ~ 9850 7550
NoConn ~ 3900 8000
NoConn ~ 3900 8100
NoConn ~ 3900 8200
NoConn ~ 3900 8300
Wire Wire Line
	3900 5100 3450 5100
Text GLabel 3450 5100 0    60   Output ~ 0
FRAM_WP
NoConn ~ 3900 5200
Wire Wire Line
	3900 5800 3450 5800
Text HLabel 3450 5800 0    60   Input ~ 0
DFSDM_DATA_B
Wire Wire Line
	3900 6000 3450 6000
Text HLabel 3450 6000 0    60   Output ~ 0
DFSDM_CLK
NoConn ~ 3900 5900
Wire Wire Line
	3900 6300 3450 6300
Text HLabel 3450 6300 0    60   Input ~ 0
DFSDM_DATA_C
NoConn ~ 3900 6100
NoConn ~ 3900 6200
NoConn ~ 3900 6400
NoConn ~ 3900 6600
Wire Wire Line
	9850 5850 10300 5850
Wire Wire Line
	9850 5950 10300 5950
Text HLabel 10300 5850 2    60   Output ~ 0
USART1_TX
Text HLabel 10300 5950 2    60   Input ~ 0
USART1_RX
NoConn ~ 3900 7300
NoConn ~ 3900 7400
NoConn ~ 9850 4150
NoConn ~ 9850 4250
$Comp
L R R203
U 1 1 58C09DB9
P 10500 9800
F 0 "R203" V 10580 9800 50  0000 C CNN
F 1 "1k" V 10500 9800 50  0000 C CNN
F 2 "Resistors_SMD:R_0603_HandSoldering" V 10430 9800 50  0001 C CNN
F 3 "" H 10500 9800 50  0000 C CNN
	1    10500 9800
	-1   0    0    1   
$EndComp
$Comp
L LED D201
U 1 1 58C09DC0
P 10500 10200
F 0 "D201" H 10500 10300 50  0000 C CNN
F 1 "ERR" H 10500 10100 50  0000 C CNN
F 2 "Resistors_SMD:R_0603_HandSoldering" H 10500 10200 50  0001 C CNN
F 3 "" H 10500 10200 50  0000 C CNN
	1    10500 10200
	0    -1   -1   0   
$EndComp
Wire Wire Line
	10500 9950 10500 10050
Wire Wire Line
	10500 10350 10500 10500
$Comp
L R R204
U 1 1 58C09F44
P 10800 9800
F 0 "R204" V 10880 9800 50  0000 C CNN
F 1 "1k" V 10800 9800 50  0000 C CNN
F 2 "Resistors_SMD:R_0603_HandSoldering" V 10730 9800 50  0001 C CNN
F 3 "" H 10800 9800 50  0000 C CNN
	1    10800 9800
	-1   0    0    1   
$EndComp
$Comp
L LED D202
U 1 1 58C09F4B
P 10800 10200
F 0 "D202" H 10800 10300 50  0000 C CNN
F 1 "RUN" H 10800 10100 50  0000 C CNN
F 2 "Resistors_SMD:R_0603_HandSoldering" H 10800 10200 50  0001 C CNN
F 3 "" H 10800 10200 50  0000 C CNN
	1    10800 10200
	0    -1   -1   0   
$EndComp
Wire Wire Line
	10800 9950 10800 10050
Wire Wire Line
	10800 10350 10800 10750
$Comp
L R R205
U 1 1 58C09FFE
P 11100 9800
F 0 "R205" V 11180 9800 50  0000 C CNN
F 1 "1k" V 11100 9800 50  0000 C CNN
F 2 "Resistors_SMD:R_0603_HandSoldering" V 11030 9800 50  0001 C CNN
F 3 "" H 11100 9800 50  0000 C CNN
	1    11100 9800
	-1   0    0    1   
$EndComp
$Comp
L LED D203
U 1 1 58C0A005
P 11100 10200
F 0 "D203" H 11100 10300 50  0000 C CNN
F 1 "FW" H 11100 10100 50  0000 C CNN
F 2 "Resistors_SMD:R_0603_HandSoldering" H 11100 10200 50  0001 C CNN
F 3 "" H 11100 10200 50  0000 C CNN
	1    11100 10200
	0    -1   -1   0   
$EndComp
Wire Wire Line
	11100 9950 11100 10050
Wire Wire Line
	11100 10500 11100 10350
$Comp
L GND #PWR048
U 1 1 58C0A172
P 10800 10750
F 0 "#PWR048" H 10800 10500 50  0001 C CNN
F 1 "GND" H 10800 10600 50  0000 C CNN
F 2 "" H 10800 10750 50  0000 C CNN
F 3 "" H 10800 10750 50  0000 C CNN
	1    10800 10750
	1    0    0    -1  
$EndComp
Connection ~ 10800 10500
Wire Wire Line
	10500 10500 11100 10500
Wire Wire Line
	9850 8250 11100 8250
Wire Wire Line
	11100 8250 11100 9650
Wire Wire Line
	9850 8350 10800 8350
Wire Wire Line
	10800 8350 10800 9650
Wire Wire Line
	9850 8450 10500 8450
Wire Wire Line
	10500 8450 10500 9650
NoConn ~ 9850 5050
NoConn ~ 9850 5650
NoConn ~ 3900 5700
NoConn ~ 9850 7650
NoConn ~ 9850 7750
NoConn ~ 9850 7850
NoConn ~ 9850 7950
NoConn ~ 9850 8050
NoConn ~ 9850 8150
NoConn ~ 3900 7000
Wire Wire Line
	9850 4650 10300 4650
Text HLabel 10300 4650 2    60   Output ~ 0
BRAKE_PWM
Text HLabel 3450 3600 0    60   Input ~ 0
BOOT0
$Comp
L STM32F767Vx U201
U 1 1 580D3F2A
P 6350 6000
F 0 "U201" H 4100 8850 50  0000 L BNN
F 1 "STM32F765Vx" H 9600 8850 50  0000 R BNN
F 2 "Housings_QFP:LQFP-100_14x14mm_Pitch0.5mm" H 9600 8750 50  0001 R TNN
F 3 "" H 6350 6000 50  0000 C CNN
	1    6350 6000
	1    0    0    -1  
$EndComp
Wire Wire Line
	3900 3600 3450 3600
Wire Wire Line
	3900 5300 3450 5300
Wire Wire Line
	3900 5400 3450 5400
Wire Wire Line
	3900 5500 3450 5500
Text HLabel 3450 5300 0    60   Input ~ 0
ADR0
Text HLabel 3450 5400 0    60   Input ~ 0
ADR1
Text HLabel 3450 5500 0    60   Input ~ 0
ADR2
Wire Wire Line
	3900 5600 3450 5600
Text HLabel 3450 5600 0    60   Input ~ 0
G_EN
$EndSCHEMATC
