EESchema Schematic File Version 2
LIBS:control_board-rescue
LIBS:power
LIBS:device
LIBS:transistors
LIBS:conn
LIBS:linear
LIBS:regul
LIBS:74xx
LIBS:cmos4000
LIBS:adc-dac
LIBS:memory
LIBS:xilinx
LIBS:microcontrollers
LIBS:dsp
LIBS:microchip
LIBS:analog_switches
LIBS:motorola
LIBS:texas
LIBS:intel
LIBS:audio
LIBS:interface
LIBS:digital-audio
LIBS:philips
LIBS:display
LIBS:cypress
LIBS:siliconi
LIBS:opto
LIBS:atmel
LIBS:contrib
LIBS:valves
LIBS:stm32
LIBS:switches
LIBS:ThunderDrive
LIBS:ftdi
LIBS:control_board-cache
EELAYER 25 0
EELAYER END
$Descr A4 11693 8268
encoding utf-8
Sheet 5 6
Title "Salen key filters for phase temperature and voltage"
Date "2017-03-05"
Rev "1"
Comp "ThunderDrive"
Comment1 "Filter dimensions: http://sim.okawa-denshi.jp/en/OPstool.php"
Comment2 "Cutoff freq. at ca. 113Hz"
Comment3 ""
Comment4 ""
$EndDescr
$Comp
L TSV912 U501
U 2 1 58BABAF3
P 4200 3250
F 0 "U501" H 4200 3450 50  0000 L CNN
F 1 "TSV912" H 4200 3050 50  0000 L CNN
F 2 "Housings_SOIC:SOIC-8_3.9x4.9mm_Pitch1.27mm" H 4200 2850 50  0001 C CNN
F 3 "" H 4200 3450 50  0000 C CNN
	2    4200 3250
	1    0    0    -1  
$EndComp
$Comp
L R R506
U 1 1 58BABB06
P 3300 3150
F 0 "R506" V 3380 3150 50  0000 C CNN
F 1 "100k" V 3300 3150 50  0000 C CNN
F 2 "Resistors_SMD:R_0603_HandSoldering" V 3230 3150 50  0001 C CNN
F 3 "" H 3300 3150 50  0000 C CNN
	1    3300 3150
	0    1    1    0   
$EndComp
$Comp
L R R505
U 1 1 58BABB0D
P 2550 3150
F 0 "R505" V 2630 3150 50  0000 C CNN
F 1 "100k" V 2550 3150 50  0000 C CNN
F 2 "Resistors_SMD:R_0603_HandSoldering" V 2480 3150 50  0001 C CNN
F 3 "" H 2550 3150 50  0000 C CNN
	1    2550 3150
	0    1    1    0   
$EndComp
$Comp
L C C503
U 1 1 58BABB14
P 3300 2600
F 0 "C503" H 3325 2700 50  0000 L CNN
F 1 "20n" H 3325 2500 50  0000 L CNN
F 2 "Capacitors_SMD:C_0603_HandSoldering" H 3338 2450 50  0001 C CNN
F 3 "" H 3300 2600 50  0000 C CNN
	1    3300 2600
	0    1    1    0   
$EndComp
$Comp
L C C504
U 1 1 58BABB1B
P 3600 3550
F 0 "C504" H 3625 3650 50  0000 L CNN
F 1 "10n" H 3625 3450 50  0000 L CNN
F 2 "Capacitors_SMD:C_0603_HandSoldering" H 3638 3400 50  0001 C CNN
F 3 "" H 3600 3550 50  0000 C CNN
	1    3600 3550
	-1   0    0    1   
$EndComp
Wire Wire Line
	3150 2600 2900 2600
Wire Wire Line
	2900 2600 2900 3150
Wire Wire Line
	2700 3150 3150 3150
Connection ~ 2900 3150
Wire Wire Line
	3450 3150 3900 3150
Wire Wire Line
	3600 3150 3600 3400
Connection ~ 3600 3150
Wire Wire Line
	3900 3350 3800 3350
Wire Wire Line
	3800 3350 3800 3650
Wire Wire Line
	3800 3650 4600 3650
Wire Wire Line
	4600 3650 4600 2600
Wire Wire Line
	4500 3250 5100 3250
Wire Wire Line
	4100 3550 4100 3850
Wire Wire Line
	4600 2600 3450 2600
Connection ~ 4600 3250
Wire Wire Line
	1750 3150 2400 3150
Wire Wire Line
	3600 3700 3600 3800
Connection ~ 4100 3800
$Comp
L C C505
U 1 1 58BABB3D
P 4950 3550
F 0 "C505" H 4975 3650 50  0000 L CNN
F 1 "100n" H 4975 3450 50  0000 L CNN
F 2 "Capacitors_SMD:C_0603_HandSoldering" H 4988 3400 50  0001 C CNN
F 3 "" H 4950 3550 50  0000 C CNN
	1    4950 3550
	-1   0    0    1   
$EndComp
Wire Wire Line
	4950 2850 4950 3400
Connection ~ 4100 2850
Wire Wire Line
	4950 3800 4950 3700
Text HLabel 5100 3250 2    60   Output ~ 0
TEMP_A_OUT
$Comp
L GNDA #PWR020
U 1 1 58BABF46
P 4150 2050
F 0 "#PWR020" H 4150 1800 50  0001 C CNN
F 1 "GNDA" H 4150 1900 50  0000 C CNN
F 2 "" H 4150 2050 50  0000 C CNN
F 3 "" H 4150 2050 50  0000 C CNN
	1    4150 2050
	1    0    0    -1  
$EndComp
$Comp
L R R503
U 1 1 58BABF4C
P 3350 1350
F 0 "R503" V 3430 1350 50  0000 C CNN
F 1 "10k" V 3350 1350 50  0000 C CNN
F 2 "Resistors_SMD:R_0603_HandSoldering" V 3280 1350 50  0001 C CNN
F 3 "" H 3350 1350 50  0000 C CNN
	1    3350 1350
	0    1    1    0   
$EndComp
$Comp
L R R502
U 1 1 58BABF53
P 2600 1350
F 0 "R502" V 2680 1350 50  0000 C CNN
F 1 "10k" V 2600 1350 50  0000 C CNN
F 2 "Resistors_SMD:R_0603_HandSoldering" V 2530 1350 50  0001 C CNN
F 3 "" H 2600 1350 50  0000 C CNN
	1    2600 1350
	0    1    1    0   
$EndComp
$Comp
L C C501
U 1 1 58BABF5A
P 3350 800
F 0 "C501" H 3375 900 50  0000 L CNN
F 1 "20n" H 3375 700 50  0000 L CNN
F 2 "Capacitors_SMD:C_0603_HandSoldering" H 3388 650 50  0001 C CNN
F 3 "" H 3350 800 50  0000 C CNN
	1    3350 800 
	0    1    1    0   
$EndComp
$Comp
L C C502
U 1 1 58BABF61
P 3650 1750
F 0 "C502" H 3675 1850 50  0000 L CNN
F 1 "10n" H 3675 1650 50  0000 L CNN
F 2 "Capacitors_SMD:C_0603_HandSoldering" H 3688 1600 50  0001 C CNN
F 3 "" H 3650 1750 50  0000 C CNN
	1    3650 1750
	-1   0    0    1   
$EndComp
Wire Wire Line
	3200 800  2950 800 
Wire Wire Line
	2950 800  2950 1350
Wire Wire Line
	2750 1350 3200 1350
Connection ~ 2950 1350
Wire Wire Line
	3500 1350 3950 1350
Wire Wire Line
	3650 1350 3650 1600
Connection ~ 3650 1350
Wire Wire Line
	3950 1550 3850 1550
Wire Wire Line
	3850 1550 3850 1850
Wire Wire Line
	3850 1850 4650 1850
Wire Wire Line
	4650 1850 4650 800 
Wire Wire Line
	4550 1450 5200 1450
Wire Wire Line
	4150 1750 4150 2050
Wire Wire Line
	4150 1000 4150 1150
Wire Wire Line
	4650 800  3500 800 
Connection ~ 4650 1450
Wire Wire Line
	3650 1900 3650 2000
Connection ~ 4150 2000
Text HLabel 5200 1450 2    60   Output ~ 0
VDC_OUT
$Comp
L TSV912 U501
U 1 1 58BBEEB3
P 4250 1450
F 0 "U501" H 4250 1650 50  0000 L CNN
F 1 "TSV912" H 4250 1250 50  0000 L CNN
F 2 "Housings_SOIC:SOIC-8_3.9x4.9mm_Pitch1.27mm" H 4250 1050 50  0001 C CNN
F 3 "" H 4250 1650 50  0000 C CNN
	1    4250 1450
	1    0    0    -1  
$EndComp
$Comp
L R R507
U 1 1 58BC0634
P 2050 3450
F 0 "R507" V 2130 3450 50  0000 C CNN
F 1 "10k" V 2050 3450 50  0000 C CNN
F 2 "Resistors_SMD:R_0603_HandSoldering" V 1980 3450 50  0001 C CNN
F 3 "" H 2050 3450 50  0000 C CNN
	1    2050 3450
	1    0    0    -1  
$EndComp
Wire Wire Line
	2050 3800 2050 3600
Connection ~ 3600 3800
Wire Wire Line
	2050 3300 2050 3150
Connection ~ 2050 3150
Text HLabel 1750 3150 0    60   Input ~ 0
TEMP_A_IN
Text HLabel 1250 1350 0    60   Input ~ 0
VDC
Wire Wire Line
	4100 2800 4100 2950
$Comp
L +3.3VADC #PWR021
U 1 1 58BDBFC3
P 4150 1000
F 0 "#PWR021" H 4300 950 50  0001 C CNN
F 1 "+3.3VADC" H 4150 1100 50  0000 C CNN
F 2 "" H 4150 1000 50  0000 C CNN
F 3 "" H 4150 1000 50  0000 C CNN
	1    4150 1000
	1    0    0    -1  
$EndComp
$Comp
L +3.3VADC #PWR022
U 1 1 58BDC10B
P 4100 2800
F 0 "#PWR022" H 4250 2750 50  0001 C CNN
F 1 "+3.3VADC" H 4100 2900 50  0000 C CNN
F 2 "" H 4100 2800 50  0000 C CNN
F 3 "" H 4100 2800 50  0000 C CNN
	1    4100 2800
	1    0    0    -1  
$EndComp
Wire Wire Line
	2050 3800 4950 3800
Wire Wire Line
	4100 2850 4950 2850
$Comp
L TSV912 U502
U 1 1 58D6EAA3
P 4200 4850
F 0 "U502" H 4200 5050 50  0000 L CNN
F 1 "TSV912" H 4200 4650 50  0000 L CNN
F 2 "Housings_SOIC:SOIC-8_3.9x4.9mm_Pitch1.27mm" H 4200 4450 50  0001 C CNN
F 3 "" H 4200 5050 50  0000 C CNN
	1    4200 4850
	1    0    0    -1  
$EndComp
$Comp
L GNDA #PWR023
U 1 1 58D6EAA9
P 4100 5450
F 0 "#PWR023" H 4100 5200 50  0001 C CNN
F 1 "GNDA" H 4100 5300 50  0000 C CNN
F 2 "" H 4100 5450 50  0000 C CNN
F 3 "" H 4100 5450 50  0000 C CNN
	1    4100 5450
	1    0    0    -1  
$EndComp
$Comp
L R R509
U 1 1 58D6EAAF
P 3300 4750
F 0 "R509" V 3380 4750 50  0000 C CNN
F 1 "100k" V 3300 4750 50  0000 C CNN
F 2 "Resistors_SMD:R_0603_HandSoldering" V 3230 4750 50  0001 C CNN
F 3 "" H 3300 4750 50  0000 C CNN
	1    3300 4750
	0    1    1    0   
$EndComp
$Comp
L R R508
U 1 1 58D6EAB5
P 2550 4750
F 0 "R508" V 2630 4750 50  0000 C CNN
F 1 "100k" V 2550 4750 50  0000 C CNN
F 2 "Resistors_SMD:R_0603_HandSoldering" V 2480 4750 50  0001 C CNN
F 3 "" H 2550 4750 50  0000 C CNN
	1    2550 4750
	0    1    1    0   
$EndComp
$Comp
L C C506
U 1 1 58D6EABB
P 3300 4200
F 0 "C506" H 3325 4300 50  0000 L CNN
F 1 "20n" H 3325 4100 50  0000 L CNN
F 2 "Capacitors_SMD:C_0603_HandSoldering" H 3338 4050 50  0001 C CNN
F 3 "" H 3300 4200 50  0000 C CNN
	1    3300 4200
	0    1    1    0   
$EndComp
$Comp
L C C507
U 1 1 58D6EAC1
P 3600 5150
F 0 "C507" H 3625 5250 50  0000 L CNN
F 1 "10n" H 3625 5050 50  0000 L CNN
F 2 "Capacitors_SMD:C_0603_HandSoldering" H 3638 5000 50  0001 C CNN
F 3 "" H 3600 5150 50  0000 C CNN
	1    3600 5150
	-1   0    0    1   
$EndComp
Wire Wire Line
	3150 4200 2900 4200
Wire Wire Line
	2900 4200 2900 4750
Wire Wire Line
	2700 4750 3150 4750
Connection ~ 2900 4750
Wire Wire Line
	3450 4750 3900 4750
Wire Wire Line
	3600 4750 3600 5000
Connection ~ 3600 4750
Wire Wire Line
	3900 4950 3800 4950
Wire Wire Line
	3800 4950 3800 5250
Wire Wire Line
	3800 5250 4600 5250
Wire Wire Line
	4600 5250 4600 4200
Wire Wire Line
	4500 4850 5100 4850
Wire Wire Line
	4100 5150 4100 5450
Wire Wire Line
	4600 4200 3450 4200
Connection ~ 4600 4850
Wire Wire Line
	1750 4750 2400 4750
Wire Wire Line
	3600 5300 3600 5400
Connection ~ 4100 5400
$Comp
L C C508
U 1 1 58D6EAD9
P 4950 5150
F 0 "C508" H 4975 5250 50  0000 L CNN
F 1 "100n" H 4975 5050 50  0000 L CNN
F 2 "Capacitors_SMD:C_0603_HandSoldering" H 4988 5000 50  0001 C CNN
F 3 "" H 4950 5150 50  0000 C CNN
	1    4950 5150
	-1   0    0    1   
$EndComp
Wire Wire Line
	4950 4450 4950 5000
Connection ~ 4100 4450
Wire Wire Line
	4950 5400 4950 5300
Text HLabel 5100 4850 2    60   Output ~ 0
TEMP_B_OUT
$Comp
L R R510
U 1 1 58D6EAE3
P 2050 5050
F 0 "R510" V 2130 5050 50  0000 C CNN
F 1 "10k" V 2050 5050 50  0000 C CNN
F 2 "Resistors_SMD:R_0603_HandSoldering" V 1980 5050 50  0001 C CNN
F 3 "" H 2050 5050 50  0000 C CNN
	1    2050 5050
	1    0    0    -1  
$EndComp
Wire Wire Line
	2050 5400 2050 5200
Connection ~ 3600 5400
Wire Wire Line
	2050 4900 2050 4750
Connection ~ 2050 4750
Text HLabel 1750 4750 0    60   Input ~ 0
TEMP_B_IN
Wire Wire Line
	4100 4400 4100 4550
$Comp
L +3.3VADC #PWR024
U 1 1 58D6EAEF
P 4100 4400
F 0 "#PWR024" H 4250 4350 50  0001 C CNN
F 1 "+3.3VADC" H 4100 4500 50  0000 C CNN
F 2 "" H 4100 4400 50  0000 C CNN
F 3 "" H 4100 4400 50  0000 C CNN
	1    4100 4400
	1    0    0    -1  
$EndComp
Wire Wire Line
	2050 5400 4950 5400
Wire Wire Line
	4100 4450 4950 4450
$Comp
L TSV912 U502
U 2 1 58D6EE53
P 4250 6650
F 0 "U502" H 4250 6850 50  0000 L CNN
F 1 "TSV912" H 4250 6450 50  0000 L CNN
F 2 "Housings_SOIC:SOIC-8_3.9x4.9mm_Pitch1.27mm" H 4250 6250 50  0001 C CNN
F 3 "" H 4250 6850 50  0000 C CNN
	2    4250 6650
	1    0    0    -1  
$EndComp
$Comp
L GNDA #PWR025
U 1 1 58D6EE59
P 4150 7250
F 0 "#PWR025" H 4150 7000 50  0001 C CNN
F 1 "GNDA" H 4150 7100 50  0000 C CNN
F 2 "" H 4150 7250 50  0000 C CNN
F 3 "" H 4150 7250 50  0000 C CNN
	1    4150 7250
	1    0    0    -1  
$EndComp
$Comp
L R R512
U 1 1 58D6EE5F
P 3350 6550
F 0 "R512" V 3430 6550 50  0000 C CNN
F 1 "100k" V 3350 6550 50  0000 C CNN
F 2 "Resistors_SMD:R_0603_HandSoldering" V 3280 6550 50  0001 C CNN
F 3 "" H 3350 6550 50  0000 C CNN
	1    3350 6550
	0    1    1    0   
$EndComp
$Comp
L R R511
U 1 1 58D6EE65
P 2600 6550
F 0 "R511" V 2680 6550 50  0000 C CNN
F 1 "100k" V 2600 6550 50  0000 C CNN
F 2 "Resistors_SMD:R_0603_HandSoldering" V 2530 6550 50  0001 C CNN
F 3 "" H 2600 6550 50  0000 C CNN
	1    2600 6550
	0    1    1    0   
$EndComp
$Comp
L C C509
U 1 1 58D6EE6B
P 3350 6000
F 0 "C509" H 3375 6100 50  0000 L CNN
F 1 "20n" H 3375 5900 50  0000 L CNN
F 2 "Capacitors_SMD:C_0603_HandSoldering" H 3388 5850 50  0001 C CNN
F 3 "" H 3350 6000 50  0000 C CNN
	1    3350 6000
	0    1    1    0   
$EndComp
$Comp
L C C510
U 1 1 58D6EE71
P 3650 6950
F 0 "C510" H 3675 7050 50  0000 L CNN
F 1 "10n" H 3675 6850 50  0000 L CNN
F 2 "Capacitors_SMD:C_0603_HandSoldering" H 3688 6800 50  0001 C CNN
F 3 "" H 3650 6950 50  0000 C CNN
	1    3650 6950
	-1   0    0    1   
$EndComp
Wire Wire Line
	3200 6000 2950 6000
Wire Wire Line
	2950 6000 2950 6550
Wire Wire Line
	2750 6550 3200 6550
Connection ~ 2950 6550
Wire Wire Line
	3500 6550 3950 6550
Wire Wire Line
	3650 6550 3650 6800
Connection ~ 3650 6550
Wire Wire Line
	3950 6750 3850 6750
Wire Wire Line
	3850 6750 3850 7050
Wire Wire Line
	3850 7050 4650 7050
Wire Wire Line
	4650 7050 4650 6000
Wire Wire Line
	4550 6650 5150 6650
Wire Wire Line
	4150 6950 4150 7250
Wire Wire Line
	4650 6000 3500 6000
Connection ~ 4650 6650
Wire Wire Line
	1800 6550 2450 6550
Wire Wire Line
	3650 7100 3650 7200
Connection ~ 4150 7200
Text HLabel 5150 6650 2    60   Output ~ 0
TEMP_C_OUT
$Comp
L R R513
U 1 1 58D6EE93
P 2100 6850
F 0 "R513" V 2180 6850 50  0000 C CNN
F 1 "10k" V 2100 6850 50  0000 C CNN
F 2 "Resistors_SMD:R_0603_HandSoldering" V 2030 6850 50  0001 C CNN
F 3 "" H 2100 6850 50  0000 C CNN
	1    2100 6850
	1    0    0    -1  
$EndComp
Wire Wire Line
	2100 7200 2100 7000
Connection ~ 3650 7200
Wire Wire Line
	2100 6700 2100 6550
Connection ~ 2100 6550
Text HLabel 1800 6550 0    60   Input ~ 0
TEMP_C_IN
Wire Wire Line
	4150 6200 4150 6350
$Comp
L +3.3VADC #PWR026
U 1 1 58D6EE9F
P 4150 6200
F 0 "#PWR026" H 4300 6150 50  0001 C CNN
F 1 "+3.3VADC" H 4150 6300 50  0000 C CNN
F 2 "" H 4150 6200 50  0000 C CNN
F 3 "" H 4150 6200 50  0000 C CNN
	1    4150 6200
	1    0    0    -1  
$EndComp
Wire Wire Line
	2100 7200 4150 7200
$Comp
L GNDA #PWR027
U 1 1 58BABB00
P 4100 3850
F 0 "#PWR027" H 4100 3600 50  0001 C CNN
F 1 "GNDA" H 4100 3700 50  0000 C CNN
F 2 "" H 4100 3850 50  0000 C CNN
F 3 "" H 4100 3850 50  0000 C CNN
	1    4100 3850
	1    0    0    -1  
$EndComp
$Comp
L TSV912 U601
U 1 1 58E4C100
P 9250 1550
F 0 "U601" H 9250 1750 50  0000 L CNN
F 1 "TSV912" H 9250 1350 50  0000 L CNN
F 2 "Housings_SOIC:SOIC-8_3.9x4.9mm_Pitch1.27mm" H 9250 1150 50  0001 C CNN
F 3 "" H 9250 1750 50  0000 C CNN
	1    9250 1550
	1    0    0    -1  
$EndComp
$Comp
L GNDA #PWR028
U 1 1 58E4C106
P 9150 2150
F 0 "#PWR028" H 9150 1900 50  0001 C CNN
F 1 "GNDA" H 9150 2000 50  0000 C CNN
F 2 "" H 9150 2150 50  0000 C CNN
F 3 "" H 9150 2150 50  0000 C CNN
	1    9150 2150
	1    0    0    -1  
$EndComp
$Comp
L R R602
U 1 1 58E4C10C
P 8350 1450
F 0 "R602" V 8430 1450 50  0000 C CNN
F 1 "100k" V 8350 1450 50  0000 C CNN
F 2 "Resistors_SMD:R_0603_HandSoldering" V 8280 1450 50  0001 C CNN
F 3 "" H 8350 1450 50  0000 C CNN
	1    8350 1450
	0    1    1    0   
$EndComp
$Comp
L R R601
U 1 1 58E4C112
P 7600 1450
F 0 "R601" V 7680 1450 50  0000 C CNN
F 1 "100k" V 7600 1450 50  0000 C CNN
F 2 "Resistors_SMD:R_0603_HandSoldering" V 7530 1450 50  0001 C CNN
F 3 "" H 7600 1450 50  0000 C CNN
	1    7600 1450
	0    1    1    0   
$EndComp
$Comp
L C C601
U 1 1 58E4C118
P 8350 900
F 0 "C601" H 8375 1000 50  0000 L CNN
F 1 "20n" H 8375 800 50  0000 L CNN
F 2 "Capacitors_SMD:C_0603_HandSoldering" H 8388 750 50  0001 C CNN
F 3 "" H 8350 900 50  0000 C CNN
	1    8350 900 
	0    1    1    0   
$EndComp
$Comp
L C C602
U 1 1 58E4C11E
P 8650 1850
F 0 "C602" H 8675 1950 50  0000 L CNN
F 1 "10n" H 8675 1750 50  0000 L CNN
F 2 "Capacitors_SMD:C_0603_HandSoldering" H 8688 1700 50  0001 C CNN
F 3 "" H 8650 1850 50  0000 C CNN
	1    8650 1850
	-1   0    0    1   
$EndComp
Wire Wire Line
	8200 900  7950 900 
Wire Wire Line
	7950 900  7950 1450
Wire Wire Line
	7750 1450 8200 1450
Connection ~ 7950 1450
Wire Wire Line
	8500 1450 8950 1450
Wire Wire Line
	8650 1450 8650 1700
Connection ~ 8650 1450
Wire Wire Line
	8950 1650 8850 1650
Wire Wire Line
	8850 1650 8850 1950
Wire Wire Line
	8850 1950 9650 1950
Wire Wire Line
	9650 1950 9650 900 
Wire Wire Line
	9550 1550 10150 1550
Wire Wire Line
	9150 1850 9150 2150
Wire Wire Line
	9650 900  8500 900 
Connection ~ 9650 1550
Wire Wire Line
	7250 1450 7450 1450
Wire Wire Line
	8650 2000 8650 2100
Connection ~ 9150 2100
$Comp
L C C603
U 1 1 58E4C136
P 10000 1850
F 0 "C603" H 10025 1950 50  0000 L CNN
F 1 "100n" H 10025 1750 50  0000 L CNN
F 2 "Capacitors_SMD:C_0603_HandSoldering" H 10038 1700 50  0001 C CNN
F 3 "" H 10000 1850 50  0000 C CNN
	1    10000 1850
	-1   0    0    1   
$EndComp
Wire Wire Line
	10000 1150 10000 1700
Connection ~ 9150 1150
Wire Wire Line
	10000 2100 10000 2000
Text HLabel 10150 1550 2    60   Output ~ 0
AIN1_OUT
Text HLabel 7250 1450 0    60   Input ~ 0
AIN1_IN
Wire Wire Line
	9150 1100 9150 1250
$Comp
L +3.3VADC #PWR029
U 1 1 58E4C14C
P 9150 1100
F 0 "#PWR029" H 9300 1050 50  0001 C CNN
F 1 "+3.3VADC" H 9150 1200 50  0000 C CNN
F 2 "" H 9150 1100 50  0000 C CNN
F 3 "" H 9150 1100 50  0000 C CNN
	1    9150 1100
	1    0    0    -1  
$EndComp
Wire Wire Line
	9150 1150 10000 1150
$Comp
L TSV912 U601
U 2 1 58E4DF1B
P 9550 3350
F 0 "U601" H 9550 3550 50  0000 L CNN
F 1 "TSV912" H 9550 3150 50  0000 L CNN
F 2 "Housings_SOIC:SOIC-8_3.9x4.9mm_Pitch1.27mm" H 9550 2950 50  0001 C CNN
F 3 "" H 9550 3550 50  0000 C CNN
	2    9550 3350
	1    0    0    -1  
$EndComp
$Comp
L GNDA #PWR030
U 1 1 58E4DF21
P 9450 3950
F 0 "#PWR030" H 9450 3700 50  0001 C CNN
F 1 "GNDA" H 9450 3800 50  0000 C CNN
F 2 "" H 9450 3950 50  0000 C CNN
F 3 "" H 9450 3950 50  0000 C CNN
	1    9450 3950
	1    0    0    -1  
$EndComp
$Comp
L R R604
U 1 1 58E4DF27
P 8650 3250
F 0 "R604" V 8730 3250 50  0000 C CNN
F 1 "100k" V 8650 3250 50  0000 C CNN
F 2 "Resistors_SMD:R_0603_HandSoldering" V 8580 3250 50  0001 C CNN
F 3 "" H 8650 3250 50  0000 C CNN
	1    8650 3250
	0    1    1    0   
$EndComp
$Comp
L R R603
U 1 1 58E4DF2D
P 7900 3250
F 0 "R603" V 7980 3250 50  0000 C CNN
F 1 "100k" V 7900 3250 50  0000 C CNN
F 2 "Resistors_SMD:R_0603_HandSoldering" V 7830 3250 50  0001 C CNN
F 3 "" H 7900 3250 50  0000 C CNN
	1    7900 3250
	0    1    1    0   
$EndComp
$Comp
L C C604
U 1 1 58E4DF33
P 8650 2700
F 0 "C604" H 8675 2800 50  0000 L CNN
F 1 "20n" H 8675 2600 50  0000 L CNN
F 2 "Capacitors_SMD:C_0603_HandSoldering" H 8688 2550 50  0001 C CNN
F 3 "" H 8650 2700 50  0000 C CNN
	1    8650 2700
	0    1    1    0   
$EndComp
$Comp
L C C605
U 1 1 58E4DF39
P 8950 3650
F 0 "C605" H 8975 3750 50  0000 L CNN
F 1 "10n" H 8975 3550 50  0000 L CNN
F 2 "Capacitors_SMD:C_0603_HandSoldering" H 8988 3500 50  0001 C CNN
F 3 "" H 8950 3650 50  0000 C CNN
	1    8950 3650
	-1   0    0    1   
$EndComp
Wire Wire Line
	8500 2700 8250 2700
Wire Wire Line
	8250 2700 8250 3250
Wire Wire Line
	8050 3250 8500 3250
Connection ~ 8250 3250
Wire Wire Line
	8800 3250 9250 3250
Wire Wire Line
	8950 3250 8950 3500
Connection ~ 8950 3250
Wire Wire Line
	9250 3450 9150 3450
Wire Wire Line
	9150 3450 9150 3750
Wire Wire Line
	9150 3750 9950 3750
Wire Wire Line
	9950 3750 9950 2700
Wire Wire Line
	9850 3350 10450 3350
Wire Wire Line
	9450 3650 9450 3950
Wire Wire Line
	9950 2700 8800 2700
Connection ~ 9950 3350
Wire Wire Line
	7250 3250 7750 3250
Wire Wire Line
	8950 3800 8950 3900
Connection ~ 9450 3900
Text HLabel 10450 3350 2    60   Output ~ 0
AIN2_OUT
Text HLabel 7250 3250 0    60   Input ~ 0
AIN2_IN
Wire Wire Line
	9450 2900 9450 3050
$Comp
L +3.3VADC #PWR031
U 1 1 58E4DF5E
P 9450 2900
F 0 "#PWR031" H 9600 2850 50  0001 C CNN
F 1 "+3.3VADC" H 9450 3000 50  0000 C CNN
F 2 "" H 9450 2900 50  0000 C CNN
F 3 "" H 9450 2900 50  0000 C CNN
	1    9450 2900
	1    0    0    -1  
$EndComp
Wire Wire Line
	7400 2100 10000 2100
Wire Wire Line
	7600 3900 9450 3900
$Comp
L R R515
U 1 1 58ED5B33
P 7600 3600
F 0 "R515" V 7680 3600 50  0000 C CNN
F 1 "10k" V 7600 3600 50  0000 C CNN
F 2 "Resistors_SMD:R_0603_HandSoldering" V 7530 3600 50  0001 C CNN
F 3 "" H 7600 3600 50  0000 C CNN
	1    7600 3600
	1    0    0    -1  
$EndComp
$Comp
L R R514
U 1 1 58ED6109
P 7400 1750
F 0 "R514" V 7480 1750 50  0000 C CNN
F 1 "10k" V 7400 1750 50  0000 C CNN
F 2 "Resistors_SMD:R_0603_HandSoldering" V 7330 1750 50  0001 C CNN
F 3 "" H 7400 1750 50  0000 C CNN
	1    7400 1750
	1    0    0    -1  
$EndComp
Wire Wire Line
	7400 2100 7400 1900
Connection ~ 8650 2100
Wire Wire Line
	7400 1600 7400 1450
Connection ~ 7400 1450
Wire Wire Line
	7600 3900 7600 3750
Connection ~ 8950 3900
Wire Wire Line
	7600 3450 7600 3250
Connection ~ 7600 3250
Wire Wire Line
	1250 1350 2450 1350
Wire Wire Line
	3650 2000 4150 2000
$EndSCHEMATC
